<?xml version="1.0" encoding="UTF-8" standalone="no"?>
<!-- Created with Inkscape (http://www.inkscape.org/) -->
<svg
   xmlns:dc="http://purl.org/dc/elements/1.1/"
   xmlns:cc="http://creativecommons.org/ns#"
   xmlns:rdf="http://www.w3.org/1999/02/22-rdf-syntax-ns#"
   xmlns:svg="http://www.w3.org/2000/svg"
   xmlns="http://www.w3.org/2000/svg"
   xmlns:sodipodi="http://sodipodi.sourceforge.net/DTD/sodipodi-0.dtd"
   xmlns:inkscape="http://www.inkscape.org/namespaces/inkscape"
   width="555.15601"
   height="654.76801"
   id="svg2"
   sodipodi:version="0.32"
   inkscape:version="0.46"
   version="1.0"
   sodipodi:docname="facet_with_corners_orientation.svg"
   inkscape:output_extension="org.inkscape.output.svg.inkscape"
   inkscape:export-filename="/home/prbrune/papers/Presentations/figures/HighDimensionalFEM/facet_with_corners_orientation.png"
   inkscape:export-xdpi="200"
   inkscape:export-ydpi="200">
  <defs
     id="defs4">
    <marker
       inkscape:stockid="Arrow1Lend"
       orient="auto"
       refY="0.0"
       refX="0.0"
       id="Arrow1Lend"
       style="overflow:visible;">
      <path
         id="path4290"
         d="M 0.0,0.0 L 5.0,-5.0 L -12.5,0.0 L 5.0,5.0 L 0.0,0.0 z "
         style="fill-rule:evenodd;stroke:#000000;stroke-width:1.0pt;marker-start:none;"
         transform="scale(0.8) rotate(180) translate(12.5,0)" />
    </marker>
    <marker
       inkscape:stockid="Arrow1Sstart"
       orient="auto"
       refY="0"
       refX="0"
       id="Arrow1Sstart"
       style="overflow:visible">
      <path
         id="path3186"
         d="M 0,0 L 5,-5 L -12.5,0 L 5,5 L 0,0 z"
         style="fill-rule:evenodd;stroke:#000000;stroke-width:1pt;marker-start:none"
         transform="matrix(0.2,0,0,0.2,1.2,0)" />
    </marker>
    <marker
       inkscape:stockid="Arrow1Lstart"
       orient="auto"
       refY="0"
       refX="0"
       id="Arrow1Lstart"
       style="overflow:visible">
      <path
         id="path3174"
         d="M 0,0 L 5,-5 L -12.5,0 L 5,5 L 0,0 z"
         style="fill-rule:evenodd;stroke:#000000;stroke-width:1pt;marker-start:none"
         transform="matrix(0.8,0,0,0.8,10,0)" />
    </marker>
    <inkscape:perspective
       sodipodi:type="inkscape:persp3d"
       inkscape:vp_x="0 : 526.18109 : 1"
       inkscape:vp_y="0 : 1000 : 0"
       inkscape:vp_z="744.09448 : 526.18109 : 1"
       inkscape:persp3d-origin="372.04724 : 350.78739 : 1"
       id="perspective10" />
  </defs>
  <sodipodi:namedview
     id="base"
     pagecolor="#ffffff"
     bordercolor="#666666"
     borderopacity="1.0"
     gridtolerance="10000"
     guidetolerance="10"
     objecttolerance="10"
     inkscape:pageopacity="0.0"
     inkscape:pageshadow="2"
     inkscape:zoom="0.7"
     inkscape:cx="375"
     inkscape:cy="375.32053"
     inkscape:document-units="px"
     inkscape:current-layer="layer1"
     showgrid="true"
     inkscape:window-width="1270"
     inkscape:window-height="745"
     inkscape:window-x="2"
     inkscape:window-y="0">
    <inkscape:grid
       type="xygrid"
       id="grid2383"
       visible="true"
       enabled="true" />
  </sodipodi:namedview>
  <metadata
     id="metadata7">
    <rdf:RDF>
      <cc:Work
         rdf:about="">
        <dc:format>image/svg+xml</dc:format>
        <dc:type
           rdf:resource="http://purl.org/dc/dcmitype/StillImage" />
      </cc:Work>
    </rdf:RDF>
  </metadata>
  <g
     inkscape:label="Layer 1"
     inkscape:groupmode="layer"
     id="layer1"
     transform="translate(38.992,-228.38618)">
    <path
       sodipodi:nodetypes="ccccc"
       id="path2391"
       d="M 280,292.36218 L 160,532.36218 L 480,652.36218 L 440,352.36218 L 280,292.36218 z"
       style="fill:#d40000;fill-rule:evenodd;stroke:#000000;stroke-width:1px;stroke-linecap:butt;stroke-linejoin:miter;stroke-opacity:1" />
    <path
       style="fill:#ff8080;fill-rule:evenodd;stroke:#000000;stroke-width:1px;stroke-linecap:butt;stroke-linejoin:miter;stroke-opacity:1"
       d="M 280,292.36218 L 440,352.36218 L 300,392.36218 L 280,292.36218 z"
       id="path2385"
       sodipodi:nodetypes="cccc" />
    <rect
       style="opacity:1;fill:#00ff00;fill-opacity:1;fill-rule:nonzero;stroke:none;stroke-width:9;stroke-linecap:butt;stroke-linejoin:bevel;stroke-miterlimit:4;stroke-dasharray:none;stroke-dashoffset:0;stroke-opacity:1"
       id="rect2444"
       width="20"
       height="80"
       x="20"
       y="14.768005"
       transform="translate(-38.992,228.38618)" />
    <path
       style="fill:#ffaaaa;fill-rule:evenodd;stroke:#000000;stroke-width:1px;stroke-linecap:butt;stroke-linejoin:miter;stroke-opacity:1"
       d="M 120,272.36218 L 0,512.36218 L 20,712.36218 L 140,372.36218 L 120,272.36218 z"
       id="path2393"
       sodipodi:nodetypes="ccccc" />
    <path
       sodipodi:nodetypes="cccc"
       id="path2395"
       d="M 160,532.36218 L 480,652.36218 L 180,732.36218 L 160,532.36218 z"
       style="fill:#ff8080;fill-rule:evenodd;stroke:#000000;stroke-width:1px;stroke-linecap:butt;stroke-linejoin:miter;stroke-opacity:1" />
    <path
       style="fill:#aa0000;fill-rule:evenodd;stroke:#000000;stroke-width:1px;stroke-linecap:butt;stroke-linejoin:miter;stroke-opacity:1"
       d="M 440,352.36218 L 480,652.36218 L 180,732.36218 L 300,392.36218 L 440,352.36218 z"
       id="path2389"
       sodipodi:nodetypes="ccccc" />
    <path
       style="fill:none;fill-rule:evenodd;stroke:#000000;stroke-width:10;stroke-linecap:butt;stroke-linejoin:miter;marker-start:url(#Arrow1Sstart);stroke-miterlimit:4;stroke-dasharray:none;stroke-opacity:1"
       d="M 220,512.36218 L 120,472.36218"
       id="path3169" />
    <text
       xml:space="preserve"
       style="font-size:36px;font-style:normal;font-variant:normal;font-weight:normal;font-stretch:normal;text-align:center;text-anchor:middle;fill:#000000;fill-opacity:1;stroke:none;stroke-width:1px;stroke-linecap:butt;stroke-linejoin:miter;stroke-opacity:1;font-family:cmr10;-inkscape-font-specification:cmr10"
       x="269"
       y="272.36218"
       id="text4474"><tspan
         sodipodi:role="line"
         id="tspan4476"
         x="269"
         y="272.36218">1</tspan></text>
    <text
       id="text4478"
       y="372.36218"
       x="489"
       style="font-size:36px;font-style:normal;font-variant:normal;font-weight:normal;font-stretch:normal;text-align:center;text-anchor:middle;fill:#000000;fill-opacity:1;stroke:none;stroke-width:1px;stroke-linecap:butt;stroke-linejoin:miter;stroke-opacity:1;font-family:cmr10;-inkscape-font-specification:cmr10"
       xml:space="preserve"><tspan
         y="372.36218"
         x="489"
         id="tspan4480"
         sodipodi:role="line">2</tspan></text>
    <text
       xml:space="preserve"
       style="font-size:36px;font-style:normal;font-variant:normal;font-weight:normal;font-stretch:normal;text-align:center;text-anchor:middle;fill:#000000;fill-opacity:1;stroke:none;stroke-width:1px;stroke-linecap:butt;stroke-linejoin:miter;stroke-opacity:1;font-family:cmr10;-inkscape-font-specification:cmr10"
       x="129"
       y="552.36218"
       id="text4482"><tspan
         sodipodi:role="line"
         id="tspan4484"
         x="129"
         y="552.36218">4</tspan></text>
    <text
       id="text4486"
       y="392.36218"
       x="269"
       style="font-size:36px;font-style:normal;font-variant:normal;font-weight:normal;font-stretch:normal;text-align:center;text-anchor:middle;fill:#000000;fill-opacity:1;stroke:none;stroke-width:1px;stroke-linecap:butt;stroke-linejoin:miter;stroke-opacity:1;font-family:cmr10;-inkscape-font-specification:cmr10"
       xml:space="preserve"><tspan
         y="392.36218"
         x="269"
         id="tspan4488"
         sodipodi:role="line">3</tspan></text>
    <text
       id="text4498"
       y="672.36218"
       x="509"
       style="font-size:36px;font-style:normal;font-variant:normal;font-weight:normal;font-stretch:normal;text-align:center;text-anchor:middle;fill:#000000;fill-opacity:1;stroke:none;stroke-width:1px;stroke-linecap:butt;stroke-linejoin:miter;stroke-opacity:1;font-family:cmr10;-inkscape-font-specification:cmr10"
       xml:space="preserve"><tspan
         y="672.36218"
         x="509"
         id="tspan4500"
         sodipodi:role="line">5</tspan></text>
    <text
       xml:space="preserve"
       style="font-size:36px;font-style:normal;font-variant:normal;font-weight:normal;font-stretch:normal;text-align:center;text-anchor:middle;fill:#000000;fill-opacity:1;stroke:none;stroke-width:1px;stroke-linecap:butt;stroke-linejoin:miter;stroke-opacity:1;font-family:cmr10;-inkscape-font-specification:cmr10"
       x="189"
       y="772.36218"
       id="text4502"><tspan
         sodipodi:role="line"
         id="tspan4504"
         x="189"
         y="772.36218">6</tspan></text>
    <text
       xml:space="preserve"
       style="font-size:36px;font-style:normal;font-variant:normal;font-weight:normal;font-stretch:normal;text-align:center;text-anchor:middle;fill:#000000;fill-opacity:1;stroke:none;stroke-width:1px;stroke-linecap:butt;stroke-linejoin:miter;stroke-opacity:1;font-family:cmr10;-inkscape-font-specification:cmr10"
       x="342.99609"
       y="532.36218"
       id="text4506"><tspan
         sodipodi:role="line"
         id="tspan4508"
         x="342.99609"
         y="532.36218">(2, 1)</tspan></text>
    <text
       xml:space="preserve"
       style="font-size:36px;font-style:normal;font-variant:normal;font-weight:normal;font-stretch:normal;text-align:center;text-anchor:middle;fill:#000000;fill-opacity:1;stroke:none;stroke-width:1px;stroke-linecap:butt;stroke-linejoin:miter;stroke-opacity:1;font-family:cmr10;-inkscape-font-specification:cmr10"
       x="36.984375"
       y="532.36218"
       id="text4510"><tspan
         sodipodi:role="line"
         id="tspan4512"
         x="36.984375"
         y="532.36218">(1,1)</tspan></text>
    <text
       id="text4514"
       y="252.36218"
       x="109"
       style="font-size:36px;font-style:normal;font-variant:normal;font-weight:normal;font-stretch:normal;text-align:center;text-anchor:middle;fill:#000000;fill-opacity:1;stroke:none;stroke-width:1px;stroke-linecap:butt;stroke-linejoin:miter;stroke-opacity:1;font-family:cmr10;-inkscape-font-specification:cmr10"
       xml:space="preserve"><tspan
         y="252.36218"
         x="109"
         id="tspan4516"
         sodipodi:role="line">1</tspan></text>
    <text
       xml:space="preserve"
       style="font-size:36px;font-style:normal;font-variant:normal;font-weight:normal;font-stretch:normal;text-align:center;text-anchor:middle;fill:#000000;fill-opacity:1;stroke:none;stroke-width:1px;stroke-linecap:butt;stroke-linejoin:miter;stroke-opacity:1;font-family:cmr10;-inkscape-font-specification:cmr10"
       x="109"
       y="372.36218"
       id="text4518"><tspan
         sodipodi:role="line"
         id="tspan4520"
         x="109"
         y="372.36218">3</tspan></text>
    <text
       id="text4522"
       y="512.36218"
       x="-31"
       style="font-size:36px;font-style:normal;font-variant:normal;font-weight:normal;font-stretch:normal;text-align:center;text-anchor:middle;fill:#000000;fill-opacity:1;stroke:none;stroke-width:1px;stroke-linecap:butt;stroke-linejoin:miter;stroke-opacity:1;font-family:cmr10;-inkscape-font-specification:cmr10"
       xml:space="preserve"><tspan
         y="512.36218"
         x="-31"
         id="tspan4524"
         sodipodi:role="line">4</tspan></text>
    <text
       id="text4526"
       y="752.36218"
       x="29"
       style="font-size:36px;font-style:normal;font-variant:normal;font-weight:normal;font-stretch:normal;text-align:center;text-anchor:middle;fill:#000000;fill-opacity:1;stroke:none;stroke-width:1px;stroke-linecap:butt;stroke-linejoin:miter;stroke-opacity:1;font-family:cmr10;-inkscape-font-specification:cmr10"
       xml:space="preserve"><tspan
         y="752.36218"
         x="29"
         id="tspan4528"
         sodipodi:role="line">6</tspan></text>
    <text
       xml:space="preserve"
       style="font-size:83.26206207px;font-style:normal;font-variant:normal;font-weight:normal;font-stretch:normal;text-align:center;text-anchor:middle;fill:#000000;fill-opacity:1;stroke:none;stroke-width:1px;stroke-linecap:butt;stroke-linejoin:miter;stroke-opacity:1;font-family:cmr10;-inkscape-font-specification:cmr10"
       x="452.15045"
       y="265.54657"
       id="text2414"
       transform="scale(0.8647396,1.1564175)"><tspan
         sodipodi:role="line"
         id="tspan2416"
         x="452.15045"
         y="265.54657">[</tspan></text>
    <text
       xml:space="preserve"
       style="font-size:83.87746429px;font-style:normal;font-variant:normal;font-weight:normal;font-stretch:normal;text-align:center;text-anchor:middle;fill:#000000;fill-opacity:1;stroke:none;stroke-width:1px;stroke-linecap:butt;stroke-linejoin:miter;stroke-opacity:1;font-family:cmr10;-inkscape-font-specification:cmr10"
       x="571.98877"
       y="263.29175"
       id="text2418"
       transform="scale(0.8583951,1.1649648)"><tspan
         sodipodi:role="line"
         id="tspan2420"
         x="571.98877"
         y="263.29175">]</tspan></text>
    <rect
       style="opacity:1;fill:#d5f6ff;fill-opacity:1;fill-rule:nonzero;stroke:none;stroke-width:9;stroke-linecap:butt;stroke-linejoin:bevel;stroke-miterlimit:4;stroke-dasharray:none;stroke-dashoffset:0;stroke-opacity:1"
       id="rect2450"
       width="20"
       height="80"
       x="500"
       y="14.768005"
       transform="translate(-38.992,228.38618)"
       ry="0" />
    <rect
       style="opacity:1;fill:#00ff00;fill-opacity:1;fill-rule:nonzero;stroke:none;stroke-width:9;stroke-linecap:butt;stroke-linejoin:bevel;stroke-miterlimit:4;stroke-dasharray:none;stroke-dashoffset:0;stroke-opacity:1"
       id="rect2454"
       width="60"
       height="40"
       x="401.008"
       y="243.15419" />
    <rect
       y="243.15419"
       x="401.008"
       height="80"
       width="20"
       id="rect2456"
       style="opacity:1;fill:#00ff00;fill-opacity:1;fill-rule:nonzero;stroke:none;stroke-width:9;stroke-linecap:butt;stroke-linejoin:bevel;stroke-miterlimit:4;stroke-dasharray:none;stroke-dashoffset:0;stroke-opacity:1" />
    <rect
       style="opacity:1;fill:#ff0000;fill-opacity:1;fill-rule:nonzero;stroke:none;stroke-width:9;stroke-linecap:butt;stroke-linejoin:bevel;stroke-miterlimit:4;stroke-dasharray:none;stroke-dashoffset:0;stroke-opacity:1"
       id="rect2452"
       width="20"
       height="40"
       x="401.008"
       y="243.15419" />
    <text
       xml:space="preserve"
       style="font-size:36px;font-style:normal;font-variant:normal;font-weight:normal;font-stretch:normal;text-align:center;text-anchor:middle;fill:#000000;fill-opacity:1;stroke:none;stroke-width:1px;stroke-linecap:butt;stroke-linejoin:miter;stroke-opacity:1;font-family:cmr10;-inkscape-font-specification:cmr10"
       x="440.03143"
       y="273.15417"
       id="text2422"><tspan
         sodipodi:role="line"
         x="440.03143"
         y="273.15417"
         id="tspan2426">1 3 2</tspan><tspan
         sodipodi:role="line"
         x="440.03143"
         y="318.15417"
         id="tspan2430">4 6 5</tspan></text>
    <text
       transform="scale(0.8647396,1.1564175)"
       id="text2432"
       y="271.10562"
       x="-33.544872"
       style="font-size:83.26206207px;font-style:normal;font-variant:normal;font-weight:normal;font-stretch:normal;text-align:center;text-anchor:middle;fill:#000000;fill-opacity:1;stroke:none;stroke-width:1px;stroke-linecap:butt;stroke-linejoin:miter;stroke-opacity:1;font-family:cmr10;-inkscape-font-specification:cmr10"
       xml:space="preserve"><tspan
         y="271.10562"
         x="-33.544872"
         id="tspan2434"
         sodipodi:role="line">[</tspan></text>
    <text
       transform="scale(0.8583951,1.1649648)"
       id="text2436"
       y="268.81"
       x="59.40432"
       style="font-size:83.87746429px;font-style:normal;font-variant:normal;font-weight:normal;font-stretch:normal;text-align:center;text-anchor:middle;fill:#000000;fill-opacity:1;stroke:none;stroke-width:1px;stroke-linecap:butt;stroke-linejoin:miter;stroke-opacity:1;font-family:cmr10;-inkscape-font-specification:cmr10"
       xml:space="preserve"><tspan
         y="268.81"
         x="59.40432"
         id="tspan2438"
         sodipodi:role="line">]</tspan></text>
    <rect
       transform="translate(-38.992,228.38618)"
       y="14.768005"
       x="20"
       height="40"
       width="60"
       id="rect2448"
       style="opacity:1;fill:#00ff00;fill-opacity:1;fill-rule:nonzero;stroke:none;stroke-width:9;stroke-linecap:butt;stroke-linejoin:bevel;stroke-miterlimit:4;stroke-dasharray:none;stroke-dashoffset:0;stroke-opacity:1" />
    <rect
       transform="translate(-38.992,228.38618)"
       y="14.768005"
       x="20"
       height="40"
       width="20"
       id="rect2446"
       style="opacity:1;fill:#ff0000;fill-opacity:1;fill-rule:nonzero;stroke:none;stroke-width:9;stroke-linecap:butt;stroke-linejoin:bevel;stroke-miterlimit:4;stroke-dasharray:none;stroke-dashoffset:0;stroke-opacity:1" />
    <text
       id="text2440"
       y="273.15417"
       x="5.0197186"
       style="font-size:36px;font-style:normal;font-variant:normal;font-weight:normal;font-stretch:normal;text-align:center;text-anchor:middle;fill:#000000;fill-opacity:1;stroke:none;stroke-width:1px;stroke-linecap:butt;stroke-linejoin:miter;stroke-opacity:1;font-family:cmr10;-inkscape-font-specification:cmr10"
       xml:space="preserve"><tspan
         id="tspan2442"
         y="273.15417"
         x="5.0197186"
         sodipodi:role="line">4 1</tspan><tspan
         id="tspan2444"
         y="318.15417"
         x="5.0197186"
         sodipodi:role="line">6 3</tspan></text>
    <text
       xml:space="preserve"
       style="font-size:40px;font-style:normal;font-variant:normal;font-weight:normal;font-stretch:normal;text-align:center;text-anchor:middle;fill:#000000;fill-opacity:1;stroke:none;stroke-width:1px;stroke-linecap:butt;stroke-linejoin:miter;stroke-opacity:1;font-family:cmr10;-inkscape-font-specification:cmr10"
       x="159.32831"
       y="473.15417"
       id="text2428"><tspan
         sodipodi:role="line"
         id="tspan2431"
         x="159.32831"
         y="473.15417">M</tspan></text>
    <text
       xml:space="preserve"
       style="font-size:40px;font-style:normal;font-variant:normal;font-weight:normal;font-stretch:normal;text-align:center;text-anchor:middle;fill:#000000;fill-opacity:1;stroke:none;stroke-width:1px;stroke-linecap:butt;stroke-linejoin:miter;stroke-opacity:1;font-family:cmr10;-inkscape-font-specification:cmr10"
       x="250.34393"
       y="873.15417"
       id="text2433"><tspan
         sodipodi:role="line"
         id="tspan2435"
         x="250.34393"
         y="873.15417">M = ((c, d, 0), (b, a))</tspan></text>
    <text
       xml:space="preserve"
       style="font-size:40px;font-style:normal;font-variant:normal;font-weight:normal;font-stretch:normal;text-align:center;text-anchor:middle;fill:#000000;fill-opacity:1;stroke:none;stroke-width:1px;stroke-linecap:butt;stroke-linejoin:miter;stroke-opacity:1;font-family:cmr10;-inkscape-font-specification:cmr10"
       x="247.33612"
       y="813.15417"
       id="text2441"><tspan
         sodipodi:role="line"
         id="tspan2443"
         x="247.33612"
         y="813.15417">F = ((a, b), (c, d))</tspan></text>
    <path
       style="fill:none;fill-rule:evenodd;stroke:#000000;stroke-width:4.49999981;stroke-linecap:butt;stroke-linejoin:miter;stroke-opacity:1;marker-start:url(#Arrow1Lstart);marker-mid:none;marker-end:url(#Arrow1Lend);stroke-miterlimit:4;stroke-dasharray:none"
       d="M 100,94.768005 L 20,254.76801 L 40,474.76801"
       id="path2458"
       transform="translate(-38.992,228.38618)"
       sodipodi:nodetypes="ccc" />
    <path
       sodipodi:nodetypes="cc"
       transform="translate(-38.992,228.38618)"
       id="path6128"
       d="M 160,294.76801 L 20,254.76801"
       style="fill:#37abc8;fill-rule:evenodd;stroke:#2b8bff;stroke-width:4.49999981000000027;stroke-linecap:butt;stroke-linejoin:miter;stroke-opacity:1;marker-start:url(#Arrow1Lstart);marker-mid:none;marker-end:none;stroke-miterlimit:4;stroke-dasharray:none" />
  </g>
</svg>
