<?xml version="1.0" encoding="UTF-8" standalone="no"?>
<!-- Created with Inkscape (http://www.inkscape.org/) -->
<svg
   xmlns:dc="http://purl.org/dc/elements/1.1/"
   xmlns:cc="http://creativecommons.org/ns#"
   xmlns:rdf="http://www.w3.org/1999/02/22-rdf-syntax-ns#"
   xmlns:svg="http://www.w3.org/2000/svg"
   xmlns="http://www.w3.org/2000/svg"
   xmlns:sodipodi="http://sodipodi.sourceforge.net/DTD/sodipodi-0.dtd"
   xmlns:inkscape="http://www.inkscape.org/namespaces/inkscape"
   width="868.05487"
   height="212.44196"
   id="svg2"
   sodipodi:version="0.32"
   inkscape:version="0.46"
   sodipodi:docname="helium_mesh_options.svg"
   inkscape:output_extension="org.inkscape.output.svg.inkscape"
   inkscape:export-filename="/home/prbrune/papers/Presentations/figures/HighDimensionalFEM/helium_mesh_options.png"
   inkscape:export-xdpi="317.85385"
   inkscape:export-ydpi="317.85385"
   version="1.0">
  <defs
     id="defs4">
    <marker
       inkscape:stockid="DotL"
       orient="auto"
       refY="0"
       refX="0"
       id="DotL"
       style="overflow:visible">
      <path
         id="path4326"
         d="M -2.5,-1 C -2.5,1.76 -4.74,4 -7.5,4 C -10.26,4 -12.5,1.76 -12.5,-1 C -12.5,-3.76 -10.26,-6 -7.5,-6 C -4.74,-6 -2.5,-3.76 -2.5,-1 z"
         style="fill-rule:evenodd;stroke:#000000;stroke-width:1pt;marker-start:none;marker-end:none"
         transform="matrix(0.8,0,0,0.8,5.92,0.8)" />
    </marker>
    <inkscape:perspective
       sodipodi:type="inkscape:persp3d"
       inkscape:vp_x="0 : 526.18109 : 1"
       inkscape:vp_y="0 : 1000 : 0"
       inkscape:vp_z="744.09448 : 526.18109 : 1"
       inkscape:persp3d-origin="372.04724 : 350.78739 : 1"
       id="perspective10" />
  </defs>
  <sodipodi:namedview
     id="base"
     pagecolor="#ffffff"
     bordercolor="#666666"
     borderopacity="1.0"
     gridtolerance="10000"
     guidetolerance="10"
     objecttolerance="10"
     inkscape:pageopacity="0.0"
     inkscape:pageshadow="2"
     inkscape:zoom="0.98994949"
     inkscape:cx="305.47485"
     inkscape:cy="109.11676"
     inkscape:document-units="px"
     inkscape:current-layer="layer1"
     showgrid="true"
     inkscape:window-width="814"
     inkscape:window-height="679"
     inkscape:window-x="458"
     inkscape:window-y="66">
    <inkscape:grid
       type="xygrid"
       id="grid2387"
       visible="true"
       enabled="true" />
  </sodipodi:namedview>
  <metadata
     id="metadata7">
    <rdf:RDF>
      <cc:Work
         rdf:about="">
        <dc:format>image/svg+xml</dc:format>
        <dc:type
           rdf:resource="http://purl.org/dc/dcmitype/StillImage" />
      </cc:Work>
    </rdf:RDF>
  </metadata>
  <g
     inkscape:label="Layer 1"
     inkscape:groupmode="layer"
     id="layer1"
     transform="translate(-46.487217,-204.46815)">
    <path
       style="fill:none;fill-rule:evenodd;stroke:#000000;stroke-width:0.77600002;stroke-linecap:butt;stroke-linejoin:miter;marker-start:url(#DotL);marker-mid:url(#DotL);marker-end:url(#DotL);stroke-miterlimit:4;stroke-dasharray:none;stroke-opacity:1"
       d="M 150.06739,297.43371 L 150.06739,319.08627 L 125.05621,319.08627 L 125.05621,297.43371 L 150.06739,297.43371 z"
       id="path2389"
       sodipodi:nodetypes="ccccc" />
    <path
       sodipodi:nodetypes="ccccc"
       id="path2391"
       d="M 175.07858,297.43371 L 175.07858,319.08627 L 150.06739,319.08627 L 150.06739,297.43371 L 175.07858,297.43371 z"
       style="fill:none;fill-rule:evenodd;stroke:#000000;stroke-width:0.77600002;stroke-linecap:butt;stroke-linejoin:miter;marker-start:url(#DotL);marker-mid:url(#DotL);marker-end:url(#DotL);stroke-miterlimit:4;stroke-dasharray:none;stroke-opacity:1" />
    <path
       sodipodi:nodetypes="ccccc"
       id="path2393"
       d="M 150.06739,319.08627 L 150.06739,340.73884 L 125.05621,340.73884 L 125.05621,319.08627 L 150.06739,319.08627 z"
       style="fill:none;fill-rule:evenodd;stroke:#000000;stroke-width:0.77600002;stroke-linecap:butt;stroke-linejoin:miter;marker-start:url(#DotL);marker-mid:url(#DotL);marker-end:url(#DotL);stroke-miterlimit:4;stroke-dasharray:none;stroke-opacity:1" />
    <path
       style="fill:none;fill-rule:evenodd;stroke:#000000;stroke-width:0.77600002;stroke-linecap:butt;stroke-linejoin:miter;marker-start:url(#DotL);marker-mid:url(#DotL);marker-end:url(#DotL);stroke-miterlimit:4;stroke-dasharray:none;stroke-opacity:1"
       d="M 175.07858,319.08627 L 175.07858,340.73884 L 150.06739,340.73884 L 150.06739,319.08627 L 175.07858,319.08627 z"
       id="path2395"
       sodipodi:nodetypes="ccccc" />
    <path
       sodipodi:nodetypes="ccccc"
       id="path2397"
       d="M 175.07858,340.73884 L 200.08978,362.39142 L 150.06739,362.39142 L 150.06739,340.73884 L 175.07858,340.73884 z"
       style="fill:none;fill-rule:evenodd;stroke:#000000;stroke-width:0.77600002;stroke-linecap:butt;stroke-linejoin:miter;marker-start:url(#DotL);marker-mid:url(#DotL);marker-end:url(#DotL);stroke-miterlimit:4;stroke-dasharray:none;stroke-opacity:1" />
    <path
       style="fill:none;fill-rule:evenodd;stroke:#000000;stroke-width:0.77600002;stroke-linecap:butt;stroke-linejoin:miter;marker-start:url(#DotL);marker-mid:url(#DotL);marker-end:url(#DotL);stroke-miterlimit:4;stroke-dasharray:none;stroke-opacity:1"
       d="M 150.06739,340.73884 L 150.06739,362.39142 L 100.04502,362.39142 L 125.05621,340.73884 L 150.06739,340.73884 z"
       id="path2399"
       sodipodi:nodetypes="ccccc" />
    <path
       sodipodi:nodetypes="ccccc"
       id="path2401"
       d="M 125.05621,319.08627 L 125.05621,340.73884 L 100.04502,362.39142 L 100.04502,319.08627 L 125.05621,319.08627 z"
       style="fill:none;fill-rule:evenodd;stroke:#000000;stroke-width:0.77600002;stroke-linecap:butt;stroke-linejoin:miter;marker-start:url(#DotL);marker-mid:url(#DotL);marker-end:url(#DotL);stroke-miterlimit:4;stroke-dasharray:none;stroke-opacity:1" />
    <path
       style="fill:none;fill-rule:evenodd;stroke:#000000;stroke-width:0.77600002;stroke-linecap:butt;stroke-linejoin:miter;marker-start:url(#DotL);marker-mid:url(#DotL);marker-end:url(#DotL);stroke-miterlimit:4;stroke-dasharray:none;stroke-opacity:1"
       d="M 125.05621,297.43371 L 125.05621,319.08627 L 100.04502,319.08627 L 100.04502,275.78114 L 125.05621,297.43371 z"
       id="path2403"
       sodipodi:nodetypes="ccccc" />
    <path
       sodipodi:nodetypes="ccccc"
       id="path2405"
       d="M 150.06739,275.78114 L 150.06739,297.43371 L 125.05621,297.43371 L 100.04502,275.78114 L 150.06739,275.78114 z"
       style="fill:none;fill-rule:evenodd;stroke:#000000;stroke-width:0.77600002;stroke-linecap:butt;stroke-linejoin:miter;marker-start:url(#DotL);marker-mid:url(#DotL);marker-end:url(#DotL);stroke-miterlimit:4;stroke-dasharray:none;stroke-opacity:1" />
    <path
       style="fill:none;fill-rule:evenodd;stroke:#000000;stroke-width:0.77600002;stroke-linecap:butt;stroke-linejoin:miter;marker-start:url(#DotL);marker-mid:url(#DotL);marker-end:url(#DotL);stroke-miterlimit:4;stroke-dasharray:none;stroke-opacity:1"
       d="M 200.08978,275.78114 L 175.07858,297.43371 L 150.06739,297.43371 L 150.06739,275.78114 L 200.08978,275.78114 z"
       id="path2407"
       sodipodi:nodetypes="ccccc" />
    <path
       sodipodi:nodetypes="ccccc"
       id="path2409"
       d="M 200.08978,275.78114 L 200.08978,319.08627 L 175.07858,319.08627 L 175.07858,297.43371 L 200.08978,275.78114 z"
       style="fill:none;fill-rule:evenodd;stroke:#000000;stroke-width:0.77600002;stroke-linecap:butt;stroke-linejoin:miter;marker-start:url(#DotL);marker-mid:url(#DotL);marker-end:url(#DotL);stroke-miterlimit:4;stroke-dasharray:none;stroke-opacity:1" />
    <path
       style="fill:none;fill-rule:evenodd;stroke:#000000;stroke-width:0.77600002;stroke-linecap:butt;stroke-linejoin:miter;marker-start:url(#DotL);marker-mid:url(#DotL);marker-end:url(#DotL);stroke-miterlimit:4;stroke-dasharray:none;stroke-opacity:1"
       d="M 200.08978,319.08627 L 200.08978,362.39142 L 175.07858,340.73884 L 175.07858,319.08627 L 200.08978,319.08627 z"
       id="path2411"
       sodipodi:nodetypes="ccccc" />
    <path
       style="fill:none;fill-rule:evenodd;stroke:#000000;stroke-width:0.77600002;stroke-linecap:butt;stroke-linejoin:miter;marker-start:url(#DotL);marker-mid:url(#DotL);marker-end:url(#DotL);stroke-miterlimit:4;stroke-dasharray:none;stroke-opacity:1"
       d="M 150.06739,232.476 L 150.06739,275.78114 L 100.04502,275.78114 L 50.022645,232.476 L 150.06739,232.476 z"
       id="path2413"
       sodipodi:nodetypes="ccccc" />
    <path
       sodipodi:nodetypes="ccccc"
       id="path2415"
       d="M 150.06739,232.476 L 150.06739,275.78114 L 200.08978,275.78114 L 250.11214,232.476 L 150.06739,232.476 z"
       style="fill:none;fill-rule:evenodd;stroke:#000000;stroke-width:0.77600002;stroke-linecap:butt;stroke-linejoin:miter;marker-start:url(#DotL);marker-mid:url(#DotL);marker-end:url(#DotL);stroke-miterlimit:4;stroke-dasharray:none;stroke-opacity:1" />
    <path
       style="fill:none;fill-rule:evenodd;stroke:#000000;stroke-width:0.77600002;stroke-linecap:butt;stroke-linejoin:miter;marker-start:url(#DotL);marker-mid:url(#DotL);marker-end:url(#DotL);stroke-miterlimit:4;stroke-dasharray:none;stroke-opacity:1"
       d="M 150.06739,405.69655 L 150.06739,362.39142 L 200.08978,362.39142 L 250.11214,405.69655 L 150.06739,405.69655 z"
       id="path2417"
       sodipodi:nodetypes="ccccc" />
    <path
       sodipodi:nodetypes="ccccc"
       id="path2419"
       d="M 150.06739,405.69655 L 150.06739,362.39142 L 100.04502,362.39142 L 50.022645,405.69655 L 150.06739,405.69655 z"
       style="fill:none;fill-rule:evenodd;stroke:#000000;stroke-width:0.77600002;stroke-linecap:butt;stroke-linejoin:miter;marker-start:url(#DotL);marker-mid:url(#DotL);marker-end:url(#DotL);stroke-miterlimit:4;stroke-dasharray:none;stroke-opacity:1" />
    <path
       style="fill:none;fill-rule:evenodd;stroke:#000000;stroke-width:0.77600002;stroke-linecap:butt;stroke-linejoin:miter;marker-start:url(#DotL);marker-mid:url(#DotL);marker-end:url(#DotL);stroke-miterlimit:4;stroke-dasharray:none;stroke-opacity:1"
       d="M 50.022645,319.08627 L 100.04502,319.08627 L 100.04502,275.78114 L 50.022645,232.476 L 50.022645,319.08627 z"
       id="path2421"
       sodipodi:nodetypes="ccccc" />
    <path
       sodipodi:nodetypes="ccccc"
       id="path2423"
       d="M 250.11214,319.08627 L 200.08978,319.08627 L 200.08978,275.78114 L 250.11214,232.476 L 250.11214,319.08627 z"
       style="fill:none;fill-rule:evenodd;stroke:#000000;stroke-width:0.77600002;stroke-linecap:butt;stroke-linejoin:miter;marker-start:url(#DotL);marker-mid:url(#DotL);marker-end:url(#DotL);stroke-miterlimit:4;stroke-dasharray:none;stroke-opacity:1" />
    <path
       style="fill:none;fill-rule:evenodd;stroke:#000000;stroke-width:0.77600002;stroke-linecap:butt;stroke-linejoin:miter;marker-start:url(#DotL);marker-mid:url(#DotL);marker-end:url(#DotL);stroke-miterlimit:4;stroke-dasharray:none;stroke-opacity:1"
       d="M 250.11214,319.08627 L 200.08978,319.08627 L 200.08978,362.39142 L 250.11214,405.69655 L 250.11214,319.08627 z"
       id="path2425"
       sodipodi:nodetypes="ccccc" />
    <path
       sodipodi:nodetypes="ccccc"
       id="path2427"
       d="M 50.022645,319.08627 L 100.04502,319.08627 L 100.04502,362.39142 L 50.022645,405.69655 L 50.022645,319.08627 z"
       style="fill:none;fill-rule:evenodd;stroke:#000000;stroke-width:0.77600002;stroke-linecap:butt;stroke-linejoin:miter;marker-start:url(#DotL);marker-mid:url(#DotL);marker-end:url(#DotL);stroke-miterlimit:4;stroke-dasharray:none;stroke-opacity:1" />
    <path
       style="fill:none;fill-rule:evenodd;stroke:#000000;stroke-width:1px;stroke-linecap:butt;stroke-linejoin:miter;marker-mid:url(#DotL);marker-end:url(#DotL);stroke-opacity:1"
       d="M 270,402.36218 L 380,222.36218 L 380,282.36218 L 330,372.36218 L 270,402.36218 z"
       id="path2429"
       sodipodi:nodetypes="ccccc" />
    <path
       sodipodi:nodetypes="cccc"
       id="path2431"
       d="M 380,342.36218 L 380,282.36218 L 430,372.36218 L 380,342.36218 z"
       style="fill:none;fill-rule:evenodd;stroke:#000000;stroke-width:1px;stroke-linecap:butt;stroke-linejoin:miter;marker-mid:url(#DotL);marker-end:url(#DotL);stroke-opacity:1" />
    <path
       sodipodi:nodetypes="ccccc"
       id="path2433"
       d="M 490,402.36218 L 380,222.36218 L 380,282.36218 L 430,372.36218 L 490,402.36218 z"
       style="fill:none;fill-rule:evenodd;stroke:#000000;stroke-width:1px;stroke-linecap:butt;stroke-linejoin:miter;marker-mid:url(#DotL);marker-end:url(#DotL);stroke-opacity:1" />
    <path
       style="fill:none;fill-rule:evenodd;stroke:#000000;stroke-width:1px;stroke-linecap:butt;stroke-linejoin:miter;marker-mid:url(#DotL);marker-end:url(#DotL);stroke-opacity:1"
       d="M 490,402.36218 L 430,372.36218 L 330,372.36218 L 270,402.36218 L 490,402.36218 z"
       id="path2435"
       sodipodi:nodetypes="ccccc" />
    <path
       style="fill:none;fill-rule:evenodd;stroke:#000000;stroke-width:1px;stroke-linecap:butt;stroke-linejoin:miter;marker-mid:url(#DotL);marker-end:url(#DotL);stroke-opacity:1"
       d="M 330,372.36218 L 380,342.36218 L 430,372.36218 L 330,372.36218 z"
       id="path2437"
       sodipodi:nodetypes="cccc" />
    <path
       style="fill:none;fill-rule:evenodd;stroke:#000000;stroke-width:1px;stroke-linecap:butt;stroke-linejoin:miter;marker-mid:url(#DotL);marker-end:url(#DotL);stroke-opacity:1"
       d="M 380,342.36218 L 380,282.36218 L 330,372.36218 L 380,342.36218 z"
       id="path2439"
       sodipodi:nodetypes="cccc" />
    <text
       xml:space="preserve"
       style="font-size:40px;font-style:normal;font-variant:normal;font-weight:normal;font-stretch:normal;text-align:center;text-anchor:middle;fill:#000000;fill-opacity:1;stroke:none;stroke-width:1px;stroke-linecap:butt;stroke-linejoin:miter;stroke-opacity:1;font-family:cmr10;-inkscape-font-specification:cmr10"
       x="417.19299"
       y="231.10815"
       id="text2441"><tspan
         sodipodi:role="line"
         id="tspan2443"
         x="417.19299"
         y="231.10815">2</tspan></text>
    <path
       style="fill:none;fill-rule:evenodd;stroke:#000000;stroke-width:1px;stroke-linecap:butt;stroke-linejoin:miter;marker-mid:url(#DotL);marker-end:none;stroke-opacity:1"
       d="M 830,232.36218 L 910,282.36218 L 910,362.36218 L 830,402.36218 L 750,362.36218 L 750,282.36218 L 830,232.36218 z"
       id="path2445" />
    <path
       style="fill:none;fill-rule:evenodd;stroke:#000000;stroke-width:1px;stroke-linecap:butt;stroke-linejoin:miter;marker-mid:url(#DotL);marker-end:none;stroke-opacity:1"
       d="M 830,232.36218 L 750,362.36218 L 910,362.36218 L 830,232.36218 z"
       id="path2449" />
    <path
       style="fill:none;fill-rule:evenodd;stroke:#000000;stroke-width:1px;stroke-linecap:butt;stroke-linejoin:miter;marker-mid:url(#DotL);marker-end:none;stroke-opacity:1"
       d="M 750,282.36218 L 910,282.36218 L 830,402.36218 L 750,282.36218 z"
       id="path2451" />
    <path
       style="fill:none;fill-rule:evenodd;stroke:#000000;stroke-width:1px;stroke-linecap:butt;stroke-linejoin:miter;marker-mid:url(#DotL);marker-end:none;stroke-opacity:1"
       d="M 750,282.36218 L 910,362.36218"
       id="path2453" />
    <path
       style="fill:none;fill-rule:evenodd;stroke:#000000;stroke-width:1px;stroke-linecap:butt;stroke-linejoin:miter;marker-start:url(#DotL);marker-mid:none;marker-end:url(#DotL);stroke-opacity:1"
       d="M 830,232.36218 L 830,402.36218"
       id="path2455" />
    <path
       style="fill:none;fill-rule:evenodd;stroke:#000000;stroke-width:1px;stroke-linecap:butt;stroke-linejoin:miter;marker-mid:url(#DotL);marker-end:none;stroke-opacity:1"
       d="M 910,282.36218 L 750,362.36218"
       id="path2457" />
    <path
       style="fill:none;fill-rule:evenodd;stroke:#002ff8;stroke-width:1px;stroke-linecap:butt;stroke-linejoin:miter;marker-start:url(#DotL);marker-mid:none;marker-end:url(#DotL);stroke-opacity:1"
       d="M 760,222.36218 L 890,412.36218"
       id="path2459" />
    <path
       style="fill:none;fill-rule:evenodd;stroke:#000000;stroke-width:1px;stroke-linecap:butt;stroke-linejoin:miter;marker-mid:url(#DotL);stroke-opacity:1"
       d="M 540,272.36218 L 610,232.36218 L 680,272.36218 L 700,342.36218 L 650,412.36218 L 570,412.36218 L 520,342.36218 L 540,272.36218 z"
       id="path2461"
       sodipodi:nodetypes="cccccccc" />
    <path
       style="fill:none;fill-rule:evenodd;stroke:#000000;stroke-width:1px;stroke-linecap:butt;stroke-linejoin:miter;marker-mid:url(#DotL);stroke-opacity:1"
       d="M 540,272.36218 L 680,272.36218 L 570,412.36218 L 540,272.36218 z"
       id="path2463" />
    <path
       style="fill:none;fill-rule:evenodd;stroke:#000000;stroke-width:1px;stroke-linecap:butt;stroke-linejoin:miter;marker-mid:url(#DotL);stroke-opacity:1"
       d="M 610,232.36218 L 700,342.36218 L 570,412.36218 L 610,232.36218 z"
       id="path2465" />
    <path
       style="fill:none;fill-rule:evenodd;stroke:#000000;stroke-width:1px;stroke-linecap:butt;stroke-linejoin:miter;marker-mid:url(#DotL);stroke-opacity:1"
       d="M 700,342.36218 L 540,272.36218 L 650,412.36218 L 520,342.36218 L 680,272.36218"
       id="path2467" />
    <path
       style="fill:none;fill-rule:evenodd;stroke:#000000;stroke-width:1px;stroke-linecap:butt;stroke-linejoin:miter;marker-mid:url(#DotL);stroke-opacity:1"
       d="M 650,412.36218 L 610,232.36218 L 520,342.36218"
       id="path2469" />
    <path
       style="fill:none;fill-rule:evenodd;stroke:#000000;stroke-width:1px;stroke-linecap:butt;stroke-linejoin:miter;marker-mid:url(#DotL);stroke-opacity:1"
       d="M 680,272.36218 L 650,412.36218"
       id="path2471" />
    <path
       style="fill:none;fill-rule:evenodd;stroke:#000000;stroke-width:1px;stroke-linecap:butt;stroke-linejoin:miter;stroke-opacity:1"
       d="M 520,342.36218 L 700,342.36218"
       id="path11219" />
  </g>
</svg>
