<?xml version="1.0" encoding="UTF-8" standalone="no"?>
<!-- Created with Inkscape (http://www.inkscape.org/) -->
<svg
   xmlns:dc="http://purl.org/dc/elements/1.1/"
   xmlns:cc="http://creativecommons.org/ns#"
   xmlns:rdf="http://www.w3.org/1999/02/22-rdf-syntax-ns#"
   xmlns:svg="http://www.w3.org/2000/svg"
   xmlns="http://www.w3.org/2000/svg"
   xmlns:sodipodi="http://sodipodi.sourceforge.net/DTD/sodipodi-0.dtd"
   xmlns:inkscape="http://www.inkscape.org/namespaces/inkscape"
   width="500.776"
   height="393.58594"
   id="svg2"
   sodipodi:version="0.32"
   inkscape:version="0.46"
   sodipodi:docname="NElectronsMNuclei.svg"
   inkscape:output_extension="org.inkscape.output.svg.inkscape"
   version="1.0"
   inkscape:export-filename="/home/prbrune/papers/Presentations/figures/HighDimensionalFEM/NElectronsMNuclei.png"
   inkscape:export-xdpi="317.85385"
   inkscape:export-ydpi="317.85385">
  <defs
     id="defs4">
    <marker
       inkscape:stockid="Arrow1Lstart"
       orient="auto"
       refY="0"
       refX="0"
       id="Arrow1Lstart"
       style="overflow:visible">
      <path
         id="path3214"
         d="M 0,0 L 5,-5 L -12.5,0 L 5,5 L 0,0 z"
         style="fill-rule:evenodd;stroke:#000000;stroke-width:1pt;marker-start:none"
         transform="matrix(0.8,0,0,0.8,10,0)" />
    </marker>
    <inkscape:perspective
       sodipodi:type="inkscape:persp3d"
       inkscape:vp_x="0 : 526.18109 : 1"
       inkscape:vp_y="0 : 1000 : 0"
       inkscape:vp_z="744.09448 : 526.18109 : 1"
       inkscape:persp3d-origin="372.04724 : 350.78739 : 1"
       id="perspective10" />
  </defs>
  <sodipodi:namedview
     id="base"
     pagecolor="#ffffff"
     bordercolor="#666666"
     borderopacity="1.0"
     gridtolerance="10000"
     guidetolerance="10"
     objecttolerance="10"
     inkscape:pageopacity="0.0"
     inkscape:pageshadow="2"
     inkscape:zoom="0.7"
     inkscape:cx="375"
     inkscape:cy="85.328018"
     inkscape:document-units="px"
     inkscape:current-layer="layer1"
     showgrid="true"
     inkscape:window-width="1272"
     inkscape:window-height="745"
     inkscape:window-x="0"
     inkscape:window-y="0">
    <inkscape:grid
       type="xygrid"
       id="grid2383"
       visible="true"
       enabled="true" />
  </sodipodi:namedview>
  <metadata
     id="metadata7">
    <rdf:RDF>
      <cc:Work
         rdf:about="">
        <dc:format>image/svg+xml</dc:format>
        <dc:type
           rdf:resource="http://purl.org/dc/dcmitype/StillImage" />
      </cc:Work>
    </rdf:RDF>
  </metadata>
  <g
     inkscape:label="Layer 1"
     inkscape:groupmode="layer"
     id="layer1"
     transform="translate(-99.612,-359.10437)">
    <path
       d="M 180,352.36218 A 20,20 0 1 1 140,352.36218 A 20,20 0 1 1 180,352.36218 z"
       sodipodi:ry="20"
       sodipodi:rx="20"
       sodipodi:cy="352.36218"
       sodipodi:cx="160"
       id="path2389"
       style="opacity:1;fill:#ff0000;fill-opacity:1;fill-rule:nonzero;stroke:#002ff8;stroke-width:0.77600002;stroke-linecap:butt;stroke-linejoin:bevel;stroke-miterlimit:4;stroke-dasharray:none;stroke-dashoffset:0;stroke-opacity:1"
       sodipodi:type="arc"
       transform="translate(420,220)" />
    <path
       d="M 180,352.36218 A 20,20 0 1 1 140,352.36218 A 20,20 0 1 1 180,352.36218 z"
       sodipodi:ry="20"
       sodipodi:rx="20"
       sodipodi:cy="352.36218"
       sodipodi:cx="160"
       id="path2393"
       style="opacity:1;fill:#ff0000;fill-opacity:1;fill-rule:nonzero;stroke:#002ff8;stroke-width:0.77600002;stroke-linecap:butt;stroke-linejoin:bevel;stroke-miterlimit:4;stroke-dasharray:none;stroke-dashoffset:0;stroke-opacity:1"
       sodipodi:type="arc"
       transform="translate(-40,200)" />
    <path
       style="opacity:1;fill:#0000ff;fill-opacity:1;fill-rule:nonzero;stroke:#002ff8;stroke-width:1.29584932;stroke-linecap:butt;stroke-linejoin:bevel;stroke-miterlimit:4;stroke-dasharray:none;stroke-dashoffset:0;stroke-opacity:1"
       id="path2425"
       d="M 279.89646,633.24046 C 394.09868,653.3382 560.57887,633.24046 560.57887,593.50024 C 504.4424,633.24046 448.30591,653.11058 279.89646,633.24046 z"
       sodipodi:nodetypes="ccc" />
    <path
       style="opacity:0.32217575;fill:none;fill-rule:evenodd;stroke:#000000;stroke-width:3.5999999;stroke-linecap:butt;stroke-linejoin:miter;marker-start:url(#Arrow1Lstart);stroke-miterlimit:4;stroke-dasharray:none;stroke-opacity:1"
       d="M 580,552.36218 L 340,372.36218"
       id="path3995"
       sodipodi:nodetypes="cc" />
    <path
       sodipodi:nodetypes="cc"
       id="path3997"
       d="M 120,532.36218 L 340,372.36218"
       style="opacity:0.32217575;fill:none;fill-rule:evenodd;stroke:#000000;stroke-width:3.5999999;stroke-linecap:butt;stroke-linejoin:miter;marker-start:url(#Arrow1Lstart);stroke-miterlimit:4;stroke-dasharray:none;stroke-opacity:1" />
    <path
       style="opacity:0.32635983;fill:none;fill-rule:evenodd;stroke:#000000;stroke-width:3.5999999;stroke-linecap:butt;stroke-linejoin:miter;marker-start:url(#Arrow1Lstart);stroke-miterlimit:4;stroke-dasharray:none;stroke-opacity:1"
       d="M 420,492.36218 L 380,732.36218"
       id="path4011"
       sodipodi:nodetypes="cc" />
    <text
       xml:space="preserve"
       style="font-size:48px;font-style:normal;font-variant:normal;font-weight:normal;font-stretch:normal;text-align:center;text-anchor:middle;fill:#000000;fill-opacity:1;stroke:none;stroke-width:1px;stroke-linecap:butt;stroke-linejoin:miter;stroke-opacity:1;font-family:Georgia;-inkscape-font-specification:Georgia"
       x="418.42188"
       y="752.36218"
       id="text4021"><tspan
         sodipodi:role="line"
         id="tspan4023"
         x="418.42188"
         y="752.36218">N</tspan></text>
    <path
       transform="translate(-40,200)"
       sodipodi:type="arc"
       style="opacity:1;fill:#ff0000;fill-opacity:1;fill-rule:nonzero;stroke:#002ff8;stroke-width:0.77600002;stroke-linecap:butt;stroke-linejoin:bevel;stroke-miterlimit:4;stroke-dasharray:none;stroke-dashoffset:0;stroke-opacity:1"
       id="path4045"
       sodipodi:cx="160"
       sodipodi:cy="352.36218"
       sodipodi:rx="20"
       sodipodi:ry="20"
       d="M 180,352.36218 A 20,20 0 1 1 140,352.36218 A 20,20 0 1 1 180,352.36218 z" />
    <path
       d="M 180,352.36218 A 20,20 0 1 1 140,352.36218 A 20,20 0 1 1 180,352.36218 z"
       sodipodi:ry="20"
       sodipodi:rx="20"
       sodipodi:cy="352.36218"
       sodipodi:cx="160"
       id="path4047"
       style="opacity:1;fill:#0000ff;fill-opacity:1;fill-rule:nonzero;stroke:#002ff8;stroke-width:0.77600002;stroke-linecap:butt;stroke-linejoin:bevel;stroke-miterlimit:4;stroke-dasharray:none;stroke-dashoffset:0;stroke-opacity:1"
       sodipodi:type="arc"
       transform="matrix(0.3,0,0,0.3,372,366.65353)" />
    <path
       transform="matrix(0.3,0,0,0.3,211.612,520.98165)"
       sodipodi:type="arc"
       style="opacity:1;fill:#0000ff;fill-opacity:1;fill-rule:nonzero;stroke:#002ff8;stroke-width:0.77600002;stroke-linecap:butt;stroke-linejoin:bevel;stroke-miterlimit:4;stroke-dasharray:none;stroke-dashoffset:0;stroke-opacity:1"
       id="path4049"
       sodipodi:cx="160"
       sodipodi:cy="352.36218"
       sodipodi:rx="20"
       sodipodi:ry="20"
       d="M 180,352.36218 A 20,20 0 1 1 140,352.36218 A 20,20 0 1 1 180,352.36218 z" />
    <path
       sodipodi:nodetypes="ccc"
       d="M 399.25512,471.8539 C 318.1835,441.25317 200,471.8539 200,532.36218 C 239.85102,471.8539 279.70205,441.59975 399.25512,471.8539 z"
       id="path4051"
       style="opacity:1;fill:#0000ff;fill-opacity:1;fill-rule:nonzero;stroke:#002ff8;stroke-width:1.34723675;stroke-linecap:butt;stroke-linejoin:bevel;stroke-miterlimit:4;stroke-dasharray:none;stroke-dashoffset:0;stroke-opacity:1" />
    <path
       sodipodi:nodetypes="cc"
       id="path4053"
       d="M 259.612,632.69031 L 380,732.36218"
       style="opacity:0.32635983;fill:none;fill-rule:evenodd;stroke:#000000;stroke-width:3.5999999;stroke-linecap:butt;stroke-linejoin:miter;marker-start:url(#Arrow1Lstart);stroke-miterlimit:4;stroke-dasharray:none;stroke-opacity:1" />
    <text
       id="text4055"
       y="392.36218"
       x="282.26562"
       style="font-size:48px;font-style:normal;font-variant:normal;font-weight:normal;font-stretch:normal;text-align:center;text-anchor:middle;fill:#000000;fill-opacity:1;stroke:none;stroke-width:1px;stroke-linecap:butt;stroke-linejoin:miter;stroke-opacity:1;font-family:Georgia;-inkscape-font-specification:Georgia"
       xml:space="preserve"><tspan
         y="392.36218"
         x="282.26562"
         id="tspan4057"
         sodipodi:role="line">M</tspan></text>
  </g>
</svg>
