<?xml version="1.0" encoding="UTF-8" standalone="no"?>
<!-- Created with Inkscape (http://www.inkscape.org/) -->
<svg
   xmlns:dc="http://purl.org/dc/elements/1.1/"
   xmlns:cc="http://web.resource.org/cc/"
   xmlns:rdf="http://www.w3.org/1999/02/22-rdf-syntax-ns#"
   xmlns:svg="http://www.w3.org/2000/svg"
   xmlns="http://www.w3.org/2000/svg"
   xmlns:sodipodi="http://sodipodi.sourceforge.net/DTD/sodipodi-0.dtd"
   xmlns:inkscape="http://www.inkscape.org/namespaces/inkscape"
   width="792pt"
   height="612pt"
   id="svg2160"
   sodipodi:version="0.32"
   inkscape:version="0.45.1"
   sodipodi:docbase="/dynamics/Presentations/figures/Indirection"
   sodipodi:docname="GeoIndirection3.svg"
   inkscape:output_extension="org.inkscape.output.svg.inkscape">
  <defs
     id="defs2162">
    <marker
       inkscape:stockid="Arrow2Lend"
       orient="auto"
       refY="0.0"
       refX="0.0"
       id="Arrow2Lend"
       style="overflow:visible;">
      <path
         id="path4314"
         style="font-size:12.0;fill-rule:evenodd;stroke-width:0.62500000;stroke-linejoin:round;"
         d="M 8.7185878,4.0337352 L -2.2072895,0.016013256 L 8.7185884,-4.0017078 C 6.9730900,-1.6296469 6.9831476,1.6157441 8.7185878,4.0337352 z "
         transform="scale(1.1) rotate(180) translate(1,0)" />
    </marker>
  </defs>
  <sodipodi:namedview
     inkscape:document-units="in"
     pagecolor="#ffffff"
     bordercolor="#666666"
     borderopacity="1.0"
     inkscape:pageopacity="0.0"
     inkscape:pageshadow="2"
     inkscape:zoom="1.2343434"
     inkscape:cx="732.98887"
     inkscape:cy="427.76019"
     inkscape:current-layer="layer1"
     id="namedview2164"
     inkscape:window-width="1404"
     inkscape:window-height="1041"
     inkscape:window-x="49"
     inkscape:window-y="49" />
  <metadata
     id="metadata2166">
    <rdf:RDF>
      <cc:Work
         rdf:about="">
        <dc:format>image/svg+xml</dc:format>
        <dc:type
           rdf:resource="http://purl.org/dc/dcmitype/StillImage" />
      </cc:Work>
    </rdf:RDF>
  </metadata>
  <g
     inkscape:label="Layer 1"
     inkscape:groupmode="layer"
     id="layer1">
    <g
       id="g43618"
       style="opacity:0.33000004"
       transform="translate(-24.30442,-89.116205)">
      <rect
         y="201.18658"
         x="186.33388"
         height="51.849426"
         width="585.73651"
         id="rect2169"
         style="opacity:0.5;color:#000000;fill:#ffff00;fill-opacity:1;fill-rule:nonzero;stroke:#0000c7;stroke-width:1;stroke-linecap:butt;stroke-linejoin:round;marker:none;marker-start:none;marker-mid:none;marker-end:none;stroke-miterlimit:4;stroke-dasharray:4, 4;stroke-dashoffset:0;stroke-opacity:1;visibility:visible;display:inline;overflow:visible;enable-background:accumulate" />
      <text
         sodipodi:linespacing="125%"
         id="text2171"
         y="236.83305"
         x="36.456623"
         style="font-size:28px;font-style:normal;font-variant:normal;font-weight:bold;font-stretch:normal;text-align:start;line-height:125%;writing-mode:lr-tb;text-anchor:start;fill:#000000;fill-opacity:1;stroke:none;stroke-width:1px;stroke-linecap:butt;stroke-linejoin:miter;stroke-opacity:1;font-family:Bitstream Vera Sans"
         xml:space="preserve"><tspan
           y="236.83305"
           x="36.456623"
           id="tspan2173"
           sodipodi:role="line">support:</tspan></text>
      <text
         sodipodi:linespacing="125%"
         id="text2175"
         y="358.35516"
         x="47.798691"
         style="font-size:28px;font-style:normal;font-variant:normal;font-weight:bold;font-stretch:normal;text-align:start;line-height:125%;writing-mode:lr-tb;text-anchor:start;fill:#000000;fill-opacity:1;stroke:none;stroke-width:1px;stroke-linecap:butt;stroke-linejoin:miter;stroke-opacity:1;font-family:Bitstream Vera Sans"
         xml:space="preserve"><tspan
           y="358.35516"
           x="47.798691"
           id="tspan2177"
           sodipodi:role="line">data:</tspan></text>
      <rect
         y="320.34421"
         x="184.37451"
         height="51.717422"
         width="752.49487"
         id="rect3150"
         style="opacity:0.5;color:#000000;fill:#00ffff;fill-opacity:1;fill-rule:nonzero;stroke:#0000c7;stroke-width:1.13200176;stroke-linecap:butt;stroke-linejoin:round;marker:none;marker-start:none;marker-mid:none;marker-end:none;stroke-miterlimit:4;stroke-dasharray:4.52800687, 4.52800687;stroke-dashoffset:0;stroke-opacity:1;visibility:visible;display:inline;overflow:visible;enable-background:accumulate" />
      <path
         inkscape:connector-type="polyline"
         id="path3152"
         d="M 308.66612,201.99673 L 308.66612,253.84615"
         style="fill:none;fill-rule:evenodd;stroke:#000000;stroke-width:1px;stroke-linecap:butt;stroke-linejoin:miter;stroke-opacity:1" />
      <path
         inkscape:connector-type="polyline"
         id="path3154"
         d="M 512.01309,201.18659 L 512.01309,253.03601"
         style="fill:none;fill-rule:evenodd;stroke:#000000;stroke-width:1px;stroke-linecap:butt;stroke-linejoin:miter;stroke-opacity:1" />
      <path
         inkscape:connector-type="polyline"
         id="path3156"
         d="M 563.05238,201.99672 L 563.05238,253.84614"
         style="fill:none;fill-rule:evenodd;stroke:#000000;stroke-width:1px;stroke-linecap:butt;stroke-linejoin:miter;stroke-opacity:1" />
      <path
         inkscape:connector-type="polyline"
         id="path3158"
         d="M 302.99509,320.27823 L 302.99509,372.12765"
         style="fill:none;fill-rule:evenodd;stroke:#000000;stroke-width:1px;stroke-linecap:butt;stroke-linejoin:miter;stroke-opacity:1" />
      <path
         inkscape:connector-type="polyline"
         id="path3160"
         d="M 444.77087,320.27824 L 444.77087,372.12766"
         style="fill:none;fill-rule:evenodd;stroke:#000000;stroke-width:1px;stroke-linecap:butt;stroke-linejoin:miter;stroke-opacity:1" />
      <path
         inkscape:connector-type="polyline"
         id="path3162"
         d="M 671.61212,320.70868 L 671.61212,372.5581"
         style="fill:none;fill-rule:evenodd;stroke:#000000;stroke-width:1px;stroke-linecap:butt;stroke-linejoin:miter;stroke-opacity:1" />
      <text
         sodipodi:linespacing="125%"
         id="text3164"
         y="236.83304"
         x="384.81995"
         style="font-size:28px;font-style:normal;font-variant:normal;font-weight:bold;font-stretch:normal;text-align:start;line-height:125%;writing-mode:lr-tb;text-anchor:start;fill:#000000;fill-opacity:1;stroke:none;stroke-width:1px;stroke-linecap:butt;stroke-linejoin:miter;stroke-opacity:1;font-family:Bitstream Vera Sans"
         xml:space="preserve"><tspan
           y="236.83304"
           x="384.81995"
           id="tspan3166"
           sodipodi:role="line">. . .</tspan></text>
      <text
         sodipodi:linespacing="125%"
         id="text3168"
         y="137.13583"
         x="235.75285"
         style="font-size:28px;font-style:normal;font-variant:normal;font-weight:bold;font-stretch:normal;text-align:start;line-height:125%;writing-mode:lr-tb;text-anchor:start;fill:#000000;fill-opacity:1;stroke:none;stroke-width:1px;stroke-linecap:butt;stroke-linejoin:miter;stroke-opacity:1;font-family:Bitstream Vera Sans"
         xml:space="preserve"><tspan
           style="fill:#ff00ff"
           y="137.13583"
           x="235.75285"
           id="tspan3170"
           sodipodi:role="line">6</tspan></text>
      <g
         transform="translate(3.1898527,0.8101473)"
         id="g3206">
        <text
           xml:space="preserve"
           style="font-size:28px;font-style:normal;font-variant:normal;font-weight:bold;font-stretch:normal;text-align:start;line-height:125%;writing-mode:lr-tb;text-anchor:start;fill:#000000;fill-opacity:1;stroke:none;stroke-width:1px;stroke-linecap:butt;stroke-linejoin:miter;stroke-opacity:1;font-family:Bitstream Vera Sans"
           x="323.24875"
           y="353.44519"
           id="text3172"
           sodipodi:linespacing="125%"><tspan
             sodipodi:role="line"
             id="tspan3174"
             x="323.24875"
             y="353.44519"
             style="fill:#ff00ff">H</tspan></text>
        <text
           xml:space="preserve"
           style="font-size:28px;font-style:normal;font-variant:normal;font-weight:bold;font-stretch:normal;text-align:start;line-height:125%;writing-mode:lr-tb;text-anchor:start;fill:#000000;fill-opacity:1;stroke:none;stroke-width:1px;stroke-linecap:butt;stroke-linejoin:miter;stroke-opacity:1;font-family:Bitstream Vera Sans"
           x="345.93289"
           y="360.73645"
           id="text3176"
           sodipodi:linespacing="125%"><tspan
             sodipodi:role="line"
             id="tspan3178"
             x="345.93289"
             y="360.73645"
             style="font-size:20px;fill:#ff00ff">1</tspan></text>
      </g>
      <text
         sodipodi:linespacing="125%"
         id="text3180"
         y="354.66354"
         x="384.83484"
         style="font-size:28px;font-style:normal;font-variant:normal;font-weight:bold;font-stretch:normal;text-align:start;line-height:125%;writing-mode:lr-tb;text-anchor:start;fill:#000000;fill-opacity:1;stroke:none;stroke-width:1px;stroke-linecap:butt;stroke-linejoin:miter;stroke-opacity:1;font-family:Bitstream Vera Sans"
         xml:space="preserve"><tspan
           style="fill:#ff00ff"
           y="354.66354"
           x="384.83484"
           id="tspan3182"
           sodipodi:role="line">H</tspan></text>
      <text
         sodipodi:linespacing="125%"
         id="text3184"
         y="361.9548"
         x="407.51898"
         style="font-size:28px;font-style:normal;font-variant:normal;font-weight:bold;font-stretch:normal;text-align:start;line-height:125%;writing-mode:lr-tb;text-anchor:start;fill:#000000;fill-opacity:1;stroke:none;stroke-width:1px;stroke-linecap:butt;stroke-linejoin:miter;stroke-opacity:1;font-family:Bitstream Vera Sans"
         xml:space="preserve"><tspan
           style="font-size:20px;fill:#ff00ff"
           y="361.9548"
           x="407.51898"
           id="tspan3186"
           sodipodi:role="line">2</tspan></text>
      <path
         inkscape:connector-type="polyline"
         id="path3220"
         d="M 548.46972,319.41899 L 548.46972,371.26841"
         style="fill:none;fill-rule:evenodd;stroke:#000000;stroke-width:1px;stroke-linecap:butt;stroke-linejoin:miter;stroke-opacity:1" />
      <text
         sodipodi:linespacing="125%"
         id="text3222"
         y="350.41965"
         x="471.76834"
         style="font-size:28px;font-style:normal;font-variant:normal;font-weight:bold;font-stretch:normal;text-align:start;line-height:125%;writing-mode:lr-tb;text-anchor:start;fill:#000000;fill-opacity:1;stroke:none;stroke-width:1px;stroke-linecap:butt;stroke-linejoin:miter;stroke-opacity:1;font-family:Bitstream Vera Sans"
         xml:space="preserve"><tspan
           y="350.41965"
           x="471.76834"
           id="tspan3224"
           sodipodi:role="line">. . .</tspan></text>
      <path
         inkscape:connector-type="polyline"
         id="path3226"
         d="M 797.79215,319.46973 L 797.79215,371.31915"
         style="fill:none;fill-rule:evenodd;stroke:#000000;stroke-width:1px;stroke-linecap:butt;stroke-linejoin:miter;stroke-opacity:1" />
      <g
         transform="translate(153.11784,-158.78887)"
         id="g3258">
        <g
           id="g3228"
           transform="translate(75.080351,159.67824)">
          <text
             sodipodi:linespacing="125%"
             id="text3230"
             y="353.44519"
             x="323.24875"
             style="font-size:28px;font-style:normal;font-variant:normal;font-weight:bold;font-stretch:normal;text-align:start;line-height:125%;writing-mode:lr-tb;text-anchor:start;fill:#000000;fill-opacity:1;stroke:none;stroke-width:1px;stroke-linecap:butt;stroke-linejoin:miter;stroke-opacity:1;font-family:Bitstream Vera Sans"
             xml:space="preserve"><tspan
               style="fill:#00ff00"
               y="353.44519"
               x="323.24875"
               id="tspan3232"
               sodipodi:role="line">A</tspan></text>
          <text
             sodipodi:linespacing="125%"
             id="text3234"
             y="360.73645"
             x="345.93289"
             style="font-size:28px;font-style:normal;font-variant:normal;font-weight:bold;font-stretch:normal;text-align:start;line-height:125%;writing-mode:lr-tb;text-anchor:start;fill:#000000;fill-opacity:1;stroke:none;stroke-width:1px;stroke-linecap:butt;stroke-linejoin:miter;stroke-opacity:1;font-family:Bitstream Vera Sans"
             xml:space="preserve"><tspan
               style="font-size:20px;fill:#00ff00"
               y="360.73645"
               x="345.93289"
               id="tspan3236"
               sodipodi:role="line">1</tspan></text>
        </g>
        <g
           id="g3238"
           transform="translate(115.99437,160.48839)">
          <text
             sodipodi:linespacing="125%"
             id="text3240"
             y="353.44519"
             x="323.24875"
             style="font-size:28px;font-style:normal;font-variant:normal;font-weight:bold;font-stretch:normal;text-align:start;line-height:125%;writing-mode:lr-tb;text-anchor:start;fill:#000000;fill-opacity:1;stroke:none;stroke-width:1px;stroke-linecap:butt;stroke-linejoin:miter;stroke-opacity:1;font-family:Bitstream Vera Sans"
             xml:space="preserve"><tspan
               style="fill:#00ff00"
               y="353.44519"
               x="323.24875"
               id="tspan3242"
               sodipodi:role="line">A</tspan></text>
          <text
             sodipodi:linespacing="125%"
             id="text3244"
             y="360.73645"
             x="345.93289"
             style="font-size:28px;font-style:normal;font-variant:normal;font-weight:bold;font-stretch:normal;text-align:start;line-height:125%;writing-mode:lr-tb;text-anchor:start;fill:#000000;fill-opacity:1;stroke:none;stroke-width:1px;stroke-linecap:butt;stroke-linejoin:miter;stroke-opacity:1;font-family:Bitstream Vera Sans"
             xml:space="preserve"><tspan
               style="font-size:20px;fill:#00ff00"
               y="360.73645"
               x="345.93289"
               id="tspan3246"
               sodipodi:role="line">2</tspan></text>
        </g>
        <g
           id="g3248"
           transform="translate(156.50173,160.48839)"
           style="fill:#008000">
          <text
             sodipodi:linespacing="125%"
             id="text3250"
             y="353.44519"
             x="323.24875"
             style="font-size:28px;font-style:normal;font-variant:normal;font-weight:bold;font-stretch:normal;text-align:start;line-height:125%;writing-mode:lr-tb;text-anchor:start;fill:#008000;fill-opacity:1;stroke:none;stroke-width:1px;stroke-linecap:butt;stroke-linejoin:miter;stroke-opacity:1;font-family:Bitstream Vera Sans"
             xml:space="preserve"><tspan
               style="fill:#008000"
               y="353.44519"
               x="323.24875"
               id="tspan3252"
               sodipodi:role="line">A</tspan></text>
          <text
             sodipodi:linespacing="125%"
             id="text3254"
             y="360.73645"
             x="345.93289"
             style="font-size:28px;font-style:normal;font-variant:normal;font-weight:bold;font-stretch:normal;text-align:start;line-height:125%;writing-mode:lr-tb;text-anchor:start;fill:#008000;fill-opacity:1;stroke:none;stroke-width:1px;stroke-linecap:butt;stroke-linejoin:miter;stroke-opacity:1;font-family:Bitstream Vera Sans"
             xml:space="preserve"><tspan
               style="font-size:20px;fill:#008000"
               y="360.73645"
               x="345.93289"
               id="tspan3256"
               sodipodi:role="line">3</tspan></text>
        </g>
      </g>
      <g
         transform="translate(280.62171,-158.5254)"
         id="g3275">
        <g
           id="g3277"
           transform="translate(75.080351,159.67824)">
          <text
             sodipodi:linespacing="125%"
             id="text3279"
             y="353.44519"
             x="323.24875"
             style="font-size:28px;font-style:normal;font-variant:normal;font-weight:bold;font-stretch:normal;text-align:start;line-height:125%;writing-mode:lr-tb;text-anchor:start;fill:#000000;fill-opacity:1;stroke:none;stroke-width:1px;stroke-linecap:butt;stroke-linejoin:miter;stroke-opacity:1;font-family:Bitstream Vera Sans"
             xml:space="preserve"><tspan
               style="fill:#00ff00"
               y="353.44519"
               x="323.24875"
               id="tspan3281"
               sodipodi:role="line">C</tspan></text>
          <text
             sodipodi:linespacing="125%"
             id="text3283"
             y="360.73645"
             x="345.93289"
             style="font-size:28px;font-style:normal;font-variant:normal;font-weight:bold;font-stretch:normal;text-align:start;line-height:125%;writing-mode:lr-tb;text-anchor:start;fill:#000000;fill-opacity:1;stroke:none;stroke-width:1px;stroke-linecap:butt;stroke-linejoin:miter;stroke-opacity:1;font-family:Bitstream Vera Sans"
             xml:space="preserve"><tspan
               style="font-size:20px;fill:#00ff00"
               y="360.73645"
               x="345.93289"
               id="tspan3285"
               sodipodi:role="line">1</tspan></text>
        </g>
        <g
           id="g3287"
           transform="translate(115.99437,160.48839)">
          <text
             sodipodi:linespacing="125%"
             id="text3289"
             y="353.44519"
             x="323.24875"
             style="font-size:28px;font-style:normal;font-variant:normal;font-weight:bold;font-stretch:normal;text-align:start;line-height:125%;writing-mode:lr-tb;text-anchor:start;fill:#000000;fill-opacity:1;stroke:none;stroke-width:1px;stroke-linecap:butt;stroke-linejoin:miter;stroke-opacity:1;font-family:Bitstream Vera Sans"
             xml:space="preserve"><tspan
               style="fill:#00ff00"
               y="353.44519"
               x="323.24875"
               id="tspan3291"
               sodipodi:role="line">C</tspan></text>
          <text
             sodipodi:linespacing="125%"
             id="text3293"
             y="360.73645"
             x="345.93289"
             style="font-size:28px;font-style:normal;font-variant:normal;font-weight:bold;font-stretch:normal;text-align:start;line-height:125%;writing-mode:lr-tb;text-anchor:start;fill:#000000;fill-opacity:1;stroke:none;stroke-width:1px;stroke-linecap:butt;stroke-linejoin:miter;stroke-opacity:1;font-family:Bitstream Vera Sans"
             xml:space="preserve"><tspan
               style="font-size:20px;fill:#00ff00"
               y="360.73645"
               x="345.93289"
               id="tspan3295"
               sodipodi:role="line">2</tspan></text>
        </g>
        <g
           id="g3297"
           transform="translate(156.50173,160.48839)"
           style="fill:#008000">
          <text
             sodipodi:linespacing="125%"
             id="text3299"
             y="353.44519"
             x="323.24875"
             style="font-size:28px;font-style:normal;font-variant:normal;font-weight:bold;font-stretch:normal;text-align:start;line-height:125%;writing-mode:lr-tb;text-anchor:start;fill:#008000;fill-opacity:1;stroke:none;stroke-width:1px;stroke-linecap:butt;stroke-linejoin:miter;stroke-opacity:1;font-family:Bitstream Vera Sans"
             xml:space="preserve"><tspan
               style="fill:#008000"
               y="353.44519"
               x="323.24875"
               id="tspan3301"
               sodipodi:role="line">C</tspan></text>
          <text
             sodipodi:linespacing="125%"
             id="text3303"
             y="360.73645"
             x="345.93289"
             style="font-size:28px;font-style:normal;font-variant:normal;font-weight:bold;font-stretch:normal;text-align:start;line-height:125%;writing-mode:lr-tb;text-anchor:start;fill:#008000;fill-opacity:1;stroke:none;stroke-width:1px;stroke-linecap:butt;stroke-linejoin:miter;stroke-opacity:1;font-family:Bitstream Vera Sans"
             xml:space="preserve"><tspan
               style="font-size:20px;fill:#008000"
               y="360.73645"
               x="345.93289"
               id="tspan3305"
               sodipodi:role="line">3</tspan></text>
        </g>
      </g>
      <path
         inkscape:connector-type="polyline"
         id="path3307"
         d="M 613.61047,201.18822 L 613.61047,253.03764"
         style="fill:none;fill-rule:evenodd;stroke:#000000;stroke-width:1px;stroke-linecap:butt;stroke-linejoin:miter;stroke-opacity:1" />
      <path
         inkscape:connector-type="polyline"
         id="path3309"
         d="M 697.53682,201.13748 L 697.53682,252.9869"
         style="fill:none;fill-rule:evenodd;stroke:#000000;stroke-width:1px;stroke-linecap:butt;stroke-linejoin:miter;stroke-opacity:1" />
      <text
         sodipodi:linespacing="125%"
         id="text3311"
         y="236.91194"
         x="526.83978"
         style="font-size:28px;font-style:normal;font-variant:normal;font-weight:bold;font-stretch:normal;text-align:start;line-height:125%;writing-mode:lr-tb;text-anchor:start;fill:#00ff00;fill-opacity:1;stroke:none;stroke-width:1px;stroke-linecap:butt;stroke-linejoin:miter;stroke-opacity:1;font-family:Bitstream Vera Sans"
         xml:space="preserve"><tspan
           style="fill:#00ff00"
           y="236.91194"
           x="526.83978"
           id="tspan3313"
           sodipodi:role="line">1</tspan></text>
      <text
         sodipodi:linespacing="125%"
         id="text3315"
         y="236.91194"
         x="580.36023"
         style="font-size:28px;font-style:normal;font-variant:normal;font-weight:bold;font-stretch:normal;text-align:start;line-height:125%;writing-mode:lr-tb;text-anchor:start;fill:#000000;fill-opacity:1;stroke:none;stroke-width:1px;stroke-linecap:butt;stroke-linejoin:miter;stroke-opacity:1;font-family:Bitstream Vera Sans"
         xml:space="preserve"><tspan
           style="fill:#00ff00"
           y="236.91194"
           x="580.36023"
           id="tspan3317"
           sodipodi:role="line">5</tspan></text>
      <path
         sodipodi:nodetypes="cc"
         inkscape:connector-type="polyline"
         id="path3319"
         d="M 247.09493,141.18658 C 349.18679,150.7261 382.90626,206.18738 340.26187,312.93781"
         style="fill:none;fill-rule:evenodd;stroke:#000000;stroke-width:1px;stroke-linecap:butt;stroke-linejoin:miter;marker-end:url(#Arrow2Lend);stroke-opacity:1" />
      <path
         sodipodi:nodetypes="cc"
         inkscape:connector-type="polyline"
         id="path4492"
         d="M 256.33727,139.23682 C 352.42051,153.42991 480.70454,134.02216 532.5975,194.32684"
         style="fill:none;fill-rule:evenodd;stroke:#000000;stroke-width:1px;stroke-linecap:butt;stroke-linejoin:miter;marker-end:url(#Arrow2Lend);stroke-opacity:1" />
      <path
         sodipodi:nodetypes="cc"
         inkscape:connector-type="polyline"
         id="path4494"
         d="M 257.95757,137.61652 C 410.07893,143.18946 579.58451,90.767315 590.11796,197.56742"
         style="fill:none;fill-rule:evenodd;stroke:#000000;stroke-width:1px;stroke-linecap:butt;stroke-linejoin:miter;marker-end:url(#Arrow2Lend);stroke-opacity:1" />
      <path
         sodipodi:nodetypes="cc"
         inkscape:connector-type="polyline"
         id="path4496"
         d="M 538.26853,258.32847 L 563.38309,320.70982"
         style="fill:none;fill-rule:evenodd;stroke:#000000;stroke-width:1px;stroke-linecap:butt;stroke-linejoin:miter;marker-end:url(#Arrow2Lend);stroke-opacity:1" />
      <path
         sodipodi:nodetypes="cc"
         inkscape:connector-type="polyline"
         id="path4498"
         d="M 592.5484,257.51832 L 687.33563,317.46922"
         style="fill:none;fill-rule:evenodd;stroke:#000000;stroke-width:1px;stroke-linecap:butt;stroke-linejoin:miter;marker-end:url(#Arrow2Lend);stroke-opacity:1" />
    </g>
    <g
       id="g43483"
       transform="matrix(0.633472,0,0,0.5741713,-17.775059,304.01754)">
      <path
         transform="matrix(0.70773,0.706483,-0.706483,0.70773,568.04621,-197.1921)"
         d="M 266.28984 167.27296 A 17.101183 35.831047 0 1 1  232.08748,167.27296 A 17.101183 35.831047 0 1 1  266.28984 167.27296 z"
         sodipodi:ry="35.831047"
         sodipodi:rx="17.101183"
         sodipodi:cy="167.27296"
         sodipodi:cx="249.18866"
         id="path47054"
         style="opacity:0.26041667;color:#000000;fill:#008000;fill-opacity:1;fill-rule:nonzero;stroke:#0000c7;stroke-width:0;stroke-linecap:butt;stroke-linejoin:round;marker:none;marker-start:none;marker-mid:none;marker-end:none;stroke-miterlimit:4;stroke-dasharray:none;stroke-dashoffset:0;stroke-opacity:1;visibility:visible;display:inline;overflow:visible;enable-background:accumulate"
         sodipodi:type="arc" />
      <path
         transform="matrix(0.70773,0.706483,-0.706483,0.70773,655.1808,6.3934127)"
         d="M 266.28984 167.27296 A 17.101183 35.831047 0 1 1  232.08748,167.27296 A 17.101183 35.831047 0 1 1  266.28984 167.27296 z"
         sodipodi:ry="35.831047"
         sodipodi:rx="17.101183"
         sodipodi:cy="167.27296"
         sodipodi:cx="249.18866"
         id="path47056"
         style="opacity:0.26041667;color:#000000;fill:#008000;fill-opacity:1;fill-rule:nonzero;stroke:#0000c7;stroke-width:0;stroke-linecap:butt;stroke-linejoin:round;marker:none;marker-start:none;marker-mid:none;marker-end:none;stroke-miterlimit:4;stroke-dasharray:none;stroke-dashoffset:0;stroke-opacity:1;visibility:visible;display:inline;overflow:visible;enable-background:accumulate"
         sodipodi:type="arc" />
      <path
         transform="matrix(0.70773,0.706483,-0.706483,0.70773,651.92344,-83.998558)"
         d="M 266.28984 167.27296 A 17.101183 35.831047 0 1 1  232.08748,167.27296 A 17.101183 35.831047 0 1 1  266.28984 167.27296 z"
         sodipodi:ry="35.831047"
         sodipodi:rx="17.101183"
         sodipodi:cy="167.27296"
         sodipodi:cx="249.18866"
         id="path47058"
         style="opacity:0.26041667;color:#000000;fill:#008000;fill-opacity:1;fill-rule:nonzero;stroke:#0000c7;stroke-width:0;stroke-linecap:butt;stroke-linejoin:round;marker:none;marker-start:none;marker-mid:none;marker-end:none;stroke-miterlimit:4;stroke-dasharray:none;stroke-dashoffset:0;stroke-opacity:1;visibility:visible;display:inline;overflow:visible;enable-background:accumulate"
         sodipodi:type="arc" />
      <path
         transform="matrix(0.70773,0.706483,-0.706483,0.70773,499.64149,-133.67342)"
         d="M 266.28984 167.27296 A 17.101183 35.831047 0 1 1  232.08748,167.27296 A 17.101183 35.831047 0 1 1  266.28984 167.27296 z"
         sodipodi:ry="35.831047"
         sodipodi:rx="17.101183"
         sodipodi:cy="167.27296"
         sodipodi:cx="249.18866"
         id="path47060"
         style="opacity:0.26041667;color:#000000;fill:#008000;fill-opacity:1;fill-rule:nonzero;stroke:#0000c7;stroke-width:0;stroke-linecap:butt;stroke-linejoin:round;marker:none;marker-start:none;marker-mid:none;marker-end:none;stroke-miterlimit:4;stroke-dasharray:none;stroke-dashoffset:0;stroke-opacity:1;visibility:visible;display:inline;overflow:visible;enable-background:accumulate"
         sodipodi:type="arc" />
      <path
         transform="matrix(0.70773,0.706483,-0.706483,0.70773,559.9028,-95.399348)"
         d="M 266.28984 167.27296 A 17.101183 35.831047 0 1 1  232.08748,167.27296 A 17.101183 35.831047 0 1 1  266.28984 167.27296 z"
         sodipodi:ry="35.831047"
         sodipodi:rx="17.101183"
         sodipodi:cy="167.27296"
         sodipodi:cx="249.18866"
         id="path47062"
         style="opacity:0.26041667;color:#000000;fill:#008000;fill-opacity:1;fill-rule:nonzero;stroke:#0000c7;stroke-width:0;stroke-linecap:butt;stroke-linejoin:round;marker:none;marker-start:none;marker-mid:none;marker-end:none;stroke-miterlimit:4;stroke-dasharray:none;stroke-dashoffset:0;stroke-opacity:1;visibility:visible;display:inline;overflow:visible;enable-background:accumulate"
         sodipodi:type="arc" />
      <path
         transform="matrix(0.70773,0.706483,-0.706483,0.70773,569.6749,-5.8217223)"
         d="M 266.28984 167.27296 A 17.101183 35.831047 0 1 1  232.08748,167.27296 A 17.101183 35.831047 0 1 1  266.28984 167.27296 z"
         sodipodi:ry="35.831047"
         sodipodi:rx="17.101183"
         sodipodi:cy="167.27296"
         sodipodi:cx="249.18866"
         id="path47064"
         style="opacity:0.26041667;color:#000000;fill:#008000;fill-opacity:1;fill-rule:nonzero;stroke:#0000c7;stroke-width:0;stroke-linecap:butt;stroke-linejoin:round;marker:none;marker-start:none;marker-mid:none;marker-end:none;stroke-miterlimit:4;stroke-dasharray:none;stroke-dashoffset:0;stroke-opacity:1;visibility:visible;display:inline;overflow:visible;enable-background:accumulate"
         sodipodi:type="arc" />
      <path
         transform="matrix(0.70773,0.706483,-0.706483,0.70773,436.12281,-70.969078)"
         d="M 266.28984 167.27296 A 17.101183 35.831047 0 1 1  232.08748,167.27296 A 17.101183 35.831047 0 1 1  266.28984 167.27296 z"
         sodipodi:ry="35.831047"
         sodipodi:rx="17.101183"
         sodipodi:cy="167.27296"
         sodipodi:cx="249.18866"
         id="path47066"
         style="opacity:0.26041667;color:#000000;fill:#008000;fill-opacity:1;fill-rule:nonzero;stroke:#0000c7;stroke-width:0;stroke-linecap:butt;stroke-linejoin:round;marker:none;marker-start:none;marker-mid:none;marker-end:none;stroke-miterlimit:4;stroke-dasharray:none;stroke-dashoffset:0;stroke-opacity:1;visibility:visible;display:inline;overflow:visible;enable-background:accumulate"
         sodipodi:type="arc" />
      <path
         transform="matrix(0.70773,0.706483,-0.706483,0.70773,473.58254,-15.593827)"
         d="M 266.28984 167.27296 A 17.101183 35.831047 0 1 1  232.08748,167.27296 A 17.101183 35.831047 0 1 1  266.28984 167.27296 z"
         sodipodi:ry="35.831047"
         sodipodi:rx="17.101183"
         sodipodi:cy="167.27296"
         sodipodi:cx="249.18866"
         id="path47068"
         style="opacity:0.26041667;color:#000000;fill:#008000;fill-opacity:1;fill-rule:nonzero;stroke:#0000c7;stroke-width:0;stroke-linecap:butt;stroke-linejoin:round;marker:none;marker-start:none;marker-mid:none;marker-end:none;stroke-miterlimit:4;stroke-dasharray:none;stroke-dashoffset:0;stroke-opacity:1;visibility:visible;display:inline;overflow:visible;enable-background:accumulate"
         sodipodi:type="arc" />
      <path
         transform="matrix(0.70773,0.706483,-0.706483,0.70773,506.97057,55.253928)"
         d="M 266.28984 167.27296 A 17.101183 35.831047 0 1 1  232.08748,167.27296 A 17.101183 35.831047 0 1 1  266.28984 167.27296 z"
         sodipodi:ry="35.831047"
         sodipodi:rx="17.101183"
         sodipodi:cy="167.27296"
         sodipodi:cx="249.18866"
         id="path47070"
         style="opacity:0.26041667;color:#000000;fill:#008000;fill-opacity:1;fill-rule:nonzero;stroke:#0000c7;stroke-width:0;stroke-linecap:butt;stroke-linejoin:round;marker:none;marker-start:none;marker-mid:none;marker-end:none;stroke-miterlimit:4;stroke-dasharray:none;stroke-dashoffset:0;stroke-opacity:1;visibility:visible;display:inline;overflow:visible;enable-background:accumulate"
         sodipodi:type="arc" />
      <path
         transform="matrix(0.9998962,1.4405187e-2,-1.4405187e-2,0.9998962,-173.46242,53.431693)"
         d="M 266.28984 167.27296 A 17.101183 35.831047 0 1 1  232.08748,167.27296 A 17.101183 35.831047 0 1 1  266.28984 167.27296 z"
         sodipodi:ry="35.831047"
         sodipodi:rx="17.101183"
         sodipodi:cy="167.27296"
         sodipodi:cx="249.18866"
         id="path47072"
         style="opacity:0.26041667;color:#000000;fill:#008000;fill-opacity:1;fill-rule:nonzero;stroke:#0000c7;stroke-width:0;stroke-linecap:butt;stroke-linejoin:round;marker:none;marker-start:none;marker-mid:none;marker-end:none;stroke-miterlimit:4;stroke-dasharray:none;stroke-dashoffset:0;stroke-opacity:1;visibility:visible;display:inline;overflow:visible;enable-background:accumulate"
         sodipodi:type="arc" />
      <path
         transform="matrix(0.9998962,1.4405187e-2,-1.4405187e-2,0.9998962,-127.85927,2.1281477)"
         d="M 266.28984 167.27296 A 17.101183 35.831047 0 1 1  232.08748,167.27296 A 17.101183 35.831047 0 1 1  266.28984 167.27296 z"
         sodipodi:ry="35.831047"
         sodipodi:rx="17.101183"
         sodipodi:cy="167.27296"
         sodipodi:cx="249.18866"
         id="path47074"
         style="opacity:0.26041667;color:#000000;fill:#008000;fill-opacity:1;fill-rule:nonzero;stroke:#0000c7;stroke-width:0;stroke-linecap:butt;stroke-linejoin:round;marker:none;marker-start:none;marker-mid:none;marker-end:none;stroke-miterlimit:4;stroke-dasharray:none;stroke-dashoffset:0;stroke-opacity:1;visibility:visible;display:inline;overflow:visible;enable-background:accumulate"
         sodipodi:type="arc" />
      <path
         transform="matrix(0.9998962,1.4405187e-2,-1.4405187e-2,0.9998962,-78.1844,16.786304)"
         d="M 266.28984 167.27296 A 17.101183 35.831047 0 1 1  232.08748,167.27296 A 17.101183 35.831047 0 1 1  266.28984 167.27296 z"
         sodipodi:ry="35.831047"
         sodipodi:rx="17.101183"
         sodipodi:cy="167.27296"
         sodipodi:cx="249.18866"
         id="path47076"
         style="opacity:0.26041667;color:#000000;fill:#008000;fill-opacity:1;fill-rule:nonzero;stroke:#0000c7;stroke-width:0;stroke-linecap:butt;stroke-linejoin:round;marker:none;marker-start:none;marker-mid:none;marker-end:none;stroke-miterlimit:4;stroke-dasharray:none;stroke-dashoffset:0;stroke-opacity:1;visibility:visible;display:inline;overflow:visible;enable-background:accumulate"
         sodipodi:type="arc" />
      <path
         transform="matrix(0.9998962,1.4405187e-2,-1.4405187e-2,0.9998962,-199.52136,126.72248)"
         d="M 266.28984 167.27296 A 17.101183 35.831047 0 1 1  232.08748,167.27296 A 17.101183 35.831047 0 1 1  266.28984 167.27296 z"
         sodipodi:ry="35.831047"
         sodipodi:rx="17.101183"
         sodipodi:cy="167.27296"
         sodipodi:cx="249.18866"
         id="path47078"
         style="opacity:0.26041667;color:#000000;fill:#008000;fill-opacity:1;fill-rule:nonzero;stroke:#0000c7;stroke-width:0;stroke-linecap:butt;stroke-linejoin:round;marker:none;marker-start:none;marker-mid:none;marker-end:none;stroke-miterlimit:4;stroke-dasharray:none;stroke-dashoffset:0;stroke-opacity:1;visibility:visible;display:inline;overflow:visible;enable-background:accumulate"
         sodipodi:type="arc" />
      <path
         transform="matrix(0.9998962,1.4405187e-2,-1.4405187e-2,0.9998962,-124.6019,106.36393)"
         d="M 266.28984 167.27296 A 17.101183 35.831047 0 1 1  232.08748,167.27296 A 17.101183 35.831047 0 1 1  266.28984 167.27296 z"
         sodipodi:ry="35.831047"
         sodipodi:rx="17.101183"
         sodipodi:cy="167.27296"
         sodipodi:cx="249.18866"
         id="path47080"
         style="opacity:0.26041667;color:#000000;fill:#008000;fill-opacity:1;fill-rule:nonzero;stroke:#0000c7;stroke-width:0;stroke-linecap:butt;stroke-linejoin:round;marker:none;marker-start:none;marker-mid:none;marker-end:none;stroke-miterlimit:4;stroke-dasharray:none;stroke-dashoffset:0;stroke-opacity:1;visibility:visible;display:inline;overflow:visible;enable-background:accumulate"
         sodipodi:type="arc" />
      <path
         transform="matrix(0.9998962,1.4405187e-2,-1.4405187e-2,0.9998962,-65.96927,118.57906)"
         d="M 266.28984 167.27296 A 17.101183 35.831047 0 1 1  232.08748,167.27296 A 17.101183 35.831047 0 1 1  266.28984 167.27296 z"
         sodipodi:ry="35.831047"
         sodipodi:rx="17.101183"
         sodipodi:cy="167.27296"
         sodipodi:cx="249.18866"
         id="path47082"
         style="opacity:0.26041667;color:#000000;fill:#008000;fill-opacity:1;fill-rule:nonzero;stroke:#0000c7;stroke-width:0;stroke-linecap:butt;stroke-linejoin:round;marker:none;marker-start:none;marker-mid:none;marker-end:none;stroke-miterlimit:4;stroke-dasharray:none;stroke-dashoffset:0;stroke-opacity:1;visibility:visible;display:inline;overflow:visible;enable-background:accumulate"
         sodipodi:type="arc" />
      <path
         transform="matrix(0.9998962,1.4405187e-2,-1.4405187e-2,0.9998962,-177.53412,213.04272)"
         d="M 266.28984 167.27296 A 17.101183 35.831047 0 1 1  232.08748,167.27296 A 17.101183 35.831047 0 1 1  266.28984 167.27296 z"
         sodipodi:ry="35.831047"
         sodipodi:rx="17.101183"
         sodipodi:cy="167.27296"
         sodipodi:cx="249.18866"
         id="path47084"
         style="opacity:0.26041667;color:#000000;fill:#008000;fill-opacity:1;fill-rule:nonzero;stroke:#0000c7;stroke-width:0;stroke-linecap:butt;stroke-linejoin:round;marker:none;marker-start:none;marker-mid:none;marker-end:none;stroke-miterlimit:4;stroke-dasharray:none;stroke-dashoffset:0;stroke-opacity:1;visibility:visible;display:inline;overflow:visible;enable-background:accumulate"
         sodipodi:type="arc" />
      <path
         transform="matrix(0.9998962,1.4405187e-2,-1.4405187e-2,0.9998962,-115.64414,196.75588)"
         d="M 266.28984 167.27296 A 17.101183 35.831047 0 1 1  232.08748,167.27296 A 17.101183 35.831047 0 1 1  266.28984 167.27296 z"
         sodipodi:ry="35.831047"
         sodipodi:rx="17.101183"
         sodipodi:cy="167.27296"
         sodipodi:cx="249.18866"
         id="path47086"
         style="opacity:0.26041667;color:#000000;fill:#008000;fill-opacity:1;fill-rule:nonzero;stroke:#0000c7;stroke-width:0;stroke-linecap:butt;stroke-linejoin:round;marker:none;marker-start:none;marker-mid:none;marker-end:none;stroke-miterlimit:4;stroke-dasharray:none;stroke-dashoffset:0;stroke-opacity:1;visibility:visible;display:inline;overflow:visible;enable-background:accumulate"
         sodipodi:type="arc" />
      <path
         transform="matrix(0.9998962,1.4405187e-2,-1.4405187e-2,0.9998962,-26.880854,57.503402)"
         d="M 266.28984 167.27296 A 17.101183 35.831047 0 1 1  232.08748,167.27296 A 17.101183 35.831047 0 1 1  266.28984 167.27296 z"
         sodipodi:ry="35.831047"
         sodipodi:rx="17.101183"
         sodipodi:cy="167.27296"
         sodipodi:cx="249.18866"
         id="path47088"
         style="opacity:0.26041667;color:#000000;fill:#008000;fill-opacity:1;fill-rule:nonzero;stroke:#0000c7;stroke-width:0;stroke-linecap:butt;stroke-linejoin:round;marker:none;marker-start:none;marker-mid:none;marker-end:none;stroke-miterlimit:4;stroke-dasharray:none;stroke-dashoffset:0;stroke-opacity:1;visibility:visible;display:inline;overflow:visible;enable-background:accumulate"
         sodipodi:type="arc" />
      <path
         transform="matrix(0.9998962,1.4405187e-2,-1.4405187e-2,0.9998962,-38.281641,186.16944)"
         d="M 266.28984 167.27296 A 17.101183 35.831047 0 1 1  232.08748,167.27296 A 17.101183 35.831047 0 1 1  266.28984 167.27296 z"
         sodipodi:ry="35.831047"
         sodipodi:rx="17.101183"
         sodipodi:cy="167.27296"
         sodipodi:cx="249.18866"
         id="path47090"
         style="opacity:0.26041667;color:#000000;fill:#008000;fill-opacity:1;fill-rule:nonzero;stroke:#0000c7;stroke-width:0;stroke-linecap:butt;stroke-linejoin:round;marker:none;marker-start:none;marker-mid:none;marker-end:none;stroke-miterlimit:4;stroke-dasharray:none;stroke-dashoffset:0;stroke-opacity:1;visibility:visible;display:inline;overflow:visible;enable-background:accumulate"
         sodipodi:type="arc" />
      <path
         transform="matrix(0.9998962,1.4405187e-2,-1.4405187e-2,0.9998962,6.5071689,116.13603)"
         d="M 266.28984 167.27296 A 17.101183 35.831047 0 1 1  232.08748,167.27296 A 17.101183 35.831047 0 1 1  266.28984 167.27296 z"
         sodipodi:ry="35.831047"
         sodipodi:rx="17.101183"
         sodipodi:cy="167.27296"
         sodipodi:cx="249.18866"
         id="path47092"
         style="opacity:0.26041667;color:#000000;fill:#008000;fill-opacity:1;fill-rule:nonzero;stroke:#0000c7;stroke-width:0;stroke-linecap:butt;stroke-linejoin:round;marker:none;marker-start:none;marker-mid:none;marker-end:none;stroke-miterlimit:4;stroke-dasharray:none;stroke-dashoffset:0;stroke-opacity:1;visibility:visible;display:inline;overflow:visible;enable-background:accumulate"
         sodipodi:type="arc" />
      <path
         transform="matrix(0.70773,0.706483,-0.706483,0.70773,593.29082,60.139983)"
         d="M 266.28984 167.27296 A 17.101183 35.831047 0 1 1  232.08748,167.27296 A 17.101183 35.831047 0 1 1  266.28984 167.27296 z"
         sodipodi:ry="35.831047"
         sodipodi:rx="17.101183"
         sodipodi:cy="167.27296"
         sodipodi:cx="249.18866"
         id="path47094"
         style="opacity:0.26041667;color:#000000;fill:#008000;fill-opacity:1;fill-rule:nonzero;stroke:#0000c7;stroke-width:0;stroke-linecap:butt;stroke-linejoin:round;marker:none;marker-start:none;marker-mid:none;marker-end:none;stroke-miterlimit:4;stroke-dasharray:none;stroke-dashoffset:0;stroke-opacity:1;visibility:visible;display:inline;overflow:visible;enable-background:accumulate"
         sodipodi:type="arc" />
      <path
         transform="matrix(0.70773,0.706483,-0.706483,0.70773,637.26529,133.43076)"
         d="M 266.28984 167.27296 A 17.101183 35.831047 0 1 1  232.08748,167.27296 A 17.101183 35.831047 0 1 1  266.28984 167.27296 z"
         sodipodi:ry="35.831047"
         sodipodi:rx="17.101183"
         sodipodi:cy="167.27296"
         sodipodi:cx="249.18866"
         id="path47096"
         style="opacity:0.26041667;color:#000000;fill:#008000;fill-opacity:1;fill-rule:nonzero;stroke:#0000c7;stroke-width:0;stroke-linecap:butt;stroke-linejoin:round;marker:none;marker-start:none;marker-mid:none;marker-end:none;stroke-miterlimit:4;stroke-dasharray:none;stroke-dashoffset:0;stroke-opacity:1;visibility:visible;display:inline;overflow:visible;enable-background:accumulate"
         sodipodi:type="arc" />
      <path
         inkscape:connector-type="polyline"
         id="path47098"
         d="M 696.26241,73.623634 L 418.57179,326.06965"
         style="fill:none;fill-rule:evenodd;stroke:#000000;stroke-width:1;stroke-linecap:butt;stroke-linejoin:miter;stroke-miterlimit:4;stroke-dasharray:4, 4;stroke-dashoffset:0;stroke-opacity:1" />
      <path
         sodipodi:nodetypes="cc"
         inkscape:connector-type="polyline"
         id="path49042"
         d="M 747.97313,122.48415 L 415.7216,430.30544"
         style="fill:none;fill-rule:evenodd;stroke:#000000;stroke-width:1;stroke-linecap:butt;stroke-linejoin:miter;stroke-miterlimit:4;stroke-dasharray:none;stroke-dashoffset:0;stroke-opacity:1" />
      <path
         inkscape:connector-type="polyline"
         id="path49044"
         d="M 797.648,175.41638 L 519.95738,427.8624"
         style="fill:none;fill-rule:evenodd;stroke:#000000;stroke-width:1;stroke-linecap:butt;stroke-linejoin:miter;stroke-miterlimit:4;stroke-dasharray:4, 4;stroke-dashoffset:0;stroke-opacity:1" />
      <path
         sodipodi:nodetypes="cc"
         inkscape:connector-type="polyline"
         id="path49046"
         d="M 857.09496,223.46256 L 522.4004,528.02647"
         style="fill:none;fill-rule:evenodd;stroke:#000000;stroke-width:1;stroke-linecap:butt;stroke-linejoin:miter;stroke-miterlimit:4;stroke-dasharray:none;stroke-dashoffset:0;stroke-opacity:1" />
      <text
         transform="matrix(0.8155314,-0.5787128,0.5787128,0.8155314,0,0)"
         sodipodi:linespacing="125%"
         id="text49048"
         y="478.25031"
         x="245.12048"
         style="font-size:48px;font-style:normal;font-variant:normal;font-weight:bold;font-stretch:normal;text-align:start;line-height:125%;writing-mode:lr-tb;text-anchor:start;fill:#000000;fill-opacity:1;stroke:none;stroke-width:1px;stroke-linecap:butt;stroke-linejoin:miter;stroke-opacity:1;font-family:Bitstream Vera Sans"
         xml:space="preserve"><tspan
           style="font-size:16px;fill:#ff0000"
           y="478.25031"
           x="245.12048"
           id="tspan49050"
           sodipodi:role="line">x,0</tspan></text>
      <path
         sodipodi:nodetypes="cc"
         inkscape:connector-type="polyline"
         id="path50994"
         d="M 918.17061,285.35256 L 583.47605,589.91647"
         style="fill:none;fill-rule:evenodd;stroke:#000000;stroke-width:1;stroke-linecap:butt;stroke-linejoin:miter;stroke-miterlimit:4;stroke-dasharray:none;stroke-dashoffset:0;stroke-opacity:1" />
      <path
         sodipodi:nodetypes="cc"
         inkscape:connector-type="polyline"
         id="path50996"
         d="M 644.95887,18.248374 L 312.70734,326.06967"
         style="fill:none;fill-rule:evenodd;stroke:#000000;stroke-width:1;stroke-linecap:butt;stroke-linejoin:miter;stroke-miterlimit:4;stroke-dasharray:none;stroke-dashoffset:0;stroke-opacity:1" />
      <text
         sodipodi:linespacing="125%"
         id="text50998"
         y="381.44492"
         x="354.23877"
         style="font-size:48px;font-style:normal;font-variant:normal;font-weight:bold;font-stretch:normal;text-align:start;line-height:125%;writing-mode:lr-tb;text-anchor:start;fill:#000000;fill-opacity:1;stroke:none;stroke-width:1px;stroke-linecap:butt;stroke-linejoin:miter;stroke-opacity:1;font-family:Bitstream Vera Sans"
         xml:space="preserve"><tspan
           style="fill:#ff0000"
           y="381.44492"
           x="354.23877"
           id="tspan51000"
           sodipodi:role="line">x</tspan></text>
      <text
         sodipodi:linespacing="125%"
         id="text51002"
         y="488.21921"
         x="448.69446"
         style="font-size:48px;font-style:normal;font-variant:normal;font-weight:bold;font-stretch:normal;text-align:start;line-height:125%;writing-mode:lr-tb;text-anchor:start;fill:#000000;fill-opacity:1;stroke:none;stroke-width:1px;stroke-linecap:butt;stroke-linejoin:miter;stroke-opacity:1;font-family:Bitstream Vera Sans"
         xml:space="preserve"><tspan
           style="fill:#ff0000"
           y="488.21921"
           x="448.69446"
           id="tspan51004"
           sodipodi:role="line">y</tspan></text>
      <text
         sodipodi:linespacing="125%"
         id="text51006"
         y="580.23993"
         x="530.12866"
         style="font-size:48px;font-style:normal;font-variant:normal;font-weight:bold;font-stretch:normal;text-align:start;line-height:125%;writing-mode:lr-tb;text-anchor:start;fill:#000000;fill-opacity:1;stroke:none;stroke-width:1px;stroke-linecap:butt;stroke-linejoin:miter;stroke-opacity:1;font-family:Bitstream Vera Sans"
         xml:space="preserve"><tspan
           style="fill:#ff0000"
           y="580.23993"
           x="530.12866"
           id="tspan51008"
           sodipodi:role="line">z</tspan></text>
      <text
         transform="matrix(0.8155314,-0.5787128,0.5787128,0.8155314,0,0)"
         sodipodi:linespacing="125%"
         id="text51016"
         y="461.80676"
         x="332.8472"
         style="font-size:48px;font-style:normal;font-variant:normal;font-weight:bold;font-stretch:normal;text-align:start;line-height:125%;writing-mode:lr-tb;text-anchor:start;fill:#000000;fill-opacity:1;stroke:none;stroke-width:1px;stroke-linecap:butt;stroke-linejoin:miter;stroke-opacity:1;font-family:Bitstream Vera Sans"
         xml:space="preserve"><tspan
           style="font-size:16px;fill:#ff0000"
           y="461.80676"
           x="332.8472"
           id="tspan51018"
           sodipodi:role="line">x,0</tspan></text>
      <text
         transform="matrix(0.8155314,-0.5787128,0.5787128,0.8155314,0,0)"
         sodipodi:linespacing="125%"
         id="text51020"
         y="450.06326"
         x="426.05661"
         style="font-size:48px;font-style:normal;font-variant:normal;font-weight:bold;font-stretch:normal;text-align:start;line-height:125%;writing-mode:lr-tb;text-anchor:start;fill:#000000;fill-opacity:1;stroke:none;stroke-width:1px;stroke-linecap:butt;stroke-linejoin:miter;stroke-opacity:1;font-family:Bitstream Vera Sans"
         xml:space="preserve"><tspan
           style="font-size:16px;fill:#ff0000"
           y="450.06326"
           x="426.05661"
           id="tspan51022"
           sodipodi:role="line">x,0</tspan></text>
      <text
         transform="matrix(0.8155314,-0.5787128,0.5787128,0.8155314,0,0)"
         sodipodi:linespacing="125%"
         id="text51024"
         y="543.21655"
         x="242.12573"
         style="font-size:48px;font-style:normal;font-variant:normal;font-weight:bold;font-stretch:normal;text-align:start;line-height:125%;writing-mode:lr-tb;text-anchor:start;fill:#000000;fill-opacity:1;stroke:none;stroke-width:1px;stroke-linecap:butt;stroke-linejoin:miter;stroke-opacity:1;font-family:Bitstream Vera Sans"
         xml:space="preserve"><tspan
           style="font-size:16px;fill:#ff0000"
           y="543.21655"
           x="242.12573"
           id="tspan51026"
           sodipodi:role="line">x,1</tspan></text>
      <text
         transform="matrix(0.8155314,-0.5787128,0.5787128,0.8155314,0,0)"
         sodipodi:linespacing="125%"
         id="text51028"
         y="527.61603"
         x="358.04297"
         style="font-size:48px;font-style:normal;font-variant:normal;font-weight:bold;font-stretch:normal;text-align:start;line-height:125%;writing-mode:lr-tb;text-anchor:start;fill:#000000;fill-opacity:1;stroke:none;stroke-width:1px;stroke-linecap:butt;stroke-linejoin:miter;stroke-opacity:1;font-family:Bitstream Vera Sans"
         xml:space="preserve"><tspan
           style="font-size:16px;fill:#ff0000"
           y="527.61603"
           x="358.04297"
           id="tspan51030"
           sodipodi:role="line">x,1</tspan></text>
      <text
         transform="matrix(0.8155314,-0.5787128,0.5787128,0.8155314,0,0)"
         sodipodi:linespacing="125%"
         id="text51032"
         y="759.25098"
         x="290.77829"
         style="font-size:48px;font-style:normal;font-variant:normal;font-weight:bold;font-stretch:normal;text-align:start;line-height:125%;writing-mode:lr-tb;text-anchor:start;fill:#000000;fill-opacity:1;stroke:none;stroke-width:1px;stroke-linecap:butt;stroke-linejoin:miter;stroke-opacity:1;font-family:Bitstream Vera Sans"
         xml:space="preserve"><tspan
           style="font-size:16px;fill:#ff0000"
           y="759.25098"
           x="290.77829"
           id="tspan51034"
           sodipodi:role="line">z,1</tspan></text>
      <text
         transform="matrix(0.8155314,-0.5787128,0.5787128,0.8155314,0,0)"
         sodipodi:linespacing="125%"
         id="text51036"
         y="621.22754"
         x="229.95366"
         style="font-size:48px;font-style:normal;font-variant:normal;font-weight:bold;font-stretch:normal;text-align:start;line-height:125%;writing-mode:lr-tb;text-anchor:start;fill:#000000;fill-opacity:1;stroke:none;stroke-width:1px;stroke-linecap:butt;stroke-linejoin:miter;stroke-opacity:1;font-family:Bitstream Vera Sans"
         xml:space="preserve"><tspan
           style="font-size:16px;fill:#ff0000"
           y="621.22754"
           x="229.95366"
           id="tspan51038"
           sodipodi:role="line">y,2</tspan></text>
      <text
         transform="matrix(0.8155314,-0.5787128,0.5787128,0.8155314,0,0)"
         sodipodi:linespacing="125%"
         id="text51040"
         y="606.62805"
         x="317.93185"
         style="font-size:48px;font-style:normal;font-variant:normal;font-weight:bold;font-stretch:normal;text-align:start;line-height:125%;writing-mode:lr-tb;text-anchor:start;fill:#000000;fill-opacity:1;stroke:none;stroke-width:1px;stroke-linecap:butt;stroke-linejoin:miter;stroke-opacity:1;font-family:Bitstream Vera Sans"
         xml:space="preserve"><tspan
           style="font-size:16px;fill:#ff0000"
           y="606.62805"
           x="317.93185"
           id="tspan51042"
           sodipodi:role="line">y,2</tspan></text>
      <text
         transform="matrix(0.8155314,-0.5787128,0.5787128,0.8155314,0,0)"
         sodipodi:linespacing="125%"
         id="text51044"
         y="590.19226"
         x="428.45053"
         style="font-size:48px;font-style:normal;font-variant:normal;font-weight:bold;font-stretch:normal;text-align:start;line-height:125%;writing-mode:lr-tb;text-anchor:start;fill:#000000;fill-opacity:1;stroke:none;stroke-width:1px;stroke-linecap:butt;stroke-linejoin:miter;stroke-opacity:1;font-family:Bitstream Vera Sans"
         xml:space="preserve"><tspan
           style="font-size:16px;fill:#ff0000"
           y="590.19226"
           x="428.45053"
           id="tspan51046"
           sodipodi:role="line">y,2</tspan></text>
      <text
         transform="matrix(0.8155314,-0.5787128,0.5787128,0.8155314,0,0)"
         sodipodi:linespacing="125%"
         id="text51048"
         y="675.60986"
         x="296.94055"
         style="font-size:48px;font-style:normal;font-variant:normal;font-weight:bold;font-stretch:normal;text-align:start;line-height:125%;writing-mode:lr-tb;text-anchor:start;fill:#000000;fill-opacity:1;stroke:none;stroke-width:1px;stroke-linecap:butt;stroke-linejoin:miter;stroke-opacity:1;font-family:Bitstream Vera Sans"
         xml:space="preserve"><tspan
           style="font-size:16px;fill:#ff0000"
           y="675.60986"
           x="296.94055"
           id="tspan51050"
           sodipodi:role="line">y,3</tspan></text>
      <text
         transform="matrix(0.8155314,-0.5787128,0.5787128,0.8155314,0,0)"
         sodipodi:linespacing="125%"
         id="text51052"
         y="665.75684"
         x="378.68396"
         style="font-size:48px;font-style:normal;font-variant:normal;font-weight:bold;font-stretch:normal;text-align:start;line-height:125%;writing-mode:lr-tb;text-anchor:start;fill:#000000;fill-opacity:1;stroke:none;stroke-width:1px;stroke-linecap:butt;stroke-linejoin:miter;stroke-opacity:1;font-family:Bitstream Vera Sans"
         xml:space="preserve"><tspan
           style="font-size:16px;fill:#ff0000"
           y="665.75684"
           x="378.68396"
           id="tspan51054"
           sodipodi:role="line">y,3</tspan></text>
      <text
         sodipodi:linespacing="125%"
         id="text51056"
         y="307.33978"
         x="384.36942"
         style="font-size:48px;font-style:normal;font-variant:normal;font-weight:bold;font-stretch:normal;text-align:start;line-height:125%;writing-mode:lr-tb;text-anchor:start;fill:#000000;fill-opacity:1;stroke:none;stroke-width:1px;stroke-linecap:butt;stroke-linejoin:miter;stroke-opacity:1;font-family:Bitstream Vera Sans"
         xml:space="preserve"><tspan
           style="font-size:24px;fill:#ff0000"
           y="307.33978"
           x="384.36942"
           id="tspan51058"
           sodipodi:role="line">0</tspan></text>
      <text
         sodipodi:linespacing="125%"
         id="text51060"
         y="359.23624"
         x="433.02374"
         style="font-size:48px;font-style:normal;font-variant:normal;font-weight:bold;font-stretch:normal;text-align:start;line-height:125%;writing-mode:lr-tb;text-anchor:start;fill:#000000;fill-opacity:1;stroke:none;stroke-width:1px;stroke-linecap:butt;stroke-linejoin:miter;stroke-opacity:1;font-family:Bitstream Vera Sans"
         xml:space="preserve"><tspan
           style="font-size:24px;fill:#ff0000"
           y="359.23624"
           x="433.02374"
           id="tspan51062"
           sodipodi:role="line">1</tspan></text>
      <text
         sodipodi:linespacing="125%"
         id="text51064"
         y="409.72543"
         x="484.3273"
         style="font-size:48px;font-style:normal;font-variant:normal;font-weight:bold;font-stretch:normal;text-align:start;line-height:125%;writing-mode:lr-tb;text-anchor:start;fill:#000000;fill-opacity:1;stroke:none;stroke-width:1px;stroke-linecap:butt;stroke-linejoin:miter;stroke-opacity:1;font-family:Bitstream Vera Sans"
         xml:space="preserve"><tspan
           style="font-size:24px;fill:#ff0000"
           y="409.72543"
           x="484.3273"
           id="tspan51066"
           sodipodi:role="line">2</tspan></text>
      <text
         sodipodi:linespacing="125%"
         id="text51068"
         y="460.21463"
         x="538.88818"
         style="font-size:48px;font-style:normal;font-variant:normal;font-weight:bold;font-stretch:normal;text-align:start;line-height:125%;writing-mode:lr-tb;text-anchor:start;fill:#000000;fill-opacity:1;stroke:none;stroke-width:1px;stroke-linecap:butt;stroke-linejoin:miter;stroke-opacity:1;font-family:Bitstream Vera Sans"
         xml:space="preserve"><tspan
           style="font-size:24px;fill:#ff0000"
           y="460.21463"
           x="538.88818"
           id="tspan51070"
           sodipodi:role="line">3</tspan></text>
      <text
         sodipodi:linespacing="125%"
         id="text51072"
         y="525.362"
         x="594.26349"
         style="font-size:48px;font-style:normal;font-variant:normal;font-weight:bold;font-stretch:normal;text-align:start;line-height:125%;writing-mode:lr-tb;text-anchor:start;fill:#000000;fill-opacity:1;stroke:none;stroke-width:1px;stroke-linecap:butt;stroke-linejoin:miter;stroke-opacity:1;font-family:Bitstream Vera Sans"
         xml:space="preserve"><tspan
           style="font-size:24px;fill:#ff0000"
           y="525.362"
           x="594.26349"
           id="tspan51074"
           sodipodi:role="line">1</tspan></text>
    </g>
    <g
       id="g2276"
       transform="matrix(0.6350252,0,0,0.5907886,388.24019,274.02437)">
      <path
         inkscape:connector-type="polyline"
         id="path2796"
         d="M 665.48414,110.7612 L 396.21029,352.89214"
         style="fill:none;fill-rule:evenodd;stroke:#000000;stroke-width:0.96440035;stroke-linecap:butt;stroke-linejoin:miter;stroke-miterlimit:4;stroke-dasharray:3.85760152, 3.85760152;stroke-dashoffset:0;stroke-opacity:1" />
      <path
         sodipodi:nodetypes="cc"
         inkscape:connector-type="polyline"
         id="path2798"
         d="M 715.62752,157.62525 L 393.44649,452.86881"
         style="fill:none;fill-rule:evenodd;stroke:#000000;stroke-width:0.96440035;stroke-linecap:butt;stroke-linejoin:miter;stroke-miterlimit:4;stroke-dasharray:none;stroke-dashoffset:0;stroke-opacity:1" />
      <path
         inkscape:connector-type="polyline"
         id="path2800"
         d="M 763.79675,208.39464 L 494.5229,450.52559"
         style="fill:none;fill-rule:evenodd;stroke:#000000;stroke-width:0.96440035;stroke-linecap:butt;stroke-linejoin:miter;stroke-miterlimit:4;stroke-dasharray:3.85760152, 3.85760152;stroke-dashoffset:0;stroke-opacity:1" />
      <path
         sodipodi:nodetypes="cc"
         inkscape:connector-type="polyline"
         id="path2802"
         d="M 821.44188,254.47763 L 496.89187,546.59691"
         style="fill:none;fill-rule:evenodd;stroke:#000000;stroke-width:0.96440035;stroke-linecap:butt;stroke-linejoin:miter;stroke-miterlimit:4;stroke-dasharray:none;stroke-dashoffset:0;stroke-opacity:1" />
      <path
         transform="matrix(0.6862788,0.6776157,-0.6850696,0.6788118,423.49492,-46.669009)"
         d="M 266.28984 167.27296 A 17.101183 35.831047 0 1 1  232.08748,167.27296 A 17.101183 35.831047 0 1 1  266.28984 167.27296 z"
         sodipodi:ry="35.831047"
         sodipodi:rx="17.101183"
         sodipodi:cy="167.27296"
         sodipodi:cx="249.18866"
         id="path2804"
         style="opacity:0.26041667;color:#000000;fill:#008000;fill-opacity:1;fill-rule:nonzero;stroke:#0000c7;stroke-width:0;stroke-linecap:butt;stroke-linejoin:round;marker:none;marker-start:none;marker-mid:none;marker-end:none;stroke-miterlimit:4;stroke-dasharray:none;stroke-dashoffset:0;stroke-opacity:1;visibility:visible;display:inline;overflow:visible;enable-background:accumulate"
         sodipodi:type="arc" />
      <text
         transform="matrix(0.8200046,-0.5755559,0.5818871,0.8110826,0,0)"
         sodipodi:linespacing="125%"
         id="text2806"
         y="479.11319"
         x="224.42104"
         style="font-size:46.2912178px;font-style:normal;font-variant:normal;font-weight:bold;font-stretch:normal;text-align:start;line-height:125%;writing-mode:lr-tb;text-anchor:start;fill:#000000;fill-opacity:1;stroke:none;stroke-width:1px;stroke-linecap:butt;stroke-linejoin:miter;stroke-opacity:1;font-family:Bitstream Vera Sans"
         xml:space="preserve"><tspan
           style="font-size:15.43040562px;fill:#ff0000"
           y="479.11319"
           x="224.42104"
           id="tspan2808"
           sodipodi:role="line">x,0</tspan></text>
      <path
         sodipodi:nodetypes="cc"
         inkscape:connector-type="polyline"
         id="path2810"
         d="M 880.66633,313.83877 L 556.11633,605.95805"
         style="fill:none;fill-rule:evenodd;stroke:#000000;stroke-width:0.96440035;stroke-linecap:butt;stroke-linejoin:miter;stroke-miterlimit:4;stroke-dasharray:none;stroke-dashoffset:0;stroke-opacity:1" />
      <text
         transform="matrix(0.7286242,0.6853584,-0.6928974,0.7206965,0,0)"
         sodipodi:linespacing="125%"
         id="text52113"
         y="-167.43788"
         x="500.63763"
         style="font-size:46.2912178px;font-style:normal;font-variant:normal;font-weight:bold;font-stretch:normal;text-align:start;line-height:125%;writing-mode:lr-tb;text-anchor:start;fill:#0000ff;fill-opacity:1;stroke:none;stroke-width:1px;stroke-linecap:butt;stroke-linejoin:miter;stroke-opacity:1;font-family:Bitstream Vera Sans"
         xml:space="preserve"><tspan
           style="font-size:15.43040562px;fill:#0000ff"
           y="-167.43788"
           x="500.63763"
           id="tspan52115"
           sodipodi:role="line">I,a</tspan></text>
      <path
         sodipodi:nodetypes="cc"
         inkscape:connector-type="polyline"
         id="path2814"
         d="M 615.73561,57.648598 L 293.55458,352.89216"
         style="fill:none;fill-rule:evenodd;stroke:#000000;stroke-width:0.96440035;stroke-linecap:butt;stroke-linejoin:miter;stroke-miterlimit:4;stroke-dasharray:none;stroke-dashoffset:0;stroke-opacity:1" />
      <text
         transform="scale(1.005485,0.9945449)"
         sodipodi:linespacing="125%"
         id="text2816"
         y="408.23169"
         x="332.00613"
         style="font-size:46.2912178px;font-style:normal;font-variant:normal;font-weight:bold;font-stretch:normal;text-align:start;line-height:125%;writing-mode:lr-tb;text-anchor:start;fill:#000000;fill-opacity:1;stroke:none;stroke-width:1px;stroke-linecap:butt;stroke-linejoin:miter;stroke-opacity:1;font-family:Bitstream Vera Sans"
         xml:space="preserve"><tspan
           style="fill:#ff0000"
           y="408.23169"
           x="332.00613"
           id="tspan2818"
           sodipodi:role="line">x</tspan></text>
      <text
         transform="scale(1.005485,0.9945449)"
         sodipodi:linespacing="125%"
         id="text2820"
         y="511.20486"
         x="423.09924"
         style="font-size:46.2912178px;font-style:normal;font-variant:normal;font-weight:bold;font-stretch:normal;text-align:start;line-height:125%;writing-mode:lr-tb;text-anchor:start;fill:#000000;fill-opacity:1;stroke:none;stroke-width:1px;stroke-linecap:butt;stroke-linejoin:miter;stroke-opacity:1;font-family:Bitstream Vera Sans"
         xml:space="preserve"><tspan
           style="fill:#ff0000"
           y="511.20486"
           x="423.09924"
           id="tspan2822"
           sodipodi:role="line">y</tspan></text>
      <text
         transform="scale(1.005485,0.9945449)"
         sodipodi:linespacing="125%"
         id="text2824"
         y="599.94965"
         x="501.63443"
         style="font-size:46.2912178px;font-style:normal;font-variant:normal;font-weight:bold;font-stretch:normal;text-align:start;line-height:125%;writing-mode:lr-tb;text-anchor:start;fill:#000000;fill-opacity:1;stroke:none;stroke-width:1px;stroke-linecap:butt;stroke-linejoin:miter;stroke-opacity:1;font-family:Bitstream Vera Sans"
         xml:space="preserve"><tspan
           style="fill:#ff0000"
           y="599.94965"
           x="501.63443"
           id="tspan2826"
           sodipodi:role="line">z</tspan></text>
      <g
         transform="matrix(0.9696901,0,0,0.9591395,22.701394,68.264295)"
         id="g51081">
        <path
           sodipodi:type="arc"
           style="opacity:0.26041667;color:#000000;fill:#008000;fill-opacity:1;fill-rule:nonzero;stroke:#0000c7;stroke-width:0;stroke-linecap:butt;stroke-linejoin:round;marker:none;marker-start:none;marker-mid:none;marker-end:none;stroke-miterlimit:4;stroke-dasharray:none;stroke-dashoffset:0;stroke-opacity:1;visibility:visible;display:inline;overflow:visible;enable-background:accumulate"
           id="path2829"
           sodipodi:cx="249.18866"
           sodipodi:cy="167.27296"
           sodipodi:rx="17.101183"
           sodipodi:ry="35.831047"
           d="M 266.28984 167.27296 A 17.101183 35.831047 0 1 1  232.08748,167.27296 A 17.101183 35.831047 0 1 1  266.28984 167.27296 z"
           transform="matrix(0.70773,0.706483,-0.706483,0.70773,489.86939,-191.4917)" />
        <text
           xml:space="preserve"
           style="font-size:48px;font-style:normal;font-variant:normal;font-weight:bold;font-stretch:normal;text-align:start;line-height:125%;writing-mode:lr-tb;text-anchor:start;fill:#000000;fill-opacity:1;stroke:none;stroke-width:1px;stroke-linecap:butt;stroke-linejoin:miter;stroke-opacity:1;font-family:Bitstream Vera Sans"
           x="358.33792"
           y="408.9989"
           id="text2831"
           sodipodi:linespacing="125%"
           transform="matrix(0.8155314,-0.5787128,0.5787128,0.8155314,0,0)"><tspan
             sodipodi:role="line"
             id="tspan2833"
             x="358.33792"
             y="408.9989"
             style="font-size:16px;fill:#ff0000">x,0</tspan></text>
      </g>
      <g
         transform="matrix(0.9696901,0,0,0.9591395,30.597988,69.82643)"
         id="g51086">
        <path
           sodipodi:type="arc"
           style="opacity:0.26041667;color:#000000;fill:#008000;fill-opacity:1;fill-rule:nonzero;stroke:#0000c7;stroke-width:0;stroke-linecap:butt;stroke-linejoin:round;marker:none;marker-start:none;marker-mid:none;marker-end:none;stroke-miterlimit:4;stroke-dasharray:none;stroke-dashoffset:0;stroke-opacity:1;visibility:visible;display:inline;overflow:visible;enable-background:accumulate"
           id="path2836"
           sodipodi:cx="249.18866"
           sodipodi:cy="167.27296"
           sodipodi:rx="17.101183"
           sodipodi:ry="35.831047"
           d="M 266.28984 167.27296 A 17.101183 35.831047 0 1 1  232.08748,167.27296 A 17.101183 35.831047 0 1 1  266.28984 167.27296 z"
           transform="matrix(0.70773,0.706483,-0.706483,0.70773,558.27411,-255.01038)" />
        <text
           xml:space="preserve"
           style="font-size:48px;font-style:normal;font-variant:normal;font-weight:bold;font-stretch:normal;text-align:start;line-height:125%;writing-mode:lr-tb;text-anchor:start;fill:#000000;fill-opacity:1;stroke:none;stroke-width:1px;stroke-linecap:butt;stroke-linejoin:miter;stroke-opacity:1;font-family:Bitstream Vera Sans"
           x="451.54733"
           y="397.2554"
           id="text2838"
           sodipodi:linespacing="125%"
           transform="matrix(0.8155314,-0.5787128,0.5787128,0.8155314,0,0)"><tspan
             sodipodi:role="line"
             id="tspan2840"
             x="451.54733"
             y="397.2554"
             style="font-size:16px;fill:#ff0000">x,0</tspan></text>
      </g>
      <g
         transform="matrix(0.9696901,0,0,0.9591395,19.542757,77.637106)"
         id="g51091">
        <path
           sodipodi:type="arc"
           style="opacity:0.26041667;color:#000000;fill:#008000;fill-opacity:1;fill-rule:nonzero;stroke:#0000c7;stroke-width:0;stroke-linecap:butt;stroke-linejoin:round;marker:none;marker-start:none;marker-mid:none;marker-end:none;stroke-miterlimit:4;stroke-dasharray:none;stroke-dashoffset:0;stroke-opacity:1;visibility:visible;display:inline;overflow:visible;enable-background:accumulate"
           id="path2843"
           sodipodi:cx="249.18866"
           sodipodi:cy="167.27296"
           sodipodi:rx="17.101183"
           sodipodi:ry="35.831047"
           d="M 266.28984 167.27296 A 17.101183 35.831047 0 1 1  232.08748,167.27296 A 17.101183 35.831047 0 1 1  266.28984 167.27296 z"
           transform="matrix(0.70773,0.706483,-0.706483,0.70773,463.81044,-73.412109)" />
        <text
           xml:space="preserve"
           style="font-size:48px;font-style:normal;font-variant:normal;font-weight:bold;font-stretch:normal;text-align:start;line-height:125%;writing-mode:lr-tb;text-anchor:start;fill:#000000;fill-opacity:1;stroke:none;stroke-width:1px;stroke-linecap:butt;stroke-linejoin:miter;stroke-opacity:1;font-family:Bitstream Vera Sans"
           x="267.61646"
           y="490.40872"
           id="text2845"
           sodipodi:linespacing="125%"
           transform="matrix(0.8155314,-0.5787128,0.5787128,0.8155314,0,0)"><tspan
             sodipodi:role="line"
             id="tspan2847"
             x="267.61646"
             y="490.40872"
             style="font-size:16px;fill:#ff0000">x,1</tspan></text>
      </g>
      <g
         transform="matrix(0.9696901,0,0,0.9591395,86.663806,18.27597)"
         id="g51096">
        <path
           sodipodi:type="arc"
           style="opacity:0.26041667;color:#000000;fill:#008000;fill-opacity:1;fill-rule:nonzero;stroke:#0000c7;stroke-width:0;stroke-linecap:butt;stroke-linejoin:round;marker:none;marker-start:none;marker-mid:none;marker-end:none;stroke-miterlimit:4;stroke-dasharray:none;stroke-dashoffset:0;stroke-opacity:1;visibility:visible;display:inline;overflow:visible;enable-background:accumulate"
           id="path2850"
           sodipodi:cx="249.18866"
           sodipodi:cy="167.27296"
           sodipodi:rx="17.101183"
           sodipodi:ry="35.831047"
           d="M 266.28984 167.27296 A 17.101183 35.831047 0 1 1  232.08748,167.27296 A 17.101183 35.831047 0 1 1  266.28984 167.27296 z"
           transform="matrix(0.70773,0.706483,-0.706483,0.70773,550.1307,-153.21763)" />
        <text
           xml:space="preserve"
           style="font-size:48px;font-style:normal;font-variant:normal;font-weight:bold;font-stretch:normal;text-align:start;line-height:125%;writing-mode:lr-tb;text-anchor:start;fill:#000000;fill-opacity:1;stroke:none;stroke-width:1px;stroke-linecap:butt;stroke-linejoin:miter;stroke-opacity:1;font-family:Bitstream Vera Sans"
           x="383.53369"
           y="474.80817"
           id="text2852"
           sodipodi:linespacing="125%"
           transform="matrix(0.8155314,-0.5787128,0.5787128,0.8155314,0,0)"><tspan
             sodipodi:role="line"
             id="tspan2854"
             x="383.53369"
             y="474.80817"
             style="font-size:16px;fill:#ff0000">x,1</tspan></text>
      </g>
      <g
         transform="matrix(0.9696901,0,0,0.9591395,82.715509,25.305577)"
         id="g51126">
        <path
           sodipodi:type="arc"
           style="opacity:0.26041667;color:#000000;fill:#008000;fill-opacity:1;fill-rule:nonzero;stroke:#0000c7;stroke-width:0;stroke-linecap:butt;stroke-linejoin:round;marker:none;marker-start:none;marker-mid:none;marker-end:none;stroke-miterlimit:4;stroke-dasharray:none;stroke-dashoffset:0;stroke-opacity:1;visibility:visible;display:inline;overflow:visible;enable-background:accumulate"
           id="path2857"
           sodipodi:cx="249.18866"
           sodipodi:cy="167.27296"
           sodipodi:rx="17.101183"
           sodipodi:ry="35.831047"
           d="M 266.28984 167.27296 A 17.101183 35.831047 0 1 1  232.08748,167.27296 A 17.101183 35.831047 0 1 1  266.28984 167.27296 z"
           transform="matrix(0.70773,0.706483,-0.706483,0.70773,627.49319,75.612483)" />
        <text
           xml:space="preserve"
           style="font-size:48px;font-style:normal;font-variant:normal;font-weight:bold;font-stretch:normal;text-align:start;line-height:125%;writing-mode:lr-tb;text-anchor:start;fill:#000000;fill-opacity:1;stroke:none;stroke-width:1px;stroke-linecap:butt;stroke-linejoin:miter;stroke-opacity:1;font-family:Bitstream Vera Sans"
           x="316.26901"
           y="706.44312"
           id="text2859"
           sodipodi:linespacing="125%"
           transform="matrix(0.8155314,-0.5787128,0.5787128,0.8155314,0,0)"><tspan
             sodipodi:role="line"
             id="tspan2861"
             x="316.26901"
             y="706.44312"
             style="font-size:16px;fill:#ff0000">z,1</tspan></text>
      </g>
      <g
         transform="matrix(0.9696901,0,0,0.9591395,-24.678169,112.78515)"
         id="g51101">
        <path
           sodipodi:type="arc"
           style="opacity:0.26041667;color:#000000;fill:#008000;fill-opacity:1;fill-rule:nonzero;stroke:#0000c7;stroke-width:0;stroke-linecap:butt;stroke-linejoin:round;marker:none;marker-start:none;marker-mid:none;marker-end:none;stroke-miterlimit:4;stroke-dasharray:none;stroke-dashoffset:0;stroke-opacity:1;visibility:visible;display:inline;overflow:visible;enable-background:accumulate"
           id="path2864"
           sodipodi:cx="249.18866"
           sodipodi:cy="167.27296"
           sodipodi:rx="17.101183"
           sodipodi:ry="35.831047"
           d="M 266.28984 167.27296 A 17.101183 35.831047 0 1 1  232.08748,167.27296 A 17.101183 35.831047 0 1 1  266.28984 167.27296 z"
           transform="matrix(0.70773,0.706483,-0.706483,0.70773,497.19847,-2.5643535)" />
        <text
           xml:space="preserve"
           style="font-size:48px;font-style:normal;font-variant:normal;font-weight:bold;font-stretch:normal;text-align:start;line-height:125%;writing-mode:lr-tb;text-anchor:start;fill:#000000;fill-opacity:1;stroke:none;stroke-width:1px;stroke-linecap:butt;stroke-linejoin:miter;stroke-opacity:1;font-family:Bitstream Vera Sans"
           x="255.44438"
           y="568.41968"
           id="text2866"
           sodipodi:linespacing="125%"
           transform="matrix(0.8155314,-0.5787128,0.5787128,0.8155314,0,0)"><tspan
             sodipodi:role="line"
             id="tspan2868"
             x="255.44438"
             y="568.41968"
             style="font-size:16px;fill:#ff0000">y,2</tspan></text>
      </g>
      <g
         transform="matrix(0.9696901,0,0,0.9591395,44.022198,52.642943)"
         id="g51106">
        <path
           sodipodi:type="arc"
           style="opacity:0.26041667;color:#000000;fill:#008000;fill-opacity:1;fill-rule:nonzero;stroke:#0000c7;stroke-width:0;stroke-linecap:butt;stroke-linejoin:round;marker:none;marker-start:none;marker-mid:none;marker-end:none;stroke-miterlimit:4;stroke-dasharray:none;stroke-dashoffset:0;stroke-opacity:1;visibility:visible;display:inline;overflow:visible;enable-background:accumulate"
           id="path2871"
           sodipodi:cx="249.18866"
           sodipodi:cy="167.27296"
           sodipodi:rx="17.101183"
           sodipodi:ry="35.831047"
           d="M 266.28984 167.27296 A 17.101183 35.831047 0 1 1  232.08748,167.27296 A 17.101183 35.831047 0 1 1  266.28984 167.27296 z"
           transform="matrix(0.70773,0.706483,-0.706483,0.70773,559.9028,-63.640004)" />
        <text
           xml:space="preserve"
           style="font-size:48px;font-style:normal;font-variant:normal;font-weight:bold;font-stretch:normal;text-align:start;line-height:125%;writing-mode:lr-tb;text-anchor:start;fill:#000000;fill-opacity:1;stroke:none;stroke-width:1px;stroke-linecap:butt;stroke-linejoin:miter;stroke-opacity:1;font-family:Bitstream Vera Sans"
           x="343.42258"
           y="553.82019"
           id="text2873"
           sodipodi:linespacing="125%"
           transform="matrix(0.8155314,-0.5787128,0.5787128,0.8155314,0,0)"><tspan
             sodipodi:role="line"
             id="tspan2875"
             x="343.42258"
             y="553.82019"
             style="font-size:16px;fill:#ff0000">y,2</tspan></text>
      </g>
      <g
         transform="matrix(0.9696901,0,0,0.9591395,42.442879,58.110416)"
         id="g51111">
        <path
           sodipodi:type="arc"
           style="opacity:0.26041667;color:#000000;fill:#008000;fill-opacity:1;fill-rule:nonzero;stroke:#0000c7;stroke-width:0;stroke-linecap:butt;stroke-linejoin:round;marker:none;marker-start:none;marker-mid:none;marker-end:none;stroke-miterlimit:4;stroke-dasharray:none;stroke-dashoffset:0;stroke-opacity:1;visibility:visible;display:inline;overflow:visible;enable-background:accumulate"
           id="path2878"
           sodipodi:cx="249.18866"
           sodipodi:cy="167.27296"
           sodipodi:rx="17.101183"
           sodipodi:ry="35.831047"
           d="M 266.28984 167.27296 A 17.101183 35.831047 0 1 1  232.08748,167.27296 A 17.101183 35.831047 0 1 1  266.28984 167.27296 z"
           transform="matrix(0.70773,0.706483,-0.706483,0.70773,642.15134,-141.81684)" />
        <text
           xml:space="preserve"
           style="font-size:48px;font-style:normal;font-variant:normal;font-weight:bold;font-stretch:normal;text-align:start;line-height:125%;writing-mode:lr-tb;text-anchor:start;fill:#000000;fill-opacity:1;stroke:none;stroke-width:1px;stroke-linecap:butt;stroke-linejoin:miter;stroke-opacity:1;font-family:Bitstream Vera Sans"
           x="453.94125"
           y="537.3844"
           id="text2880"
           sodipodi:linespacing="125%"
           transform="matrix(0.8155314,-0.5787128,0.5787128,0.8155314,0,0)"><tspan
             sodipodi:role="line"
             id="tspan2882"
             x="453.94125"
             y="537.3844"
             style="font-size:16px;fill:#ff0000">y,2</tspan></text>
      </g>
      <g
         transform="matrix(0.9696901,0,0,0.9591395,-6.5160034,103.41234)"
         id="g51116">
        <path
           sodipodi:type="arc"
           style="opacity:0.26041667;color:#000000;fill:#008000;fill-opacity:1;fill-rule:nonzero;stroke:#0000c7;stroke-width:0;stroke-linecap:butt;stroke-linejoin:round;marker:none;marker-start:none;marker-mid:none;marker-end:none;stroke-miterlimit:4;stroke-dasharray:none;stroke-dashoffset:0;stroke-opacity:1;visibility:visible;display:inline;overflow:visible;enable-background:accumulate"
           id="path2885"
           sodipodi:cx="249.18866"
           sodipodi:cy="167.27296"
           sodipodi:rx="17.101183"
           sodipodi:ry="35.831047"
           d="M 266.28984 167.27296 A 17.101183 35.831047 0 1 1  232.08748,167.27296 A 17.101183 35.831047 0 1 1  266.28984 167.27296 z"
           transform="matrix(0.70773,0.706483,-0.706483,0.70773,583.51872,2.3217015)" />
        <text
           xml:space="preserve"
           style="font-size:48px;font-style:normal;font-variant:normal;font-weight:bold;font-stretch:normal;text-align:start;line-height:125%;writing-mode:lr-tb;text-anchor:start;fill:#000000;fill-opacity:1;stroke:none;stroke-width:1px;stroke-linecap:butt;stroke-linejoin:miter;stroke-opacity:1;font-family:Bitstream Vera Sans"
           x="322.43127"
           y="622.802"
           id="text2887"
           sodipodi:linespacing="125%"
           transform="matrix(0.8155314,-0.5787128,0.5787128,0.8155314,0,0)"><tspan
             sodipodi:role="line"
             id="tspan2889"
             x="322.43127"
             y="622.802"
             style="font-size:16px;fill:#ff0000">y,3</tspan></text>
      </g>
      <g
         transform="matrix(0.9696901,0,0,0.9591395,86.663805,21.400239)"
         id="g51121">
        <path
           sodipodi:type="arc"
           style="opacity:0.26041667;color:#000000;fill:#008000;fill-opacity:1;fill-rule:nonzero;stroke:#0000c7;stroke-width:0;stroke-linecap:butt;stroke-linejoin:round;marker:none;marker-start:none;marker-mid:none;marker-end:none;stroke-miterlimit:4;stroke-dasharray:none;stroke-dashoffset:0;stroke-opacity:1;visibility:visible;display:inline;overflow:visible;enable-background:accumulate"
           id="path2892"
           sodipodi:cx="249.18866"
           sodipodi:cy="167.27296"
           sodipodi:rx="17.101183"
           sodipodi:ry="35.831047"
           d="M 266.28984 167.27296 A 17.101183 35.831047 0 1 1  232.08748,167.27296 A 17.101183 35.831047 0 1 1  266.28984 167.27296 z"
           transform="matrix(0.70773,0.706483,-0.706483,0.70773,645.4087,-51.424869)" />
        <text
           xml:space="preserve"
           style="font-size:48px;font-style:normal;font-variant:normal;font-weight:bold;font-stretch:normal;text-align:start;line-height:125%;writing-mode:lr-tb;text-anchor:start;fill:#000000;fill-opacity:1;stroke:none;stroke-width:1px;stroke-linecap:butt;stroke-linejoin:miter;stroke-opacity:1;font-family:Bitstream Vera Sans"
           x="404.17468"
           y="612.94897"
           id="text2894"
           sodipodi:linespacing="125%"
           transform="matrix(0.8155314,-0.5787128,0.5787128,0.8155314,0,0)"><tspan
             sodipodi:role="line"
             id="tspan2896"
             x="404.17468"
             y="612.94897"
             style="font-size:16px;fill:#ff0000">y,3</tspan></text>
      </g>
      <text
         transform="scale(1.005485,0.9945449)"
         sodipodi:linespacing="125%"
         id="text2898"
         y="336.76468"
         x="361.06415"
         style="font-size:46.2912178px;font-style:normal;font-variant:normal;font-weight:bold;font-stretch:normal;text-align:start;line-height:125%;writing-mode:lr-tb;text-anchor:start;fill:#000000;fill-opacity:1;stroke:none;stroke-width:1px;stroke-linecap:butt;stroke-linejoin:miter;stroke-opacity:1;font-family:Bitstream Vera Sans"
         xml:space="preserve"><tspan
           style="font-size:23.1456089px;fill:#ff0000"
           y="336.76468"
           x="361.06415"
           id="tspan2900"
           sodipodi:role="line">0</tspan></text>
      <text
         transform="scale(1.005485,0.9945449)"
         sodipodi:linespacing="125%"
         id="text2902"
         y="386.81363"
         x="407.98639"
         style="font-size:46.2912178px;font-style:normal;font-variant:normal;font-weight:bold;font-stretch:normal;text-align:start;line-height:125%;writing-mode:lr-tb;text-anchor:start;fill:#000000;fill-opacity:1;stroke:none;stroke-width:1px;stroke-linecap:butt;stroke-linejoin:miter;stroke-opacity:1;font-family:Bitstream Vera Sans"
         xml:space="preserve"><tspan
           style="font-size:23.1456089px;fill:#ff0000"
           y="386.81363"
           x="407.98639"
           id="tspan2904"
           sodipodi:role="line">1</tspan></text>
      <text
         transform="scale(1.005485,0.9945449)"
         sodipodi:linespacing="125%"
         id="text2906"
         y="435.50543"
         x="457.46356"
         style="font-size:46.2912178px;font-style:normal;font-variant:normal;font-weight:bold;font-stretch:normal;text-align:start;line-height:125%;writing-mode:lr-tb;text-anchor:start;fill:#000000;fill-opacity:1;stroke:none;stroke-width:1px;stroke-linecap:butt;stroke-linejoin:miter;stroke-opacity:1;font-family:Bitstream Vera Sans"
         xml:space="preserve"><tspan
           style="font-size:23.1456089px;fill:#ff0000"
           y="435.50543"
           x="457.46356"
           id="tspan2908"
           sodipodi:role="line">2</tspan></text>
      <text
         transform="scale(1.005485,0.9945449)"
         sodipodi:linespacing="125%"
         id="text2910"
         y="484.19724"
         x="510.08209"
         style="font-size:46.2912178px;font-style:normal;font-variant:normal;font-weight:bold;font-stretch:normal;text-align:start;line-height:125%;writing-mode:lr-tb;text-anchor:start;fill:#000000;fill-opacity:1;stroke:none;stroke-width:1px;stroke-linecap:butt;stroke-linejoin:miter;stroke-opacity:1;font-family:Bitstream Vera Sans"
         xml:space="preserve"><tspan
           style="font-size:23.1456089px;fill:#ff0000"
           y="484.19724"
           x="510.08209"
           id="tspan2912"
           sodipodi:role="line">3</tspan></text>
      <text
         transform="scale(1.005485,0.9945449)"
         sodipodi:linespacing="125%"
         id="text2914"
         y="547.02539"
         x="563.48608"
         style="font-size:46.2912178px;font-style:normal;font-variant:normal;font-weight:bold;font-stretch:normal;text-align:start;line-height:125%;writing-mode:lr-tb;text-anchor:start;fill:#000000;fill-opacity:1;stroke:none;stroke-width:1px;stroke-linecap:butt;stroke-linejoin:miter;stroke-opacity:1;font-family:Bitstream Vera Sans"
         xml:space="preserve"><tspan
           style="font-size:23.1456089px;fill:#ff0000"
           y="547.02539"
           x="563.48608"
           id="tspan2916"
           sodipodi:role="line">1</tspan></text>
      <path
         sodipodi:nodetypes="cc"
         inkscape:connector-type="polyline"
         id="path51131"
         d="M 394.63097,206.83251 L 751.55702,605.17698"
         style="fill:none;fill-rule:evenodd;stroke:#000000;stroke-width:0.96440035px;stroke-linecap:butt;stroke-linejoin:miter;stroke-opacity:1" />
      <path
         sodipodi:nodetypes="cc"
         inkscape:connector-type="polyline"
         id="path51133"
         d="M 543.08694,86.548101 L 915.80618,496.60859"
         style="fill:none;fill-rule:evenodd;stroke:#000000;stroke-width:0.96440035px;stroke-linecap:butt;stroke-linejoin:miter;stroke-opacity:1" />
      <path
         inkscape:connector-type="polyline"
         id="path51135"
         d="M 463.33134,131.85002 L 774.45714,477.0819"
         style="fill:none;fill-rule:evenodd;stroke:#000000;stroke-width:0.96440035;stroke-linecap:butt;stroke-linejoin:miter;stroke-miterlimit:4;stroke-dasharray:3.85760152, 3.85760152;stroke-dashoffset:0;stroke-opacity:1" />
      <path
         sodipodi:nodetypes="cc"
         inkscape:connector-type="polyline"
         id="path52106"
         d="M 325.14095,239.63734 L 682.067,637.98182"
         style="fill:none;fill-rule:evenodd;stroke:#000000;stroke-width:0.96440035px;stroke-linecap:butt;stroke-linejoin:miter;stroke-opacity:1" />
      <path
         sodipodi:nodetypes="cc"
         inkscape:connector-type="polyline"
         id="path52108"
         d="M 626.00118,27.186964 L 982.92723,425.53143"
         style="fill:none;fill-rule:evenodd;stroke:#000000;stroke-width:0.96440035px;stroke-linecap:butt;stroke-linejoin:miter;stroke-opacity:1" />
      <text
         transform="matrix(0.7286242,0.6853584,-0.6928974,0.7206965,0,0)"
         sodipodi:linespacing="125%"
         id="text52117"
         y="-163.22957"
         x="568.42749"
         style="font-size:46.2912178px;font-style:normal;font-variant:normal;font-weight:bold;font-stretch:normal;text-align:start;line-height:125%;writing-mode:lr-tb;text-anchor:start;fill:#0000ff;fill-opacity:1;stroke:none;stroke-width:1px;stroke-linecap:butt;stroke-linejoin:miter;stroke-opacity:1;font-family:Bitstream Vera Sans"
         xml:space="preserve"><tspan
           style="font-size:15.43040562px;fill:#0000ff"
           y="-163.22957"
           x="568.42749"
           id="tspan52119"
           sodipodi:role="line">I,a</tspan></text>
      <text
         transform="matrix(0.7286242,0.6853584,-0.6928974,0.7206965,0,0)"
         sodipodi:linespacing="125%"
         id="text52121"
         y="-153.73241"
         x="703.1759"
         style="font-size:46.2912178px;font-style:normal;font-variant:normal;font-weight:bold;font-stretch:normal;text-align:start;line-height:125%;writing-mode:lr-tb;text-anchor:start;fill:#0000ff;fill-opacity:1;stroke:none;stroke-width:1px;stroke-linecap:butt;stroke-linejoin:miter;stroke-opacity:1;font-family:Bitstream Vera Sans"
         xml:space="preserve"><tspan
           style="font-size:15.43040562px;fill:#0000ff"
           y="-153.73241"
           x="703.1759"
           id="tspan52123"
           sodipodi:role="line">I,a</tspan></text>
      <text
         transform="matrix(0.7286242,0.6853584,-0.6928974,0.7206965,0,0)"
         sodipodi:linespacing="125%"
         id="text52125"
         y="-76.117592"
         x="630.67645"
         style="font-size:46.2912178px;font-style:normal;font-variant:normal;font-weight:bold;font-stretch:normal;text-align:start;line-height:125%;writing-mode:lr-tb;text-anchor:start;fill:#0000ff;fill-opacity:1;stroke:none;stroke-width:1px;stroke-linecap:butt;stroke-linejoin:miter;stroke-opacity:1;font-family:Bitstream Vera Sans"
         xml:space="preserve"><tspan
           style="font-size:15.43040562px;fill:#0000ff"
           y="-76.117592"
           x="630.67645"
           id="tspan52127"
           sodipodi:role="line">V,b</tspan></text>
      <text
         transform="matrix(0.7286242,0.6853584,-0.6928974,0.7206965,0,0)"
         sodipodi:linespacing="125%"
         id="text52129"
         y="-268.70337"
         x="504.97348"
         style="font-size:46.2912178px;font-style:normal;font-variant:normal;font-weight:bold;font-stretch:normal;text-align:start;line-height:125%;writing-mode:lr-tb;text-anchor:start;fill:#0000ff;fill-opacity:1;stroke:none;stroke-width:1px;stroke-linecap:butt;stroke-linejoin:miter;stroke-opacity:1;font-family:Bitstream Vera Sans"
         xml:space="preserve"><tspan
           style="font-size:15.43040562px;fill:#0000ff"
           y="-268.70337"
           x="504.97348"
           id="tspan52131"
           sodipodi:role="line">I,b</tspan></text>
      <text
         transform="matrix(0.7286242,0.6853584,-0.6928974,0.7206965,0,0)"
         sodipodi:linespacing="125%"
         id="text52133"
         y="-256.84607"
         x="645.21765"
         style="font-size:46.2912178px;font-style:normal;font-variant:normal;font-weight:bold;font-stretch:normal;text-align:start;line-height:125%;writing-mode:lr-tb;text-anchor:start;fill:#0000ff;fill-opacity:1;stroke:none;stroke-width:1px;stroke-linecap:butt;stroke-linejoin:miter;stroke-opacity:1;font-family:Bitstream Vera Sans"
         xml:space="preserve"><tspan
           style="font-size:15.43040562px;fill:#0000ff"
           y="-256.84607"
           x="645.21765"
           id="tspan52135"
           sodipodi:role="line">I,b</tspan></text>
      <text
         transform="matrix(0.7286242,0.6853584,-0.6928974,0.7206965,0,0)"
         sodipodi:linespacing="125%"
         id="text52137"
         y="-248.7493"
         x="790.55591"
         style="font-size:46.2912178px;font-style:normal;font-variant:normal;font-weight:bold;font-stretch:normal;text-align:start;line-height:125%;writing-mode:lr-tb;text-anchor:start;fill:#0000ff;fill-opacity:1;stroke:none;stroke-width:1px;stroke-linecap:butt;stroke-linejoin:miter;stroke-opacity:1;font-family:Bitstream Vera Sans"
         xml:space="preserve"><tspan
           style="font-size:15.43040562px;fill:#0000ff"
           y="-248.7493"
           x="790.55591"
           id="tspan52139"
           sodipodi:role="line">I,b</tspan></text>
      <text
         transform="matrix(0.7286242,0.6853584,-0.6928974,0.7206965,0,0)"
         sodipodi:linespacing="125%"
         id="text52141"
         y="-363.99417"
         x="515.14545"
         style="font-size:46.2912178px;font-style:normal;font-variant:normal;font-weight:bold;font-stretch:normal;text-align:start;line-height:125%;writing-mode:lr-tb;text-anchor:start;fill:#0000ff;fill-opacity:1;stroke:none;stroke-width:1px;stroke-linecap:butt;stroke-linejoin:miter;stroke-opacity:1;font-family:Bitstream Vera Sans"
         xml:space="preserve"><tspan
           style="font-size:15.43040562px;fill:#0000ff"
           y="-363.99417"
           x="515.14545"
           id="tspan52143"
           sodipodi:role="line">II,c</tspan></text>
      <text
         transform="matrix(0.7286242,0.6853584,-0.6928974,0.7206965,0,0)"
         sodipodi:linespacing="125%"
         id="text52157"
         y="-363.91559"
         x="582.26068"
         style="font-size:46.2912178px;font-style:normal;font-variant:normal;font-weight:bold;font-stretch:normal;text-align:start;line-height:125%;writing-mode:lr-tb;text-anchor:start;fill:#0000ff;fill-opacity:1;stroke:none;stroke-width:1px;stroke-linecap:butt;stroke-linejoin:miter;stroke-opacity:1;font-family:Bitstream Vera Sans"
         xml:space="preserve"><tspan
           style="font-size:15.43040562px;fill:#0000ff"
           y="-363.91559"
           x="582.26068"
           id="tspan52159"
           sodipodi:role="line">II,c</tspan></text>
      <text
         transform="matrix(0.7286242,0.6853584,-0.6928974,0.7206965,0,0)"
         sodipodi:linespacing="125%"
         id="text52161"
         y="-358.91034"
         x="648.79523"
         style="font-size:46.2912178px;font-style:normal;font-variant:normal;font-weight:bold;font-stretch:normal;text-align:start;line-height:125%;writing-mode:lr-tb;text-anchor:start;fill:#0000ff;fill-opacity:1;stroke:none;stroke-width:1px;stroke-linecap:butt;stroke-linejoin:miter;stroke-opacity:1;font-family:Bitstream Vera Sans"
         xml:space="preserve"><tspan
           style="font-size:15.43040562px;fill:#0000ff"
           y="-358.91034"
           x="648.79523"
           id="tspan52163"
           sodipodi:role="line">II,c</tspan></text>
      <text
         transform="matrix(0.7286242,0.6853584,-0.6928974,0.7206965,0,0)"
         sodipodi:linespacing="125%"
         id="text52165"
         y="-355.50085"
         x="718.14746"
         style="font-size:46.2912178px;font-style:normal;font-variant:normal;font-weight:bold;font-stretch:normal;text-align:start;line-height:125%;writing-mode:lr-tb;text-anchor:start;fill:#0000ff;fill-opacity:1;stroke:none;stroke-width:1px;stroke-linecap:butt;stroke-linejoin:miter;stroke-opacity:1;font-family:Bitstream Vera Sans"
         xml:space="preserve"><tspan
           style="font-size:15.43040562px;fill:#0000ff"
           y="-355.50085"
           x="718.14746"
           id="tspan52167"
           sodipodi:role="line">II,c</tspan></text>
      <text
         transform="scale(1.005485,0.9945449)"
         sodipodi:linespacing="125%"
         id="text52175"
         y="615.37347"
         x="674.38922"
         style="font-size:46.2912178px;font-style:normal;font-variant:normal;font-weight:bold;font-stretch:normal;text-align:start;line-height:125%;writing-mode:lr-tb;text-anchor:start;fill:#0000ff;fill-opacity:1;stroke:none;stroke-width:1px;stroke-linecap:butt;stroke-linejoin:miter;stroke-opacity:1;font-family:Bitstream Vera Sans"
         xml:space="preserve"><tspan
           style="fill:#0000ff"
           y="615.37347"
           x="674.38922"
           id="tspan52177"
           sodipodi:role="line">V</tspan></text>
      <text
         transform="scale(1.005485,0.9945449)"
         sodipodi:linespacing="125%"
         id="text52181"
         y="555.47333"
         x="752.3194"
         style="font-size:46.2912178px;font-style:normal;font-variant:normal;font-weight:bold;font-stretch:normal;text-align:start;line-height:125%;writing-mode:lr-tb;text-anchor:start;fill:#0000ff;fill-opacity:1;stroke:none;stroke-width:1px;stroke-linecap:butt;stroke-linejoin:miter;stroke-opacity:1;font-family:Bitstream Vera Sans"
         xml:space="preserve"><tspan
           style="fill:#0000ff"
           y="555.47333"
           x="752.3194"
           id="tspan52183"
           sodipodi:role="line">I</tspan></text>
      <text
         transform="scale(1.005485,0.9945449)"
         sodipodi:linespacing="125%"
         id="text52185"
         y="488.71841"
         x="809.65009"
         style="font-size:46.2912178px;font-style:normal;font-variant:normal;font-weight:bold;font-stretch:normal;text-align:start;line-height:125%;writing-mode:lr-tb;text-anchor:start;fill:#0000ff;fill-opacity:1;stroke:none;stroke-width:1px;stroke-linecap:butt;stroke-linejoin:miter;stroke-opacity:1;font-family:Bitstream Vera Sans"
         xml:space="preserve"><tspan
           style="fill:#0000ff"
           y="488.71841"
           x="809.65009"
           id="tspan52187"
           sodipodi:role="line">I</tspan></text>
      <text
         transform="scale(1.005485,0.9945449)"
         sodipodi:linespacing="125%"
         id="text52189"
         y="430.60239"
         x="875.50787"
         style="font-size:46.2912178px;font-style:normal;font-variant:normal;font-weight:bold;font-stretch:normal;text-align:start;line-height:125%;writing-mode:lr-tb;text-anchor:start;fill:#0000ff;fill-opacity:1;stroke:none;stroke-width:1px;stroke-linecap:butt;stroke-linejoin:miter;stroke-opacity:1;font-family:Bitstream Vera Sans"
         xml:space="preserve"><tspan
           style="fill:#0000ff"
           y="430.60239"
           x="875.50787"
           id="tspan52191"
           sodipodi:role="line">II</tspan></text>
      <text
         transform="scale(1.005485,0.9945449)"
         sodipodi:linespacing="125%"
         id="text52193"
         y="558.96954"
         x="642.89691"
         style="font-size:46.2912178px;font-style:normal;font-variant:normal;font-weight:bold;font-stretch:normal;text-align:start;line-height:125%;writing-mode:lr-tb;text-anchor:start;fill:#0000ff;fill-opacity:1;stroke:none;stroke-width:1px;stroke-linecap:butt;stroke-linejoin:miter;stroke-opacity:1;font-family:Bitstream Vera Sans"
         xml:space="preserve"><tspan
           style="font-size:23.1456089px;fill:#0000ff"
           y="558.96954"
           x="642.89691"
           id="tspan52195"
           sodipodi:role="line">b</tspan></text>
      <text
         transform="scale(1.005485,0.9945449)"
         sodipodi:linespacing="125%"
         id="text52197"
         y="435.70886"
         x="778.77399"
         style="font-size:46.2912178px;font-style:normal;font-variant:normal;font-weight:bold;font-stretch:normal;text-align:start;line-height:125%;writing-mode:lr-tb;text-anchor:start;fill:#0000ff;fill-opacity:1;stroke:none;stroke-width:1px;stroke-linecap:butt;stroke-linejoin:miter;stroke-opacity:1;font-family:Bitstream Vera Sans"
         xml:space="preserve"><tspan
           style="font-size:23.1456089px;fill:#0000ff"
           y="435.70886"
           x="778.77399"
           id="tspan52199"
           sodipodi:role="line">b</tspan></text>
      <text
         transform="scale(1.005485,0.9945449)"
         sodipodi:linespacing="125%"
         id="text52201"
         y="369.73932"
         x="847.09961"
         style="font-size:46.2912178px;font-style:normal;font-variant:normal;font-weight:bold;font-stretch:normal;text-align:start;line-height:125%;writing-mode:lr-tb;text-anchor:start;fill:#0000ff;fill-opacity:1;stroke:none;stroke-width:1px;stroke-linecap:butt;stroke-linejoin:miter;stroke-opacity:1;font-family:Bitstream Vera Sans"
         xml:space="preserve"><tspan
           style="font-size:23.1456089px;fill:#0000ff"
           y="369.73932"
           x="847.09961"
           id="tspan52203"
           sodipodi:role="line">c</tspan></text>
      <text
         transform="scale(1.005485,0.9945449)"
         sodipodi:linespacing="125%"
         id="text52205"
         y="500.89307"
         x="707.30701"
         style="font-size:46.2912178px;font-style:normal;font-variant:normal;font-weight:bold;font-stretch:normal;text-align:start;line-height:125%;writing-mode:lr-tb;text-anchor:start;fill:#0000ff;fill-opacity:1;stroke:none;stroke-width:1px;stroke-linecap:butt;stroke-linejoin:miter;stroke-opacity:1;font-family:Bitstream Vera Sans"
         xml:space="preserve"><tspan
           style="font-size:23.1456089px;fill:#0000ff"
           y="500.89307"
           x="707.30701"
           id="tspan52207"
           sodipodi:role="line">a</tspan></text>
    </g>
  </g>
</svg>
