#FIG 3.2  Produced by xfig version 3.2.5-alpha5
Landscape
Center
Metric
A4      
100.00
Single
-2
1200 2
6 6525 4410 9135 5085
6 6525 4410 6885 4815
1 3 0 1 0 4 50 -1 20 0.000 1 0.0000 6689 4611 160 160 6689 4611 6849 4611
4 0 0 50 -1 24 11 0.0000 4 135 90 6644 4672 6\001
-6
6 7245 4410 7605 4815
1 3 0 1 0 4 50 -1 20 0.000 1 0.0000 7445 4613 160 160 7445 4613 7605 4613
4 0 0 50 -1 24 11 0.0000 4 135 90 7409 4672 4\001
-6
6 8010 4455 8370 4815
1 3 0 1 0 4 50 -1 20 0.000 1 0.0000 8204 4621 160 160 8204 4621 8364 4621
4 0 0 50 -1 24 11 0.0000 4 135 90 8174 4672 2\001
-6
6 6885 4680 7245 5085
1 3 0 1 0 17 50 -1 20 0.000 1 0.0000 7046 4882 160 160 7046 4882 7206 4882
4 0 0 50 -1 24 11 0.0000 4 135 90 7004 4942 5\001
-6
6 7605 4680 8010 5085
1 3 0 1 0 17 50 -1 20 0.000 1 0.0000 7809 4881 160 160 7809 4881 7969 4881
4 0 0 50 -1 24 11 0.0000 4 135 90 7769 4942 3\001
-6
6 8370 4680 8730 5085
1 3 0 1 0 17 50 -1 20 0.000 1 0.0000 8558 4884 160 160 8558 4884 8718 4884
4 0 0 50 -1 24 11 0.0000 4 135 90 8534 4942 1\001
-6
6 8775 4410 9135 4815
1 3 0 1 0 4 50 -1 20 0.000 1 0.0000 8939 4611 160 160 8939 4611 9099 4611
4 0 0 50 -1 24 11 0.0000 4 135 90 8894 4672 0\001
-6
-6
6 6750 5445 8955 5895
6 6750 5490 7110 5895
1 3 0 1 0 4 50 -1 20 0.000 1 0.0000 6914 5691 160 160 6914 5691 7074 5691
4 0 0 50 -1 24 11 0.0000 4 135 90 6869 5752 0\001
-6
6 7965 5445 8325 5850
1 3 0 1 0 17 50 -1 20 0.000 1 0.0000 8163 5647 160 160 8163 5647 8323 5647
4 0 0 50 -1 24 11 0.0000 4 135 90 8129 5707 4\001
-6
6 8595 5490 8955 5895
1 3 0 1 0 4 50 -1 20 0.000 1 0.0000 8759 5691 160 160 8759 5691 8919 5691
4 0 0 50 -1 24 11 0.0000 4 135 90 8714 5752 5\001
-6
6 7290 5445 7695 5805
1 3 0 1 0 17 50 -1 20 0.000 1 0.0000 7491 5615 160 160 7491 5615 7651 5615
4 2 0 50 -1 24 11 0.0000 4 135 90 7544 5707 3\001
-6
-6
6 10530 5265 13140 5940
6 10530 5265 10890 5670
1 3 0 1 0 4 50 -1 20 0.000 1 0.0000 10694 5466 160 160 10694 5466 10854 5466
4 0 0 50 -1 24 11 0.0000 4 135 90 10649 5527 6\001
-6
6 11250 5265 11610 5670
1 3 0 1 0 4 50 -1 20 0.000 1 0.0000 11450 5468 160 160 11450 5468 11610 5468
4 0 0 50 -1 24 11 0.0000 4 135 90 11414 5527 4\001
-6
6 12015 5310 12375 5670
1 3 0 1 0 4 50 -1 20 0.000 1 0.0000 12209 5476 160 160 12209 5476 12369 5476
4 0 0 50 -1 24 11 0.0000 4 135 90 12179 5527 2\001
-6
6 10890 5535 11250 5940
1 3 0 1 0 17 50 -1 20 0.000 1 0.0000 11051 5737 160 160 11051 5737 11211 5737
4 0 0 50 -1 24 11 0.0000 4 135 90 11009 5797 5\001
-6
6 11610 5535 12015 5940
1 3 0 1 0 17 50 -1 20 0.000 1 0.0000 11814 5736 160 160 11814 5736 11974 5736
4 0 0 50 -1 24 11 0.0000 4 135 90 11774 5797 3\001
-6
6 12375 5535 12735 5940
1 3 0 1 0 17 50 -1 20 0.000 1 0.0000 12563 5739 160 160 12563 5739 12723 5739
4 0 0 50 -1 24 11 0.0000 4 135 90 12539 5797 1\001
-6
6 12780 5265 13140 5670
1 3 0 1 0 4 50 -1 20 0.000 1 0.0000 12944 5466 160 160 12944 5466 13104 5466
4 0 0 50 -1 24 11 0.0000 4 135 90 12899 5527 0\001
-6
-6
6 10755 4365 12960 4815
6 10755 4410 11115 4815
1 3 0 1 0 4 50 -1 20 0.000 1 0.0000 10919 4611 160 160 10919 4611 11079 4611
4 0 0 50 -1 24 11 0.0000 4 135 90 10874 4672 0\001
-6
6 11970 4365 12330 4770
1 3 0 1 0 17 50 -1 20 0.000 1 0.0000 12168 4567 160 160 12168 4567 12328 4567
4 0 0 50 -1 24 11 0.0000 4 135 90 12134 4627 4\001
-6
6 12600 4410 12960 4815
1 3 0 1 0 4 50 -1 20 0.000 1 0.0000 12764 4611 160 160 12764 4611 12924 4611
4 0 0 50 -1 24 11 0.0000 4 135 90 12719 4672 5\001
-6
6 11295 4365 11700 4725
1 3 0 1 0 17 50 -1 20 0.000 1 0.0000 11496 4535 160 160 11496 4535 11656 4535
4 2 0 50 -1 24 11 0.0000 4 135 90 11549 4627 3\001
-6
-6
1 4 0 1 4 4 50 -1 20 0.000 1 0.0000 9720 270 51 51 9669 270 9771 270
1 4 0 1 4 4 50 -1 20 0.000 1 0.0000 9720 2115 51 51 9669 2115 9771 2115
1 4 0 1 4 4 50 -1 20 0.000 1 0.0000 9720 3645 51 51 9669 3645 9771 3645
1 4 0 1 4 4 50 -1 20 0.000 1 0.0000 9990 270 51 51 9939 270 10041 270
1 4 0 1 4 4 50 -1 20 0.000 1 0.0000 9984 1305 51 51 9933 1305 10035 1305
1 4 0 1 4 4 50 -1 20 0.000 1 0.0000 9996 2745 51 51 9945 2745 10047 2745
1 4 0 1 4 4 50 -1 20 0.000 1 0.0000 9996 3645 51 51 9945 3645 10047 3645
2 3 0 1 0 7 50 -1 -1 0.000 0 0 0 0 0 4
	 9716 3688 9720 270 6750 1980 9716 3688
2 1 0 1 0 7 50 -1 -1 0.000 0 0 -1 0 0 3
	 9990 1305 12915 1980 9990 2745
2 1 0 1 0 7 50 -1 -1 0.000 0 0 -1 0 0 3
	 6750 1980 8775 2115 9720 270
2 1 0 1 0 7 50 -1 -1 0.000 0 0 -1 0 0 2
	 8775 2115 9720 3690
2 2 1 1 0 7 50 -1 -1 4.000 0 0 -1 0 0 5
	 6435 45 9810 45 9810 3915 6435 3915 6435 45
2 1 0 1 0 7 50 -1 -1 0.000 0 0 -1 0 0 2
	 8775 2115 9720 2115
2 2 1 1 0 7 50 -1 -1 3.000 0 0 -1 0 0 5
	 9900 45 13320 45 13320 3915 9900 3915 9900 45
2 3 0 1 0 7 50 -1 -1 0.000 0 0 0 0 0 4
	 9989 3688 9993 266 12955 1980 9989 3688
2 1 0 1 5 7 50 -1 -1 0.000 0 0 -1 1 0 2
	1 1 2.00 40.50 97.50
	 7065 5085 7425 5445
2 1 0 1 5 7 50 -1 -1 0.000 0 0 -1 1 0 2
	1 1 2.00 40.50 97.50
	 7425 4815 7470 5445
2 1 0 1 5 7 50 -1 -1 0.000 0 0 -1 1 0 2
	1 1 2.00 40.50 97.50
	 8910 4770 8775 5535
2 1 0 1 5 7 50 -1 -1 0.000 0 0 -1 1 0 2
	1 1 2.00 40.50 97.50
	 6660 4770 6885 5535
2 1 0 1 5 7 50 -1 -1 0.000 0 0 -1 1 0 2
	1 1 2.00 40.50 97.50
	 8460 5040 8190 5490
2 1 0 1 5 7 50 -1 -1 0.000 0 0 -1 1 0 2
	1 1 2.00 40.50 97.50
	 7830 5085 8100 5490
2 1 0 1 5 7 50 -1 -1 0.000 0 0 -1 1 0 2
	1 1 2.00 40.50 97.50
	 7785 5040 7560 5445
2 1 0 1 5 7 50 -1 -1 0.000 0 0 -1 1 0 2
	1 1 2.00 40.50 97.50
	 8190 4770 8145 5490
2 1 0 1 26 7 50 -1 -1 0.000 0 0 -1 1 0 2
	1 1 2.00 40.50 97.50
	 11475 4725 11070 5580
2 1 0 1 26 7 50 -1 -1 0.000 0 0 -1 1 0 2
	1 1 2.00 40.50 97.50
	 11475 4725 11430 5265
2 1 0 1 26 7 50 -1 -1 0.000 0 0 -1 1 0 2
	1 1 2.00 40.50 97.50
	 12150 4770 11835 5580
2 1 0 1 26 7 50 -1 -1 0.000 0 0 -1 1 0 2
	1 1 2.00 40.50 97.50
	 12780 4815 12915 5310
2 1 0 1 26 7 50 -1 -1 0.000 0 0 -1 1 0 2
	1 1 2.00 40.50 97.50
	 10890 4770 10710 5310
2 1 0 1 26 7 50 -1 -1 0.000 0 0 -1 1 0 2
	1 1 2.00 40.50 97.50
	 12150 4770 12195 5310
2 1 0 1 26 7 50 -1 -1 0.000 0 0 -1 1 0 2
	1 1 2.00 40.50 97.50
	 11475 4725 11790 5580
2 1 0 1 26 7 50 -1 -1 0.000 0 0 -1 1 0 2
	1 1 2.00 40.50 97.50
	 12150 4770 12555 5580
4 0 17 50 -1 0 12 0.0000 4 150 105 10035 2070 3\001
4 0 17 50 -1 0 12 0.0000 4 150 105 10035 765 5\001
4 0 17 50 -1 0 12 0.0000 4 150 105 10035 3240 1\001
4 0 4 50 -1 0 12 0.0000 4 150 105 9630 225 0\001
4 2 17 50 -1 0 12 0.0000 4 150 105 9675 1305 3\001
4 0 17 50 -1 0 12 0.0000 4 150 105 9585 2835 4\001
4 0 4 50 -1 0 12 0.0000 4 150 105 9585 2070 2\001
4 0 4 50 -1 0 12 0.0000 4 150 105 9630 3870 5\001
4 0 4 50 -1 0 12 0.0000 4 150 105 10035 3870 0\001
4 0 4 50 -1 0 12 0.0000 4 150 105 10080 2610 2\001
4 0 4 50 -1 0 12 0.0000 4 150 105 10080 1215 4\001
4 0 4 50 -1 0 12 0.0000 4 150 105 10080 225 6\001
4 0 1 50 -1 0 12 0.0000 4 150 600 6750 360 chart 0\001
4 0 1 50 -1 0 12 0.0000 4 150 600 12420 360 chart 1\001
