<?xml version="1.0" encoding="UTF-8" standalone="no"?>
<!-- Created with Inkscape (http://www.inkscape.org/) -->
<svg
   xmlns:dc="http://purl.org/dc/elements/1.1/"
   xmlns:cc="http://creativecommons.org/ns#"
   xmlns:rdf="http://www.w3.org/1999/02/22-rdf-syntax-ns#"
   xmlns:svg="http://www.w3.org/2000/svg"
   xmlns="http://www.w3.org/2000/svg"
   xmlns:sodipodi="http://sodipodi.sourceforge.net/DTD/sodipodi-0.dtd"
   xmlns:inkscape="http://www.inkscape.org/namespaces/inkscape"
   width="2651.8"
   height="774.79999"
   id="svg2"
   sodipodi:version="0.32"
   inkscape:version="0.46"
   sodipodi:docbase="/home/prbrune/papers/Presentations/figures/Coarsening"
   sodipodi:docname="functionBasedCoarsening.svg"
   inkscape:output_extension="org.inkscape.output.svg.inkscape"
   version="1.0"
   inkscape:export-filename="/home/prbrune/papers/Presentations/figures/Coarsening/functionBasedCoarsening.png"
   inkscape:export-xdpi="40.039246"
   inkscape:export-ydpi="40.039246">
  <defs
     id="defs4">
    <inkscape:perspective
       sodipodi:type="inkscape:persp3d"
       inkscape:vp_x="0 : 387.39999 : 1"
       inkscape:vp_y="0 : 1000 : 0"
       inkscape:vp_z="2651.8 : 387.39999 : 1"
       inkscape:persp3d-origin="1325.9 : 258.26666 : 1"
       id="perspective89" />
  </defs>
  <sodipodi:namedview
     id="base"
     pagecolor="#ffffff"
     bordercolor="#666666"
     borderopacity="1.0"
     gridtolerance="10000"
     guidetolerance="10"
     objecttolerance="10"
     inkscape:pageopacity="0.0"
     inkscape:pageshadow="2"
     inkscape:zoom="0.35"
     inkscape:cx="927.72799"
     inkscape:cy="527.46307"
     inkscape:document-units="px"
     inkscape:current-layer="layer1"
     showgrid="true"
     inkscape:grid-points="true"
     showguides="true"
     inkscape:guide-bbox="true"
     inkscape:window-width="826"
     inkscape:window-height="679"
     inkscape:window-x="334"
     inkscape:window-y="63" />
  <metadata
     id="metadata7">
    <rdf:RDF>
      <cc:Work
         rdf:about="">
        <dc:format>image/svg+xml</dc:format>
        <dc:type
           rdf:resource="http://purl.org/dc/dcmitype/StillImage" />
      </cc:Work>
    </rdf:RDF>
  </metadata>
  <g
     inkscape:label="Layer 1"
     inkscape:groupmode="layer"
     id="layer1"
     transform="translate(520,60.637816)">
    <path
       style="fill:#ececec;fill-rule:evenodd;stroke:#000000;stroke-width:5;stroke-linecap:butt;stroke-linejoin:miter;stroke-miterlimit:4;stroke-dasharray:none;stroke-opacity:1"
       d="M -77.6,457.36218 L -37.6,577.36218 L -237.6,617.36218 L -77.6,457.36218 z"
       id="path2160"
       sodipodi:nodetypes="cccc" />
    <path
       id="path3134"
       d="M -237.6,457.36218 L -437.6,417.36218 L -237.6,617.36218 L -237.6,457.36218 z"
       style="fill:#ececec;fill-rule:evenodd;stroke:#000000;stroke-width:5;stroke-linecap:butt;stroke-linejoin:miter;stroke-miterlimit:4;stroke-dasharray:none;stroke-opacity:1"
       sodipodi:nodetypes="cccc" />
    <path
       sodipodi:nodetypes="cccc"
       style="fill:#ececec;fill-rule:evenodd;stroke:#000000;stroke-width:5;stroke-linecap:butt;stroke-linejoin:miter;stroke-miterlimit:4;stroke-dasharray:none;stroke-opacity:1"
       d="M -237.6,257.36218 L -437.6,417.36218 L -397.6,137.36218 L -237.6,257.36218 z"
       id="path3136" />
    <path
       id="path3138"
       d="M -237.6,257.36218 L -117.6,57.362184 L -397.6,137.36218 L -237.6,257.36218 z"
       style="fill:#ececec;fill-rule:evenodd;stroke:#000000;stroke-width:5;stroke-linecap:butt;stroke-linejoin:miter;stroke-miterlimit:4;stroke-dasharray:none;stroke-opacity:1"
       sodipodi:nodetypes="cccc" />
    <path
       sodipodi:nodetypes="cccc"
       style="fill:#ececec;fill-rule:evenodd;stroke:#000000;stroke-width:5;stroke-linecap:butt;stroke-linejoin:miter;stroke-miterlimit:4;stroke-dasharray:none;stroke-opacity:1"
       d="M -77.6,257.36218 L -117.6,57.362184 L 82.4,137.36218 L -77.6,257.36218 z"
       id="path3140" />
    <path
       sodipodi:nodetypes="cccc"
       id="path3142"
       d="M -237.6,257.36218 L -77.6,257.36218 L -117.6,57.362184 L -237.6,257.36218 z"
       style="fill:#ececec;fill-rule:evenodd;stroke:#000000;stroke-width:5;stroke-linecap:butt;stroke-linejoin:miter;stroke-miterlimit:4;stroke-dasharray:none;stroke-opacity:1" />
    <path
       style="fill:#ececec;fill-rule:evenodd;stroke:#000000;stroke-width:5;stroke-linecap:butt;stroke-linejoin:miter;stroke-miterlimit:4;stroke-dasharray:none;stroke-opacity:1"
       d="M -237.6,257.36218 L -77.6,257.36218 L -117.6,337.36218 L -237.6,257.36218 z"
       id="path3144"
       sodipodi:nodetypes="cccc" />
    <path
       sodipodi:nodetypes="cccc"
       id="path3146"
       d="M -77.6,457.36218 L -237.6,457.36218 L -237.6,617.36218 L -77.6,457.36218 z"
       style="fill:#ececec;fill-rule:evenodd;stroke:#000000;stroke-width:5;stroke-linecap:butt;stroke-linejoin:miter;stroke-miterlimit:4;stroke-dasharray:none;stroke-opacity:1" />
    <path
       sodipodi:nodetypes="cccc"
       style="fill:#ececec;fill-rule:evenodd;stroke:#000000;stroke-width:5;stroke-linecap:butt;stroke-linejoin:miter;stroke-miterlimit:4;stroke-dasharray:none;stroke-opacity:1"
       d="M -237.6,457.36218 L -437.6,417.36218 L -237.6,257.36218 L -237.6,457.36218 z"
       id="path3148" />
    <path
       id="path3150"
       d="M -237.6,457.36218 L -117.6,337.36218 L -237.6,257.36218 L -237.6,457.36218 z"
       style="fill:#ececec;fill-rule:evenodd;stroke:#000000;stroke-width:5;stroke-linecap:butt;stroke-linejoin:miter;stroke-miterlimit:4;stroke-dasharray:none;stroke-opacity:1"
       sodipodi:nodetypes="cccc" />
    <path
       style="fill:#ececec;fill-rule:evenodd;stroke:#000000;stroke-width:5;stroke-linecap:butt;stroke-linejoin:miter;stroke-miterlimit:4;stroke-dasharray:none;stroke-opacity:1"
       d="M -77.6,457.36218 L -237.6,457.36218 L -117.6,337.36218 L -77.6,457.36218 z"
       id="path3152"
       sodipodi:nodetypes="cccc" />
    <path
       sodipodi:nodetypes="cccc"
       id="path3154"
       d="M -77.6,457.36218 L 42.4,377.36218 L -117.6,337.36218 L -77.6,457.36218 z"
       style="fill:#ececec;fill-rule:evenodd;stroke:#000000;stroke-width:5;stroke-linecap:butt;stroke-linejoin:miter;stroke-miterlimit:4;stroke-dasharray:none;stroke-opacity:1" />
    <path
       style="fill:#ececec;fill-rule:evenodd;stroke:#000000;stroke-width:5;stroke-linecap:butt;stroke-linejoin:miter;stroke-miterlimit:4;stroke-dasharray:none;stroke-opacity:1"
       d="M -77.6,257.36218 L 42.4,377.36218 L -117.6,337.36218 L -77.6,257.36218 z"
       id="path3156"
       sodipodi:nodetypes="cccc" />
    <path
       sodipodi:nodetypes="cccc"
       id="path3158"
       d="M -77.6,257.36218 L 42.4,377.36218 L 82.4,137.36218 L -77.6,257.36218 z"
       style="fill:#ececec;fill-rule:evenodd;stroke:#000000;stroke-width:5;stroke-linecap:butt;stroke-linejoin:miter;stroke-miterlimit:4;stroke-dasharray:none;stroke-opacity:1" />
    <path
       style="fill:#ececec;fill-rule:evenodd;stroke:#000000;stroke-width:5;stroke-linecap:butt;stroke-linejoin:miter;stroke-miterlimit:4;stroke-dasharray:none;stroke-opacity:1"
       d="M -77.6,457.36218 L 42.4,377.36218 L -37.6,577.36218 L -77.6,457.36218 z"
       id="path3160"
       sodipodi:nodetypes="cccc" />
    <path
       sodipodi:nodetypes="cccc"
       id="path3162"
       d="M 162.4,457.36218 L 42.4,377.36218 L -37.6,577.36218 L 162.4,457.36218 z"
       style="fill:#ececec;fill-rule:evenodd;stroke:#000000;stroke-width:5;stroke-linecap:butt;stroke-linejoin:miter;stroke-miterlimit:4;stroke-dasharray:none;stroke-opacity:1" />
    <path
       style="fill:#ececec;fill-rule:evenodd;stroke:#000000;stroke-width:5;stroke-linecap:butt;stroke-linejoin:miter;stroke-miterlimit:4;stroke-dasharray:none;stroke-opacity:1"
       d="M 162.4,457.36218 L 42.4,377.36218 L 202.4,257.36218 L 162.4,457.36218 z"
       id="path3164"
       sodipodi:nodetypes="cccc" />
    <path
       sodipodi:nodetypes="cccc"
       id="path3166"
       d="M 82.4,137.36218 L 42.4,377.36218 L 202.4,257.36218 L 82.4,137.36218 z"
       style="fill:#ececec;fill-rule:evenodd;stroke:#000000;stroke-width:5;stroke-linecap:butt;stroke-linejoin:miter;stroke-miterlimit:4;stroke-dasharray:none;stroke-opacity:1" />
    <path
       sodipodi:type="arc"
       style="fill:none;fill-opacity:1;stroke:#000000;stroke-width:5;stroke-linecap:butt;stroke-linejoin:bevel;stroke-miterlimit:4;stroke-dasharray:none;stroke-dashoffset:0;stroke-opacity:1"
       id="path4139"
       sodipodi:cx="-240"
       sodipodi:cy="132.36218"
       sodipodi:rx="80"
       sodipodi:ry="80"
       d="M -160,132.36218 A 80,80 0 1 1 -320,132.36218 A 80,80 0 1 1 -160,132.36218 z"
       transform="translate(-158.8,6.200001)" />
    <path
       sodipodi:type="arc"
       style="fill:none;fill-opacity:1;stroke:#000000;stroke-width:5;stroke-linecap:butt;stroke-linejoin:bevel;stroke-miterlimit:4;stroke-dasharray:none;stroke-dashoffset:0;stroke-opacity:1"
       id="path4141"
       sodipodi:cx="-200"
       sodipodi:cy="452.36218"
       sodipodi:rx="80"
       sodipodi:ry="80"
       d="M -120,452.36218 A 80,80 0 1 1 -280,452.36218 A 80,80 0 1 1 -120,452.36218 z"
       transform="translate(-238.8,-33.799999)" />
    <path
       sodipodi:type="arc"
       style="fill:none;fill-opacity:1;stroke:#000000;stroke-width:5;stroke-linecap:butt;stroke-linejoin:bevel;stroke-miterlimit:4;stroke-dasharray:none;stroke-dashoffset:0;stroke-opacity:1"
       id="path4143"
       sodipodi:cx="160"
       sodipodi:cy="-147.63782"
       sodipodi:rx="80"
       sodipodi:ry="80"
       d="M 240,-147.63782 A 80,80 0 1 1 80,-147.63782 A 80,80 0 1 1 240,-147.63782 z"
       transform="translate(-276.4,203.8)" />
    <path
       transform="translate(321.2,6.200001)"
       d="M -160,132.36218 A 80,80 0 1 1 -320,132.36218 A 80,80 0 1 1 -160,132.36218 z"
       sodipodi:ry="80"
       sodipodi:rx="80"
       sodipodi:cy="132.36218"
       sodipodi:cx="-240"
       id="path4145"
       style="fill:none;fill-opacity:1;stroke:#000000;stroke-width:5;stroke-linecap:butt;stroke-linejoin:bevel;stroke-miterlimit:4;stroke-dasharray:none;stroke-dashoffset:0;stroke-opacity:1"
       sodipodi:type="arc" />
    <path
       sodipodi:type="arc"
       style="fill:none;fill-opacity:1;stroke:#000000;stroke-width:5;stroke-linecap:butt;stroke-linejoin:bevel;stroke-miterlimit:4;stroke-dasharray:none;stroke-dashoffset:0;stroke-opacity:1"
       id="path4149"
       sodipodi:cx="-500"
       sodipodi:cy="352.36218"
       sodipodi:rx="60"
       sodipodi:ry="60"
       d="M -440,352.36218 A 60,60 0 1 1 -560,352.36218 A 60,60 0 1 1 -440,352.36218 z"
       transform="translate(262.4,105)" />
    <path
       transform="translate(422.4,105)"
       d="M -440,352.36218 A 60,60 0 1 1 -560,352.36218 A 60,60 0 1 1 -440,352.36218 z"
       sodipodi:ry="60"
       sodipodi:rx="60"
       sodipodi:cy="352.36218"
       sodipodi:cx="-500"
       id="path4151"
       style="fill:none;fill-opacity:1;stroke:#000000;stroke-width:5;stroke-linecap:butt;stroke-linejoin:bevel;stroke-miterlimit:4;stroke-dasharray:none;stroke-dashoffset:0;stroke-opacity:1"
       sodipodi:type="arc" />
    <path
       sodipodi:type="arc"
       style="fill:none;fill-opacity:1;stroke:#000000;stroke-width:5;stroke-linecap:butt;stroke-linejoin:bevel;stroke-miterlimit:4;stroke-dasharray:none;stroke-dashoffset:0;stroke-opacity:1"
       id="path4153"
       sodipodi:cx="-500"
       sodipodi:cy="352.36218"
       sodipodi:rx="60"
       sodipodi:ry="60"
       d="M -440,352.36218 A 60,60 0 1 1 -560,352.36218 A 60,60 0 1 1 -440,352.36218 z"
       transform="translate(262.4,-94.999999)" />
    <path
       transform="translate(542.4,25.000001)"
       d="M -440,352.36218 A 60,60 0 1 1 -560,352.36218 A 60,60 0 1 1 -440,352.36218 z"
       sodipodi:ry="60"
       sodipodi:rx="60"
       sodipodi:cy="352.36218"
       sodipodi:cx="-500"
       id="path4155"
       style="fill:none;fill-opacity:1;stroke:#000000;stroke-width:5;stroke-linecap:butt;stroke-linejoin:bevel;stroke-miterlimit:4;stroke-dasharray:none;stroke-dashoffset:0;stroke-opacity:1"
       sodipodi:type="arc" />
    <path
       sodipodi:type="arc"
       style="fill:none;fill-opacity:1;stroke:#000000;stroke-width:5;stroke-linecap:butt;stroke-linejoin:bevel;stroke-miterlimit:4;stroke-dasharray:none;stroke-dashoffset:0;stroke-opacity:1"
       id="path4157"
       sodipodi:cx="-520"
       sodipodi:cy="332.36218"
       sodipodi:rx="40"
       sodipodi:ry="40"
       d="M -480,332.36218 A 40,40 0 1 1 -560,332.36218 A 40,40 0 1 1 -480,332.36218 z"
       transform="translate(401.2,6.200001)" />
    <path
       transform="translate(441.2,-73.799999)"
       d="M -480,332.36218 A 40,40 0 1 1 -560,332.36218 A 40,40 0 1 1 -480,332.36218 z"
       sodipodi:ry="40"
       sodipodi:rx="40"
       sodipodi:cy="332.36218"
       sodipodi:cx="-520"
       id="path4159"
       style="fill:none;fill-opacity:1;stroke:#000000;stroke-width:5;stroke-linecap:butt;stroke-linejoin:bevel;stroke-miterlimit:4;stroke-dasharray:none;stroke-dashoffset:0;stroke-opacity:1"
       sodipodi:type="arc" />
    <path
       sodipodi:type="arc"
       style="fill:none;fill-opacity:1;stroke:#000000;stroke-width:5;stroke-linecap:butt;stroke-linejoin:bevel;stroke-miterlimit:4;stroke-dasharray:none;stroke-dashoffset:0;stroke-opacity:1"
       id="path4161"
       sodipodi:cx="-500"
       sodipodi:cy="352.36218"
       sodipodi:rx="60"
       sodipodi:ry="60"
       d="M -440,352.36218 A 60,60 0 1 1 -560,352.36218 A 60,60 0 1 1 -440,352.36218 z"
       transform="translate(662.4,105)" />
    <path
       transform="translate(462.4,225)"
       d="M -440,352.36218 A 60,60 0 1 1 -560,352.36218 A 60,60 0 1 1 -440,352.36218 z"
       sodipodi:ry="60"
       sodipodi:rx="60"
       sodipodi:cy="352.36218"
       sodipodi:cx="-500"
       id="path4163"
       style="fill:none;fill-opacity:1;stroke:#000000;stroke-width:5;stroke-linecap:butt;stroke-linejoin:bevel;stroke-miterlimit:4;stroke-dasharray:none;stroke-dashoffset:0;stroke-opacity:1"
       sodipodi:type="arc" />
    <path
       sodipodi:type="arc"
       style="fill:none;fill-opacity:1;stroke:#000000;stroke-width:5;stroke-linecap:butt;stroke-linejoin:bevel;stroke-miterlimit:4;stroke-dasharray:none;stroke-dashoffset:0;stroke-opacity:1"
       id="path4165"
       sodipodi:cx="-500"
       sodipodi:cy="352.36218"
       sodipodi:rx="60"
       sodipodi:ry="60"
       d="M -440,352.36218 A 60,60 0 1 1 -560,352.36218 A 60,60 0 1 1 -440,352.36218 z"
       transform="translate(262.4,265)" />
    <path
       transform="translate(702.4,-94.999999)"
       d="M -440,352.36218 A 60,60 0 1 1 -560,352.36218 A 60,60 0 1 1 -440,352.36218 z"
       sodipodi:ry="60"
       sodipodi:rx="60"
       sodipodi:cy="352.36218"
       sodipodi:cx="-500"
       id="path4167"
       style="fill:none;fill-opacity:1;stroke:#000000;stroke-width:5;stroke-linecap:butt;stroke-linejoin:bevel;stroke-miterlimit:4;stroke-dasharray:none;stroke-dashoffset:0;stroke-opacity:1"
       sodipodi:type="arc" />
    <path
       sodipodi:nodetypes="cccc"
       id="path4169"
       d="M 843.69999,462.36218 L 883.69999,582.36218 L 683.69999,622.36218 L 843.69999,462.36218 z"
       style="fill:#ececec;fill-rule:evenodd;stroke:#000000;stroke-width:5;stroke-linecap:butt;stroke-linejoin:miter;stroke-miterlimit:4;stroke-dasharray:none;stroke-opacity:1" />
    <path
       sodipodi:nodetypes="cccc"
       style="fill:#ececec;fill-rule:evenodd;stroke:#000000;stroke-width:5;stroke-linecap:butt;stroke-linejoin:miter;stroke-miterlimit:4;stroke-dasharray:none;stroke-opacity:1"
       d="M 683.69999,462.36218 L 483.69999,422.36218 L 683.69999,622.36218 L 683.69999,462.36218 z"
       id="path4171" />
    <path
       id="path4173"
       d="M 683.69999,262.36218 L 483.69999,422.36218 L 523.69999,142.36218 L 683.69999,262.36218 z"
       style="fill:#ececec;fill-rule:evenodd;stroke:#000000;stroke-width:5;stroke-linecap:butt;stroke-linejoin:miter;stroke-miterlimit:4;stroke-dasharray:none;stroke-opacity:1"
       sodipodi:nodetypes="cccc" />
    <path
       sodipodi:nodetypes="cccc"
       style="fill:#ececec;fill-rule:evenodd;stroke:#000000;stroke-width:5;stroke-linecap:butt;stroke-linejoin:miter;stroke-miterlimit:4;stroke-dasharray:none;stroke-opacity:1"
       d="M 683.69999,262.36218 L 803.69999,62.362183 L 523.69999,142.36218 L 683.69999,262.36218 z"
       id="path4175" />
    <path
       id="path4177"
       d="M 843.69999,262.36218 L 803.69999,62.362183 L 1003.7,142.36218 L 843.69999,262.36218 z"
       style="fill:#ececec;fill-rule:evenodd;stroke:#000000;stroke-width:5;stroke-linecap:butt;stroke-linejoin:miter;stroke-miterlimit:4;stroke-dasharray:none;stroke-opacity:1"
       sodipodi:nodetypes="cccc" />
    <path
       style="fill:#ececec;fill-rule:evenodd;stroke:#000000;stroke-width:5;stroke-linecap:butt;stroke-linejoin:miter;stroke-miterlimit:4;stroke-dasharray:none;stroke-opacity:1"
       d="M 683.69999,262.36218 L 843.69999,262.36218 L 803.69999,62.362183 L 683.69999,262.36218 z"
       id="path4179"
       sodipodi:nodetypes="cccc" />
    <path
       sodipodi:nodetypes="cccc"
       id="path4181"
       d="M 683.69999,262.36218 L 843.69999,262.36218 L 803.69999,342.36218 L 683.69999,262.36218 z"
       style="fill:#ececec;fill-rule:evenodd;stroke:#000000;stroke-width:5;stroke-linecap:butt;stroke-linejoin:miter;stroke-miterlimit:4;stroke-dasharray:none;stroke-opacity:1" />
    <path
       style="fill:#ececec;fill-rule:evenodd;stroke:#000000;stroke-width:5;stroke-linecap:butt;stroke-linejoin:miter;stroke-miterlimit:4;stroke-dasharray:none;stroke-opacity:1"
       d="M 843.69999,462.36218 L 683.69999,462.36218 L 683.69999,622.36218 L 843.69999,462.36218 z"
       id="path4183"
       sodipodi:nodetypes="cccc" />
    <path
       id="path4185"
       d="M 683.69999,462.36218 L 483.69999,422.36218 L 683.69999,262.36218 L 683.69999,462.36218 z"
       style="fill:#ececec;fill-rule:evenodd;stroke:#000000;stroke-width:5;stroke-linecap:butt;stroke-linejoin:miter;stroke-miterlimit:4;stroke-dasharray:none;stroke-opacity:1"
       sodipodi:nodetypes="cccc" />
    <path
       sodipodi:nodetypes="cccc"
       style="fill:#ececec;fill-rule:evenodd;stroke:#000000;stroke-width:5;stroke-linecap:butt;stroke-linejoin:miter;stroke-miterlimit:4;stroke-dasharray:none;stroke-opacity:1"
       d="M 683.69999,462.36218 L 803.69999,342.36218 L 683.69999,262.36218 L 683.69999,462.36218 z"
       id="path4187" />
    <path
       sodipodi:nodetypes="cccc"
       id="path4189"
       d="M 843.69999,462.36218 L 683.69999,462.36218 L 803.69999,342.36218 L 843.69999,462.36218 z"
       style="fill:#ececec;fill-rule:evenodd;stroke:#000000;stroke-width:5;stroke-linecap:butt;stroke-linejoin:miter;stroke-miterlimit:4;stroke-dasharray:none;stroke-opacity:1" />
    <path
       style="fill:#ececec;fill-rule:evenodd;stroke:#000000;stroke-width:5;stroke-linecap:butt;stroke-linejoin:miter;stroke-miterlimit:4;stroke-dasharray:none;stroke-opacity:1"
       d="M 843.69999,462.36218 L 963.69999,382.36218 L 803.69999,342.36218 L 843.69999,462.36218 z"
       id="path4191"
       sodipodi:nodetypes="cccc" />
    <path
       sodipodi:nodetypes="cccc"
       id="path4193"
       d="M 843.69999,262.36218 L 963.69999,382.36218 L 803.69999,342.36218 L 843.69999,262.36218 z"
       style="fill:#ececec;fill-rule:evenodd;stroke:#000000;stroke-width:5;stroke-linecap:butt;stroke-linejoin:miter;stroke-miterlimit:4;stroke-dasharray:none;stroke-opacity:1" />
    <path
       style="fill:#ececec;fill-rule:evenodd;stroke:#000000;stroke-width:5;stroke-linecap:butt;stroke-linejoin:miter;stroke-miterlimit:4;stroke-dasharray:none;stroke-opacity:1"
       d="M 843.69999,262.36218 L 963.69999,382.36218 L 1003.7,142.36218 L 843.69999,262.36218 z"
       id="path4195"
       sodipodi:nodetypes="cccc" />
    <path
       sodipodi:nodetypes="cccc"
       id="path4197"
       d="M 843.69999,462.36218 L 963.69999,382.36218 L 883.69999,582.36218 L 843.69999,462.36218 z"
       style="fill:#ececec;fill-rule:evenodd;stroke:#000000;stroke-width:5;stroke-linecap:butt;stroke-linejoin:miter;stroke-miterlimit:4;stroke-dasharray:none;stroke-opacity:1" />
    <path
       style="fill:#ececec;fill-rule:evenodd;stroke:#000000;stroke-width:5;stroke-linecap:butt;stroke-linejoin:miter;stroke-miterlimit:4;stroke-dasharray:none;stroke-opacity:1"
       d="M 1083.7,462.36218 L 963.69999,382.36218 L 883.69999,582.36218 L 1083.7,462.36218 z"
       id="path4199"
       sodipodi:nodetypes="cccc" />
    <path
       sodipodi:nodetypes="cccc"
       id="path4201"
       d="M 1083.7,462.36218 L 963.69999,382.36218 L 1123.7,262.36218 L 1083.7,462.36218 z"
       style="fill:#ececec;fill-rule:evenodd;stroke:#000000;stroke-width:5;stroke-linecap:butt;stroke-linejoin:miter;stroke-miterlimit:4;stroke-dasharray:none;stroke-opacity:1" />
    <path
       style="fill:#ececec;fill-rule:evenodd;stroke:#000000;stroke-width:5;stroke-linecap:butt;stroke-linejoin:miter;stroke-miterlimit:4;stroke-dasharray:none;stroke-opacity:1"
       d="M 1003.7,142.36218 L 963.69999,382.36218 L 1123.7,262.36218 L 1003.7,142.36218 z"
       id="path4203"
       sodipodi:nodetypes="cccc" />
    <path
       transform="matrix(1.5,0,0,1.5,882.49999,-54.981091)"
       d="M -160,132.36218 A 80,80 0 1 1 -320,132.36218 A 80,80 0 1 1 -160,132.36218 z"
       sodipodi:ry="80"
       sodipodi:rx="80"
       sodipodi:cy="132.36218"
       sodipodi:cx="-240"
       id="path4205"
       style="fill:none;fill-opacity:1;stroke:#000000;stroke-width:3.33333333;stroke-linecap:butt;stroke-linejoin:bevel;stroke-miterlimit:4;stroke-dasharray:none;stroke-dashoffset:0;stroke-opacity:1"
       sodipodi:type="arc" />
    <path
       transform="matrix(1.5,0,0,1.5,782.49999,-254.98109)"
       d="M -120,452.36218 A 80,80 0 1 1 -280,452.36218 A 80,80 0 1 1 -120,452.36218 z"
       sodipodi:ry="80"
       sodipodi:rx="80"
       sodipodi:cy="452.36218"
       sodipodi:cx="-200"
       id="path4207"
       style="fill:none;fill-opacity:1;stroke:#000000;stroke-width:3.33333333;stroke-linecap:butt;stroke-linejoin:bevel;stroke-miterlimit:4;stroke-dasharray:none;stroke-dashoffset:0;stroke-opacity:1"
       sodipodi:type="arc" />
    <path
       transform="matrix(1.5,0,0,1.5,564.89999,282.61891)"
       d="M 240,-147.63782 A 80,80 0 1 1 80,-147.63782 A 80,80 0 1 1 240,-147.63782 z"
       sodipodi:ry="80"
       sodipodi:rx="80"
       sodipodi:cy="-147.63782"
       sodipodi:cx="160"
       id="path4209"
       style="fill:none;fill-opacity:1;stroke:#000000;stroke-width:3.33333333;stroke-linecap:butt;stroke-linejoin:bevel;stroke-miterlimit:4;stroke-dasharray:none;stroke-dashoffset:0;stroke-opacity:1"
       sodipodi:type="arc" />
    <path
       sodipodi:type="arc"
       style="fill:none;fill-opacity:1;stroke:#ff0000;stroke-width:3.33333333;stroke-linecap:butt;stroke-linejoin:bevel;stroke-miterlimit:4;stroke-dasharray:none;stroke-dashoffset:0;stroke-opacity:1"
       id="path4211"
       sodipodi:cx="-240"
       sodipodi:cy="132.36218"
       sodipodi:rx="80"
       sodipodi:ry="80"
       d="M -160,132.36218 A 80,80 0 1 1 -320,132.36218 A 80,80 0 1 1 -160,132.36218 z"
       transform="matrix(1.5,0,0,1.5,1362.5,-54.981091)" />
    <path
       transform="matrix(1.5,0,0,1.5,1433.7,-66.181091)"
       d="M -440,352.36218 A 60,60 0 1 1 -560,352.36218 A 60,60 0 1 1 -440,352.36218 z"
       sodipodi:ry="60"
       sodipodi:rx="60"
       sodipodi:cy="352.36218"
       sodipodi:cx="-500"
       id="path4213"
       style="fill:none;fill-opacity:1;stroke:#ff0000;stroke-width:3.33333333;stroke-linecap:butt;stroke-linejoin:bevel;stroke-miterlimit:4;stroke-dasharray:none;stroke-dashoffset:0;stroke-opacity:1"
       sodipodi:type="arc" />
    <path
       sodipodi:type="arc"
       style="fill:none;fill-opacity:1;stroke:#ff0000;stroke-width:3.33333333;stroke-linecap:butt;stroke-linejoin:bevel;stroke-miterlimit:4;stroke-dasharray:none;stroke-dashoffset:0;stroke-opacity:1"
       id="path4215"
       sodipodi:cx="-500"
       sodipodi:cy="352.36218"
       sodipodi:rx="60"
       sodipodi:ry="60"
       d="M -440,352.36218 A 60,60 0 1 1 -560,352.36218 A 60,60 0 1 1 -440,352.36218 z"
       transform="matrix(1.5,0,0,1.5,1593.7,-66.181091)" />
    <path
       transform="matrix(1.5,0,0,1.5,1433.7,-266.18109)"
       d="M -440,352.36218 A 60,60 0 1 1 -560,352.36218 A 60,60 0 1 1 -440,352.36218 z"
       sodipodi:ry="60"
       sodipodi:rx="60"
       sodipodi:cy="352.36218"
       sodipodi:cx="-500"
       id="path4217"
       style="fill:none;fill-opacity:1;stroke:#ff0000;stroke-width:3.33333333;stroke-linecap:butt;stroke-linejoin:bevel;stroke-miterlimit:4;stroke-dasharray:none;stroke-dashoffset:0;stroke-opacity:1"
       sodipodi:type="arc" />
    <path
       sodipodi:type="arc"
       style="fill:none;fill-opacity:1;stroke:#ff0000;stroke-width:3.33333333;stroke-linecap:butt;stroke-linejoin:bevel;stroke-miterlimit:4;stroke-dasharray:none;stroke-dashoffset:0;stroke-opacity:1"
       id="path4219"
       sodipodi:cx="-500"
       sodipodi:cy="352.36218"
       sodipodi:rx="60"
       sodipodi:ry="60"
       d="M -440,352.36218 A 60,60 0 1 1 -560,352.36218 A 60,60 0 1 1 -440,352.36218 z"
       transform="matrix(1.5,0,0,1.5,1713.7,-146.18109)" />
    <path
       transform="matrix(1.5,0,0,1.5,1582.5,-154.98109)"
       d="M -480,332.36218 A 40,40 0 1 1 -560,332.36218 A 40,40 0 1 1 -480,332.36218 z"
       sodipodi:ry="40"
       sodipodi:rx="40"
       sodipodi:cy="332.36218"
       sodipodi:cx="-520"
       id="path4221"
       style="fill:none;fill-opacity:1;stroke:#000000;stroke-width:3.33333333;stroke-linecap:butt;stroke-linejoin:bevel;stroke-miterlimit:4;stroke-dasharray:none;stroke-dashoffset:0;stroke-opacity:1"
       sodipodi:type="arc" />
    <path
       sodipodi:type="arc"
       style="fill:none;fill-opacity:1;stroke:#ff0000;stroke-width:3.33333333;stroke-linecap:butt;stroke-linejoin:bevel;stroke-miterlimit:4;stroke-dasharray:none;stroke-dashoffset:0;stroke-opacity:1"
       id="path4223"
       sodipodi:cx="-520"
       sodipodi:cy="332.36218"
       sodipodi:rx="40"
       sodipodi:ry="40"
       d="M -480,332.36218 A 40,40 0 1 1 -560,332.36218 A 40,40 0 1 1 -480,332.36218 z"
       transform="matrix(1.5,0,0,1.5,1622.5,-234.98109)" />
    <path
       transform="matrix(1.5,0,0,1.5,1833.7,-66.181091)"
       d="M -440,352.36218 A 60,60 0 1 1 -560,352.36218 A 60,60 0 1 1 -440,352.36218 z"
       sodipodi:ry="60"
       sodipodi:rx="60"
       sodipodi:cy="352.36218"
       sodipodi:cx="-500"
       id="path4225"
       style="fill:none;fill-opacity:1;stroke:#000000;stroke-width:3.33333333;stroke-linecap:butt;stroke-linejoin:bevel;stroke-miterlimit:4;stroke-dasharray:none;stroke-dashoffset:0;stroke-opacity:1"
       sodipodi:type="arc" />
    <path
       sodipodi:type="arc"
       style="fill:none;fill-opacity:1;stroke:#000000;stroke-width:3.33333333;stroke-linecap:butt;stroke-linejoin:bevel;stroke-miterlimit:4;stroke-dasharray:none;stroke-dashoffset:0;stroke-opacity:1"
       id="path4227"
       sodipodi:cx="-500"
       sodipodi:cy="352.36218"
       sodipodi:rx="60"
       sodipodi:ry="60"
       d="M -440,352.36218 A 60,60 0 1 1 -560,352.36218 A 60,60 0 1 1 -440,352.36218 z"
       transform="matrix(1.5,0,0,1.5,1633.7,53.818909)" />
    <path
       transform="matrix(1.5,0,0,1.5,1433.7,93.81891)"
       d="M -440,352.36218 A 60,60 0 1 1 -560,352.36218 A 60,60 0 1 1 -440,352.36218 z"
       sodipodi:ry="60"
       sodipodi:rx="60"
       sodipodi:cy="352.36218"
       sodipodi:cx="-500"
       id="path4229"
       style="fill:none;fill-opacity:1;stroke:#000000;stroke-width:3.33333333;stroke-linecap:butt;stroke-linejoin:bevel;stroke-miterlimit:4;stroke-dasharray:none;stroke-dashoffset:0;stroke-opacity:1"
       sodipodi:type="arc" />
    <path
       sodipodi:type="arc"
       style="fill:none;fill-opacity:1;stroke:#000000;stroke-width:3.33333333;stroke-linecap:butt;stroke-linejoin:bevel;stroke-miterlimit:4;stroke-dasharray:none;stroke-dashoffset:0;stroke-opacity:1"
       id="path4231"
       sodipodi:cx="-500"
       sodipodi:cy="352.36218"
       sodipodi:rx="60"
       sodipodi:ry="60"
       d="M -440,352.36218 A 60,60 0 1 1 -560,352.36218 A 60,60 0 1 1 -440,352.36218 z"
       transform="matrix(1.5,0,0,1.5,1873.7,-266.18109)" />
    <path
       style="fill:#ececec;fill-rule:evenodd;stroke:#000000;stroke-width:5;stroke-linecap:butt;stroke-linejoin:miter;stroke-miterlimit:4;stroke-dasharray:none;stroke-opacity:1"
       d="M 1720,341.16218 L 1800,582.36218 L 1600,622.36218 L 1720,341.16218 z"
       id="path5202"
       sodipodi:nodetypes="cccc" />
    <path
       id="path5204"
       d="M 1720,341.16218 L 1400,422.36218 L 1600,622.36218 L 1720,341.16218 z"
       style="fill:#ececec;fill-rule:evenodd;stroke:#000000;stroke-width:5;stroke-linecap:butt;stroke-linejoin:miter;stroke-miterlimit:4;stroke-dasharray:none;stroke-opacity:1"
       sodipodi:nodetypes="cccc" />
    <path
       sodipodi:nodetypes="cccc"
       style="fill:#ececec;fill-rule:evenodd;stroke:#000000;stroke-width:5;stroke-linecap:butt;stroke-linejoin:miter;stroke-miterlimit:4;stroke-dasharray:none;stroke-opacity:1"
       d="M 1720,341.16218 L 1400,422.36218 L 1440,142.36218 L 1720,341.16218 z"
       id="path5206" />
    <path
       id="path5208"
       d="M 1720,341.16218 L 1720,62.362181 L 1440,142.36218 L 1720,341.16218 z"
       style="fill:#ececec;fill-rule:evenodd;stroke:#000000;stroke-width:5;stroke-linecap:butt;stroke-linejoin:miter;stroke-miterlimit:4;stroke-dasharray:none;stroke-opacity:1"
       sodipodi:nodetypes="cccc" />
    <path
       sodipodi:nodetypes="cccc"
       id="path5232"
       d="M 2000,462.36218 L 1720,341.16218 L 1800,582.36218 L 2000,462.36218 z"
       style="fill:#ececec;fill-rule:evenodd;stroke:#000000;stroke-width:5;stroke-linecap:butt;stroke-linejoin:miter;stroke-miterlimit:4;stroke-dasharray:none;stroke-opacity:1" />
    <path
       style="fill:#ececec;fill-rule:evenodd;stroke:#000000;stroke-width:5;stroke-linecap:butt;stroke-linejoin:miter;stroke-miterlimit:4;stroke-dasharray:none;stroke-opacity:1"
       d="M 2000,462.36218 L 1720,341.16218 L 2040,262.36218 L 2000,462.36218 z"
       id="path5234"
       sodipodi:nodetypes="cccc" />
    <path
       sodipodi:nodetypes="cccc"
       id="path5236"
       d="M 1720,61.162184 L 1720,341.16218 L 2040,262.36218 L 1720,61.162184 z"
       style="fill:#ececec;fill-rule:evenodd;stroke:#000000;stroke-width:5;stroke-linecap:butt;stroke-linejoin:miter;stroke-miterlimit:4;stroke-dasharray:none;stroke-opacity:1" />
    <path
       sodipodi:type="arc"
       style="fill:none;fill-opacity:1;stroke:#000000;stroke-width:3.33333333;stroke-linecap:butt;stroke-linejoin:bevel;stroke-miterlimit:4;stroke-dasharray:none;stroke-dashoffset:0;stroke-opacity:1"
       id="path5238"
       sodipodi:cx="-240"
       sodipodi:cy="132.36218"
       sodipodi:rx="80"
       sodipodi:ry="80"
       d="M -160,132.36218 A 80,80 0 1 1 -320,132.36218 A 80,80 0 1 1 -160,132.36218 z"
       transform="matrix(1.5,0,0,1.5,1798.8,-54.981093)" />
    <path
       sodipodi:type="arc"
       style="fill:none;fill-opacity:1;stroke:#000000;stroke-width:3.33333333;stroke-linecap:butt;stroke-linejoin:bevel;stroke-miterlimit:4;stroke-dasharray:none;stroke-dashoffset:0;stroke-opacity:1"
       id="path5240"
       sodipodi:cx="-200"
       sodipodi:cy="452.36218"
       sodipodi:rx="80"
       sodipodi:ry="80"
       d="M -120,452.36218 A 80,80 0 1 1 -280,452.36218 A 80,80 0 1 1 -120,452.36218 z"
       transform="matrix(1.5,0,0,1.5,1698.8,-254.98109)" />
    <path
       sodipodi:type="arc"
       style="fill:none;fill-opacity:1;stroke:#000000;stroke-width:3.33333333;stroke-linecap:butt;stroke-linejoin:bevel;stroke-miterlimit:4;stroke-dasharray:none;stroke-dashoffset:0;stroke-opacity:1"
       id="path5242"
       sodipodi:cx="160"
       sodipodi:cy="-147.63782"
       sodipodi:rx="80"
       sodipodi:ry="80"
       d="M 240,-147.63782 A 80,80 0 1 1 80,-147.63782 A 80,80 0 1 1 240,-147.63782 z"
       transform="matrix(1.5,0,0,1.5,1481.2,282.61891)" />
    <path
       sodipodi:type="arc"
       style="fill:none;fill-opacity:1;stroke:#000000;stroke-width:3.33333333;stroke-linecap:butt;stroke-linejoin:bevel;stroke-miterlimit:4;stroke-dasharray:none;stroke-dashoffset:0;stroke-opacity:1"
       id="path5254"
       sodipodi:cx="-520"
       sodipodi:cy="332.36218"
       sodipodi:rx="40"
       sodipodi:ry="40"
       d="M -480,332.36218 A 40,40 0 1 1 -560,332.36218 A 40,40 0 1 1 -480,332.36218 z"
       transform="matrix(1.5,0,0,1.5,2498.8,-154.98109)" />
    <path
       sodipodi:type="arc"
       style="fill:none;fill-opacity:1;stroke:#000000;stroke-width:3.33333333;stroke-linecap:butt;stroke-linejoin:bevel;stroke-miterlimit:4;stroke-dasharray:none;stroke-dashoffset:0;stroke-opacity:1"
       id="path5258"
       sodipodi:cx="-500"
       sodipodi:cy="352.36218"
       sodipodi:rx="60"
       sodipodi:ry="60"
       d="M -440,352.36218 A 60,60 0 1 1 -560,352.36218 A 60,60 0 1 1 -440,352.36218 z"
       transform="matrix(1.5,0,0,1.5,2750,-66.181093)" />
    <path
       transform="matrix(1.5,0,0,1.5,2550,53.818907)"
       d="M -440,352.36218 A 60,60 0 1 1 -560,352.36218 A 60,60 0 1 1 -440,352.36218 z"
       sodipodi:ry="60"
       sodipodi:rx="60"
       sodipodi:cy="352.36218"
       sodipodi:cx="-500"
       id="path5260"
       style="fill:none;fill-opacity:1;stroke:#000000;stroke-width:3.33333333;stroke-linecap:butt;stroke-linejoin:bevel;stroke-miterlimit:4;stroke-dasharray:none;stroke-dashoffset:0;stroke-opacity:1"
       sodipodi:type="arc" />
    <path
       sodipodi:type="arc"
       style="fill:none;fill-opacity:1;stroke:#000000;stroke-width:3.33333333;stroke-linecap:butt;stroke-linejoin:bevel;stroke-miterlimit:4;stroke-dasharray:none;stroke-dashoffset:0;stroke-opacity:1"
       id="path5262"
       sodipodi:cx="-500"
       sodipodi:cy="352.36218"
       sodipodi:rx="60"
       sodipodi:ry="60"
       d="M -440,352.36218 A 60,60 0 1 1 -560,352.36218 A 60,60 0 1 1 -440,352.36218 z"
       transform="matrix(1.5,0,0,1.5,2350,93.818909)" />
    <path
       transform="matrix(1.5,0,0,1.5,2790,-266.18109)"
       d="M -440,352.36218 A 60,60 0 1 1 -560,352.36218 A 60,60 0 1 1 -440,352.36218 z"
       sodipodi:ry="60"
       sodipodi:rx="60"
       sodipodi:cy="352.36218"
       sodipodi:cx="-500"
       id="path5264"
       style="fill:none;fill-opacity:1;stroke:#000000;stroke-width:3.33333333;stroke-linecap:butt;stroke-linejoin:bevel;stroke-miterlimit:4;stroke-dasharray:none;stroke-dashoffset:0;stroke-opacity:1"
       sodipodi:type="arc" />
  </g>
</svg>
