<?xml version="1.0" encoding="UTF-8" standalone="no"?>
<!-- Created with Inkscape (http://www.inkscape.org/) -->
<svg
   xmlns:dc="http://purl.org/dc/elements/1.1/"
   xmlns:cc="http://web.resource.org/cc/"
   xmlns:rdf="http://www.w3.org/1999/02/22-rdf-syntax-ns#"
   xmlns:svg="http://www.w3.org/2000/svg"
   xmlns="http://www.w3.org/2000/svg"
   xmlns:sodipodi="http://sodipodi.sourceforge.net/DTD/sodipodi-0.dtd"
   xmlns:inkscape="http://www.inkscape.org/namespaces/inkscape"
   width="1052.3622"
   height="744.09448"
   id="svg2"
   sodipodi:version="0.32"
   inkscape:version="0.45.1"
   version="1.0"
   sodipodi:docbase="/Users/aterrel/Research/Kansas/Seminar"
   sodipodi:docname="FEM.svg"
   inkscape:output_extension="org.inkscape.output.svg.inkscape"
   inkscape:export-filename="/Users/aterrel/Research/Kansas/Seminar/PnPFEM.png"
   inkscape:export-xdpi="90"
   inkscape:export-ydpi="90">
  <defs
     id="defs4" />
  <sodipodi:namedview
     id="base"
     pagecolor="#ffffff"
     bordercolor="#666666"
     borderopacity="1.0"
     gridtolerance="10000"
     guidetolerance="10"
     objecttolerance="10"
     inkscape:pageopacity="0.0"
     inkscape:pageshadow="2"
     inkscape:zoom="1.0610016"
     inkscape:cx="491.5603"
     inkscape:cy="360.1197"
     inkscape:document-units="px"
     inkscape:current-layer="layer1"
     width="1052.3622px"
     height="744.09448px"
     showgrid="true"
     inkscape:window-width="1278"
     inkscape:window-height="752"
     inkscape:window-x="1"
     inkscape:window-y="22"
     showguides="true"
     inkscape:guide-bbox="true" />
  <metadata
     id="metadata7">
    <rdf:RDF>
      <cc:Work
         rdf:about="">
        <dc:format>image/svg+xml</dc:format>
        <dc:type
           rdf:resource="http://purl.org/dc/dcmitype/StillImage" />
      </cc:Work>
    </rdf:RDF>
  </metadata>
  <g
     inkscape:label="Layer 1"
     inkscape:groupmode="layer"
     id="layer1">
    <rect
       style="fill:#ff5555;fill-opacity:1;stroke:#800000;stroke-width:2;stroke-miterlimit:4;stroke-dasharray:none;stroke-opacity:1"
       id="rect3038"
       width="411.06403"
       height="379.45367"
       x="260"
       y="144.09448"
       rx="9.5304289"
       ry="9.010005" />
    <text
       xml:space="preserve"
       style="font-size:18px;font-style:normal;font-variant:normal;font-weight:normal;font-stretch:normal;text-align:start;line-height:125%;writing-mode:lr-tb;text-anchor:start;fill:#000000;fill-opacity:1;stroke:none;stroke-width:1px;stroke-linecap:butt;stroke-linejoin:miter;stroke-opacity:1;font-family:Bitstream Vera Sans"
       x="537.7334"
       y="437.16"
       id="text8059"
       sodipodi:linespacing="125%"><tspan
         sodipodi:role="line"
         id="tspan8061"
         x="537.7334"
         y="437.16">-Δu + ∇p = f</tspan><tspan
         sodipodi:role="line"
         x="537.7334"
         y="460.73256"
         id="tspan9048">      ∇⋅u=0</tspan></text>
    <text
       xml:space="preserve"
       style="font-size:12px;font-style:normal;font-weight:normal;fill:#000000;fill-opacity:1;stroke:none;stroke-width:1px;stroke-linecap:butt;stroke-linejoin:miter;stroke-opacity:1;font-family:Bitstream Vera Sans"
       x="307.25684"
       y="453.80273"
       id="text9050"
       sodipodi:linespacing="125%"><tspan
         sodipodi:role="line"
         id="tspan9052"
         x="307.25684"
         y="453.80273"
         style="font-family:Bitstream Vera Sans;font-weight:normal;font-style:normal;font-stretch:normal;font-variant:normal;font-size:18px;text-anchor:start;text-align:start;writing-mode:lr;line-height:125%">A x = b</tspan></text>
    <g
       id="g3030"
       transform="translate(0,-174)">
      <path
         transform="translate(-3.230991,-4.804911)"
         d="M 478.79288 419.87253 A 4.2412753 4.7125282 0 1 1  470.31033,419.87253 A 4.2412753 4.7125282 0 1 1  478.79288 419.87253 z"
         sodipodi:ry="4.7125282"
         sodipodi:rx="4.2412753"
         sodipodi:cy="419.87253"
         sodipodi:cx="474.55161"
         id="path8057"
         style="fill:#000000;fill-opacity:1;stroke:#000000;stroke-width:2;stroke-miterlimit:4;stroke-dasharray:none;stroke-opacity:1"
         sodipodi:type="arc" />
      <g
         id="g3024">
        <path
           style="fill:none;fill-rule:evenodd;stroke:#000000;stroke-width:2;stroke-linecap:butt;stroke-linejoin:miter;stroke-miterlimit:4;stroke-dasharray:none;stroke-opacity:1"
           d="M 470,414.09448 C 470,504.09448 470,504.09448 470,504.09448 L 550,504.09448 L 470,414.09448 z "
           id="path7081" />
        <path
           sodipodi:type="arc"
           style="fill:#000000;fill-opacity:1;stroke:#000000;stroke-width:2;stroke-miterlimit:4;stroke-dasharray:none;stroke-opacity:1"
           id="path8052"
           sodipodi:cx="474.55161"
           sodipodi:cy="419.87253"
           sodipodi:rx="4.2412753"
           sodipodi:ry="4.7125282"
           d="M 478.79288 419.87253 A 4.2412753 4.7125282 0 1 1  470.31033,419.87253 A 4.2412753 4.7125282 0 1 1  478.79288 419.87253 z"
           transform="translate(74.769009,83.195089)" />
        <path
           sodipodi:type="arc"
           style="fill:#000000;fill-opacity:1;stroke:#000000;stroke-width:2;stroke-miterlimit:4;stroke-dasharray:none;stroke-opacity:1"
           id="path8055"
           sodipodi:cx="474.55161"
           sodipodi:cy="419.87253"
           sodipodi:rx="4.2412753"
           sodipodi:ry="4.7125282"
           d="M 478.79288 419.87253 A 4.2412753 4.7125282 0 1 1  470.31033,419.87253 A 4.2412753 4.7125282 0 1 1  478.79288 419.87253 z"
           transform="translate(-3.230991,83.195089)" />
        <path
           sodipodi:type="arc"
           style="fill:#000000;fill-opacity:1;stroke:#000000;stroke-width:2;stroke-miterlimit:4;stroke-dasharray:none;stroke-opacity:1"
           id="path9110"
           sodipodi:cx="474.55161"
           sodipodi:cy="419.87253"
           sodipodi:rx="4.2412753"
           sodipodi:ry="4.7125282"
           d="M 478.79288 419.87253 A 4.2412753 4.7125282 0 1 1  470.31033,419.87253 A 4.2412753 4.7125282 0 1 1  478.79288 419.87253 z"
           transform="translate(19.896299,52.827527)" />
      </g>
    </g>
    <rect
       style="fill:#ffff00;fill-opacity:1;stroke:#000000;stroke-width:1.14135122;stroke-miterlimit:4;stroke-dasharray:none;stroke-opacity:1"
       id="rect2547"
       width="48.567413"
       height="25.807178"
       x="605.96088"
       y="482.14771"
       rx="3.6228971"
       ry="4.5022202" />
    <g
       id="g2555"
       transform="translate(0,20)">
      <rect
         ry="4.2614217"
         rx="9.1713772"
         y="463.97784"
         x="289.88336"
         height="24.81423"
         width="105.14312"
         id="rect2545"
         style="fill:#ffff00;fill-opacity:1;stroke:#000000;stroke-width:1.76673925;stroke-miterlimit:4;stroke-dasharray:none;stroke-opacity:1" />
      <text
         id="text2551"
         y="480.1929"
         x="300.6593"
         style="font-size:12px;font-style:normal;font-weight:normal;fill:#000000;fill-opacity:1;stroke:none;stroke-width:1px;stroke-linecap:butt;stroke-linejoin:miter;stroke-opacity:1;font-family:Bitstream Vera Sans"
         xml:space="preserve"><tspan
           y="480.1929"
           x="300.6593"
           id="tspan2553"
           sodipodi:role="line">Linear Algebra</tspan></text>
    </g>
    <text
       xml:space="preserve"
       style="font-size:12px;font-style:normal;font-weight:normal;fill:#000000;fill-opacity:1;stroke:none;stroke-width:1px;stroke-linecap:butt;stroke-linejoin:miter;stroke-opacity:1;font-family:Bitstream Vera Sans"
       x="615.45618"
       y="499.043"
       id="text2560"><tspan
         sodipodi:role="line"
         id="tspan2562"
         x="615.45618"
         y="499.043">PDEs</tspan></text>
    <g
       id="g3001"
       transform="translate(-144,0)">
      <rect
         y="174.09448"
         x="450"
         height="120"
         width="80"
         id="rect9070"
         style="fill:#b3b3b3;fill-opacity:1;stroke:#000000;stroke-width:2;stroke-miterlimit:4;stroke-dasharray:none;stroke-opacity:1" />
      <path
         sodipodi:nodetypes="cc"
         id="path9072"
         d="M 450,194.09448 C 520,194.09448 530.36756,194.09448 530.36756,194.09448"
         style="fill:none;fill-rule:evenodd;stroke:#000000;stroke-width:1px;stroke-linecap:butt;stroke-linejoin:miter;stroke-opacity:1" />
      <path
         sodipodi:nodetypes="cccc"
         id="path9074"
         d="M 450,214.09448 C 520,214.09448 520,214.09448 520,214.09448 L 520,214.09448 L 529.89631,214.09448"
         style="fill:none;fill-rule:evenodd;stroke:#000000;stroke-width:1px;stroke-linecap:butt;stroke-linejoin:miter;stroke-opacity:1" />
      <path
         sodipodi:nodetypes="cc"
         id="path9076"
         d="M 529.89631,234.56573 C 459.89631,234.56573 450,234.09448 450,234.09448"
         style="fill:none;fill-rule:evenodd;stroke:#000000;stroke-width:1px;stroke-linecap:butt;stroke-linejoin:miter;stroke-opacity:1" />
      <path
         sodipodi:nodetypes="cc"
         id="path9078"
         d="M 450,254.09448 C 520,254.09448 529.89631,253.62323 529.89631,253.62323"
         style="fill:none;fill-rule:evenodd;stroke:#000000;stroke-width:1px;stroke-linecap:butt;stroke-linejoin:miter;stroke-opacity:1" />
      <path
         sodipodi:nodetypes="ccc"
         id="path9080"
         d="M 450,274.09448 C 520,274.09448 520,274.09448 520,274.09448 L 530.63068,273.78416"
         style="fill:none;fill-rule:evenodd;stroke:#000000;stroke-width:1px;stroke-linecap:butt;stroke-linejoin:miter;stroke-opacity:1" />
      <path
         id="path9082"
         d="M 470,174.09448 C 470,294.09448 470,294.09448 470,294.09448 L 470,294.09448 L 470,294.09448"
         style="fill:none;fill-rule:evenodd;stroke:#000000;stroke-width:1px;stroke-linecap:butt;stroke-linejoin:miter;stroke-opacity:1" />
      <path
         id="path9084"
         d="M 490,174.09448 C 490,294.09448 490,294.09448 490,294.09448"
         style="fill:none;fill-rule:evenodd;stroke:#000000;stroke-width:1px;stroke-linecap:butt;stroke-linejoin:miter;stroke-opacity:1" />
      <path
         id="path9086"
         d="M 510,174.09448 C 510,294.09448 510,294.09448 510,294.09448"
         style="fill:none;fill-rule:evenodd;stroke:#000000;stroke-width:1px;stroke-linecap:butt;stroke-linejoin:miter;stroke-opacity:1" />
      <path
         id="path9088"
         d="M 450,174.09448 C 455,179.09448 530,254.09448 530,254.09448 L 530,254.09448 L 530,254.09448"
         style="fill:none;fill-rule:evenodd;stroke:#000000;stroke-width:1px;stroke-linecap:butt;stroke-linejoin:miter;stroke-opacity:1" />
      <path
         id="path9090"
         d="M 450,194.09448 L 530,274.09448"
         style="fill:none;fill-rule:evenodd;stroke:#000000;stroke-width:1px;stroke-linecap:butt;stroke-linejoin:miter;stroke-opacity:1" />
      <path
         id="path9092"
         d="M 450,214.09448 L 530,294.09448 L 530,294.09448 L 530,294.09448"
         style="fill:none;fill-rule:evenodd;stroke:#000000;stroke-width:1px;stroke-linecap:butt;stroke-linejoin:miter;stroke-opacity:1" />
      <path
         id="path9094"
         d="M 450,234.09448 L 510,294.09448 L 510,294.09448 L 510,294.09448 L 509.89556,294.51929"
         style="fill:none;fill-rule:evenodd;stroke:#000000;stroke-width:1px;stroke-linecap:butt;stroke-linejoin:miter;stroke-opacity:1" />
      <path
         id="path9098"
         d="M 450,254.09448 C 490,294.09448 490,294.09448 490,294.09448"
         style="fill:none;fill-rule:evenodd;stroke:#000000;stroke-width:1px;stroke-linecap:butt;stroke-linejoin:miter;stroke-opacity:1" />
      <path
         id="path9100"
         d="M 450,274.09448 C 470,294.09448 470,294.09448 470,294.09448"
         style="fill:none;fill-rule:evenodd;stroke:#000000;stroke-width:1px;stroke-linecap:butt;stroke-linejoin:miter;stroke-opacity:1" />
      <path
         id="path9102"
         d="M 470,174.09448 C 530,234.09448 530,234.09448 530,234.09448"
         style="fill:none;fill-rule:evenodd;stroke:#000000;stroke-width:1px;stroke-linecap:butt;stroke-linejoin:miter;stroke-opacity:1" />
      <path
         id="path9104"
         d="M 490,174.09448 C 530,214.09448 530,214.09448 530,214.09448"
         style="fill:none;fill-rule:evenodd;stroke:#000000;stroke-width:1px;stroke-linecap:butt;stroke-linejoin:miter;stroke-opacity:1" />
      <path
         id="path9106"
         d="M 510,174.09448 C 530,194.09448 530,194.09448 530,194.09448"
         style="fill:none;fill-rule:evenodd;stroke:#000000;stroke-width:1px;stroke-linecap:butt;stroke-linejoin:miter;stroke-opacity:1" />
      <rect
         ry="4.1247759"
         rx="5.8020053"
         y="313.78574"
         x="469.69125"
         height="25.340065"
         width="70.673225"
         id="rect2549"
         style="fill:#ffff00;fill-opacity:1;stroke:#000000;stroke-width:1.38250649;stroke-miterlimit:4;stroke-dasharray:none;stroke-opacity:1" />
      <text
         id="text2564"
         y="329.392"
         x="478.79288"
         style="font-size:12px;font-style:normal;font-weight:normal;fill:#000000;fill-opacity:1;stroke:none;stroke-width:1px;stroke-linecap:butt;stroke-linejoin:miter;stroke-opacity:1;font-family:Bitstream Vera Sans"
         xml:space="preserve"><tspan
           y="329.392"
           x="478.79288"
           id="tspan2566"
           sodipodi:role="line">Topology</tspan></text>
    </g>
    <rect
       style="fill:#ffff00;fill-opacity:1;stroke:#800000;stroke-width:1.41693723;stroke-miterlimit:4;stroke-dasharray:none;stroke-opacity:1"
       id="rect3040"
       width="82.476608"
       height="38.434933"
       x="509.70847"
       y="183.80295"
       rx="6.4705739"
       ry="6.6609459" />
    <path
       style="fill:none;fill-rule:evenodd;stroke:#000050;stroke-width:2;stroke-linecap:butt;stroke-linejoin:miter;stroke-opacity:1;stroke-miterlimit:4;stroke-dasharray:none"
       d="M 410,144.09448 L 410,214.09448 L 440,214.09448 L 440,254.09448 L 410,254.09448 L 410,294.09448 L 450,354.09448 L 390,354.09448 L 400,384.09448 L 300,384.09448 L 320,354.09448 L 260,354.09448"
       id="path4019" />
    <path
       style="fill:none;fill-rule:evenodd;stroke:#000050;stroke-width:2;stroke-linecap:butt;stroke-linejoin:miter;stroke-opacity:1;stroke-miterlimit:4;stroke-dasharray:none"
       d="M 450,354.09448 L 490,414.09448 L 430,414.09448 L 430,474.09448 L 490,474.09448 L 490,524.09448 L 490,524.09448"
       id="path4990" />
    <path
       style="fill:none;fill-rule:evenodd;stroke:#000050;stroke-width:2;stroke-linecap:butt;stroke-linejoin:miter;stroke-opacity:1;stroke-miterlimit:4;stroke-dasharray:none"
       d="M 490,414.09448 L 490,354.09448 L 560,354.09448 L 560,384.09448 L 640,384.09448 L 670,294.09448"
       id="path5961" />
    <text
       xml:space="preserve"
       style="font-size:12px;font-style:normal;font-weight:normal;fill:#000000;fill-opacity:1;stroke:none;stroke-width:1px;stroke-linecap:butt;stroke-linejoin:miter;stroke-opacity:1;font-family:Bitstream Vera Sans"
       x="518.37811"
       y="199.32622"
       id="text6932"><tspan
         sodipodi:role="line"
         id="tspan6934"
         x="518.37811"
         y="199.32622">Functional</tspan><tspan
         sodipodi:role="line"
         x="518.37811"
         y="214.32622"
         id="tspan6940">Analysis</tspan></text>
  </g>
</svg>
