<?xml version="1.0" encoding="UTF-8" standalone="no"?>
<!-- Created with Inkscape (http://www.inkscape.org/) -->
<svg
   xmlns:dc="http://purl.org/dc/elements/1.1/"
   xmlns:cc="http://web.resource.org/cc/"
   xmlns:rdf="http://www.w3.org/1999/02/22-rdf-syntax-ns#"
   xmlns:svg="http://www.w3.org/2000/svg"
   xmlns="http://www.w3.org/2000/svg"
   xmlns:sodipodi="http://sodipodi.sourceforge.net/DTD/sodipodi-0.dtd"
   xmlns:inkscape="http://www.inkscape.org/namespaces/inkscape"
   width="321.91699"
   height="177.41992"
   id="svg3008"
   sodipodi:version="0.32"
   inkscape:version="0.45.1"
   sodipodi:docbase="/Users/aterrel/Research/Kansas/Seminar"
   sodipodi:docname="FEM0.svg"
   inkscape:output_extension="org.inkscape.output.svg.inkscape"
   inkscape:export-filename="/Users/aterrel/Research/Kansas/Seminar/FEM0.png"
   inkscape:export-xdpi="90"
   inkscape:export-ydpi="90"
   version="1.0">
  <defs
     id="defs3010" />
  <sodipodi:namedview
     id="base"
     pagecolor="#ffffff"
     bordercolor="#666666"
     borderopacity="1.0"
     gridtolerance="10000"
     guidetolerance="10"
     objecttolerance="10"
     inkscape:pageopacity="0.0"
     inkscape:pageshadow="2"
     inkscape:zoom="1.4"
     inkscape:cx="243.47816"
     inkscape:cy="32.762049"
     inkscape:document-units="px"
     inkscape:current-layer="layer1"
     showgrid="true"
     inkscape:window-width="882"
     inkscape:window-height="649"
     inkscape:window-x="21"
     inkscape:window-y="42" />
  <metadata
     id="metadata3013">
    <rdf:RDF>
      <cc:Work
         rdf:about="">
        <dc:format>image/svg+xml</dc:format>
        <dc:type
           rdf:resource="http://purl.org/dc/dcmitype/StillImage" />
      </cc:Work>
    </rdf:RDF>
  </metadata>
  <g
     inkscape:label="Layer 1"
     inkscape:groupmode="layer"
     id="layer1"
     transform="translate(-250,-54.942261)">
    <rect
       style="fill:#b3b3b3;fill-opacity:1;stroke:#000000;stroke-width:2;stroke-miterlimit:4;stroke-dasharray:none;stroke-opacity:1"
       id="rect9070"
       width="80"
       height="120"
       x="421"
       y="101.36218" />
    <g
       id="g3000"
       transform="translate(-241.89355,-291.12204)">
      <text
         sodipodi:linespacing="125%"
         id="text8059"
         y="437.16"
         x="537.7334"
         style="font-size:18px;font-style:normal;font-variant:normal;font-weight:normal;font-stretch:normal;text-align:start;line-height:125%;writing-mode:lr-tb;text-anchor:start;fill:#000000;fill-opacity:1;stroke:none;stroke-width:1px;stroke-linecap:butt;stroke-linejoin:miter;stroke-opacity:1;font-family:Bitstream Vera Sans"
         xml:space="preserve"><tspan
           y="437.16"
           x="537.7334"
           id="tspan8061"
           sodipodi:role="line">-Δu = f</tspan><tspan
           id="tspan9048"
           y="460.19666"
           x="537.7334"
           sodipodi:role="line" /></text>
    </g>
    <g
       id="g3070"
       transform="translate(-261.89355,-381.12204)">
      <text
         sodipodi:linespacing="125%"
         id="text3072"
         y="449.74008"
         x="510.12695"
         style="font-size:18px;font-style:normal;font-variant:normal;font-weight:normal;font-stretch:normal;text-align:start;line-height:125%;writing-mode:lr-tb;text-anchor:start;fill:#000000;fill-opacity:1;stroke:none;stroke-width:1px;stroke-linecap:butt;stroke-linejoin:miter;stroke-opacity:1;font-family:Bitstream Vera Sans"
         xml:space="preserve"><tspan
           y="449.74008"
           x="510.12695"
           id="tspan3074"
           sodipodi:role="line">Find u on domain Ω, given f and BC  </tspan><tspan
           id="tspan3076"
           y="472.24008"
           x="510.12695"
           sodipodi:role="line" /></text>
    </g>
    <text
       xml:space="preserve"
       style="font-size:10px;font-style:normal;font-weight:normal;fill:#000000;fill-opacity:1;stroke:none;stroke-width:1px;stroke-linecap:butt;stroke-linejoin:miter;stroke-opacity:1;font-family:Bitstream Vera Sans"
       x="447.15039"
       y="96.220581"
       id="text3078"><tspan
         sodipodi:role="line"
         id="tspan3080"
         x="447.15039"
         y="96.220581">u = T0</tspan></text>
    <text
       xml:space="preserve"
       style="font-size:10px;font-style:normal;font-weight:normal;fill:#000000;fill-opacity:1;stroke:none;stroke-width:1px;stroke-linecap:butt;stroke-linejoin:miter;stroke-opacity:1;font-family:Bitstream Vera Sans"
       x="389.4144"
       y="151.00232"
       id="text3082"><tspan
         sodipodi:role="line"
         id="tspan3084"
         x="389.4144"
         y="151.00232">u'=0</tspan></text>
    <text
       xml:space="preserve"
       style="font-size:10px;font-style:normal;font-weight:normal;fill:#000000;fill-opacity:1;stroke:none;stroke-width:1px;stroke-linecap:butt;stroke-linejoin:miter;stroke-opacity:1;font-family:Bitstream Vera Sans"
       x="504.82129"
       y="151.78406"
       id="text3090"><tspan
         sodipodi:role="line"
         id="tspan3092"
         x="504.82129"
         y="151.78406">u'=0</tspan></text>
    <text
       xml:space="preserve"
       style="font-size:10px;font-style:normal;font-weight:normal;fill:#000000;fill-opacity:1;stroke:none;stroke-width:1px;stroke-linecap:butt;stroke-linejoin:miter;stroke-opacity:1;font-family:Bitstream Vera Sans"
       x="449.15039"
       y="232.22058"
       id="text3094"><tspan
         sodipodi:role="line"
         id="tspan3096"
         x="449.15039"
         y="232.22058">u = T1</tspan></text>
  </g>
</svg>
