#FIG 3.2  Produced by xfig version 3.2.5-alpha5
Landscape
Center
Metric
A4      
100.00
Single
-2
1200 2
6 450 450 6345 2970
6 472 450 6322 810
6 472 450 922 810
2 2 0 1 0 5 50 -1 20 0.000 0 0 -1 0 0 5
	 472 472 922 472 922 787 472 787 472 472
4 0 7 50 -1 0 16 0.0000 4 180 135 652 742 0\001
-6
6 922 450 1372 810
2 2 0 1 0 5 50 -1 20 0.000 0 0 -1 0 0 5
	 922 472 1372 472 1372 787 922 787 922 472
4 0 7 50 -1 0 16 0.0000 4 180 135 1102 742 1\001
-6
6 1372 450 1822 810
2 2 0 1 0 5 50 -1 20 0.000 0 0 -1 0 0 5
	 1372 472 1822 472 1822 787 1372 787 1372 472
4 0 7 50 -1 0 16 0.0000 4 180 135 1552 742 2\001
-6
6 1822 450 2272 810
2 2 0 1 0 5 50 -1 20 0.000 0 0 -1 0 0 5
	 1822 472 2272 472 2272 787 1822 787 1822 472
4 0 7 50 -1 0 16 0.0000 4 180 135 2002 742 3\001
-6
6 2272 450 2722 810
2 2 0 1 0 5 50 -1 20 0.000 0 0 -1 0 0 5
	 2272 472 2722 472 2722 787 2272 787 2272 472
4 1 7 50 -1 0 16 0.0000 4 180 135 2452 742 5\001
-6
6 2722 450 3172 810
2 2 0 1 0 5 50 -1 20 0.000 0 0 -1 0 0 5
	 2722 472 3172 472 3172 787 2722 787 2722 472
4 1 7 50 -1 0 16 0.0000 4 195 135 2902 742 6\001
-6
6 3172 450 3622 810
2 2 0 1 0 5 50 -1 20 0.000 0 0 -1 0 0 5
	 3172 472 3622 472 3622 787 3172 787 3172 472
4 1 7 50 -1 0 16 0.0000 4 180 135 3352 742 8\001
-6
6 3622 450 4072 810
2 2 0 1 0 5 50 -1 20 0.000 0 0 -1 0 0 5
	 3622 472 4072 472 4072 787 3622 787 3622 472
4 1 7 50 -1 0 16 0.0000 4 195 135 3802 742 9\001
-6
6 4072 450 4522 810
2 2 0 1 0 5 50 -1 20 0.000 0 0 -1 0 0 5
	 4072 472 4522 472 4522 787 4072 787 4072 472
4 1 7 50 -1 0 16 0.0000 4 180 270 4252 742 10\001
-6
6 4522 450 4972 810
2 2 0 1 0 5 50 -1 20 0.000 0 0 -1 0 0 5
	 4522 472 4972 472 4972 787 4522 787 4522 472
4 1 7 50 -1 0 16 0.0000 4 180 270 4702 742 11\001
-6
6 4972 450 5422 810
2 2 0 1 0 5 50 -1 20 0.000 0 0 -1 0 0 5
	 4972 472 5422 472 5422 787 4972 787 4972 472
4 1 7 50 -1 0 16 0.0000 4 180 270 5152 742 12\001
-6
6 5422 450 5872 810
2 2 0 1 0 5 50 -1 20 0.000 0 0 -1 0 0 5
	 5422 472 5872 472 5872 787 5422 787 5422 472
4 1 7 50 -1 0 16 0.0000 4 180 270 5602 742 13\001
-6
6 5872 450 6322 810
2 2 0 1 0 5 50 -1 20 0.000 0 0 -1 0 0 5
	 5872 472 6322 472 6322 787 5872 787 5872 472
4 1 7 50 -1 0 16 0.0000 4 180 270 6052 742 15\001
-6
-6
6 472 810 6322 1170
6 472 810 922 1170
2 2 0 1 0 5 50 -1 20 0.000 0 0 -1 0 0 5
	 472 832 922 832 922 1147 472 1147 472 832
4 1 7 50 -1 0 16 0.0000 4 195 270 652 1102 16\001
-6
6 922 810 1372 1170
2 2 0 1 0 5 50 -1 20 0.000 0 0 -1 0 0 5
	 922 832 1372 832 1372 1147 922 1147 922 832
4 1 7 50 -1 0 16 0.0000 4 180 270 1102 1102 17\001
-6
6 1372 810 1822 1170
2 2 0 1 0 5 50 -1 20 0.000 0 0 -1 0 0 5
	 1372 832 1822 832 1822 1147 1372 1147 1372 832
4 1 7 50 -1 0 16 0.0000 4 180 270 1552 1102 18\001
-6
6 1822 810 2272 1170
2 2 0 1 0 5 50 -1 20 0.000 0 0 -1 0 0 5
	 1822 832 2272 832 2272 1147 1822 1147 1822 832
4 1 7 50 -1 0 16 0.0000 4 195 270 2002 1102 19\001
-6
6 2272 810 2722 1170
2 2 0 1 0 5 50 -1 20 0.000 0 0 -1 0 0 5
	 2272 832 2722 832 2722 1147 2272 1147 2272 832
4 1 7 50 -1 0 16 0.0000 4 180 270 2452 1102 20\001
-6
6 2722 810 3172 1170
2 2 0 1 0 5 50 -1 20 0.000 0 0 -1 0 0 5
	 2722 832 3172 832 3172 1147 2722 1147 2722 832
4 1 7 50 -1 0 16 0.0000 4 180 270 2902 1102 21\001
-6
6 3172 810 3622 1170
2 2 0 1 0 5 50 -1 20 0.000 0 0 -1 0 0 5
	 3172 832 3622 832 3622 1147 3172 1147 3172 832
4 1 7 50 -1 0 16 0.0000 4 180 270 3352 1102 22\001
-6
6 3622 810 4072 1170
2 2 0 1 0 5 50 -1 20 0.000 0 0 -1 0 0 5
	 3622 832 4072 832 4072 1147 3622 1147 3622 832
4 1 7 50 -1 0 16 0.0000 4 180 270 3802 1102 24\001
-6
6 4072 810 4522 1170
2 2 0 1 0 5 50 -1 20 0.000 0 0 -1 0 0 5
	 4072 832 4522 832 4522 1147 4072 1147 4072 832
4 1 7 50 -1 0 16 0.0000 4 180 270 4252 1102 25\001
-6
6 4522 810 4972 1170
2 2 0 1 0 5 50 -1 20 0.000 0 0 -1 0 0 5
	 4522 832 4972 832 4972 1147 4522 1147 4522 832
4 1 7 50 -1 0 16 0.0000 4 180 270 4702 1102 27\001
-6
6 4972 810 5422 1170
2 2 0 1 0 5 50 -1 20 0.000 0 0 -1 0 0 5
	 4972 832 5422 832 5422 1147 4972 1147 4972 832
4 1 7 50 -1 0 16 0.0000 4 180 270 5152 1102 28\001
-6
6 5422 810 5872 1170
2 2 0 1 0 5 50 -1 20 0.000 0 0 -1 0 0 5
	 5422 832 5872 832 5872 1147 5422 1147 5422 832
4 1 7 50 -1 0 16 0.0000 4 195 270 5602 1102 29\001
-6
6 5872 810 6322 1170
2 2 0 1 0 5 50 -1 20 0.000 0 0 -1 0 0 5
	 5872 832 6322 832 6322 1147 5872 1147 5872 832
4 1 7 50 -1 0 16 0.0000 4 180 270 6052 1102 34\001
-6
-6
6 472 1170 6322 1530
6 472 1170 922 1530
2 2 0 1 0 5 50 -1 20 0.000 0 0 -1 0 0 5
	 472 1192 922 1192 922 1507 472 1507 472 1192
4 1 7 50 -1 0 16 0.0000 4 180 270 652 1462 35\001
-6
6 922 1170 1372 1530
2 2 0 1 0 5 50 -1 20 0.000 0 0 -1 0 0 5
	 922 1192 1372 1192 1372 1507 922 1507 922 1192
4 1 7 50 -1 0 16 0.0000 4 195 270 1102 1462 36\001
-6
6 1372 1170 1822 1530
2 2 0 1 0 5 50 -1 20 0.000 0 0 -1 0 0 5
	 1372 1192 1822 1192 1822 1507 1372 1507 1372 1192
4 1 7 50 -1 0 16 0.0000 4 180 270 1552 1462 37\001
-6
6 1822 1170 2272 1530
2 2 0 1 0 5 50 -1 20 0.000 0 0 -1 0 0 5
	 1822 1192 2272 1192 2272 1507 1822 1507 1822 1192
4 1 7 50 -1 0 16 0.0000 4 180 270 2002 1462 38\001
-6
6 2272 1170 2722 1530
2 2 0 1 0 5 50 -1 20 0.000 0 0 -1 0 0 5
	 2272 1192 2722 1192 2722 1507 2272 1507 2272 1192
4 1 7 50 -1 0 16 0.0000 4 195 270 2452 1462 39\001
-6
6 2722 1170 3172 1530
2 2 0 1 0 5 50 -1 20 0.000 0 0 -1 0 0 5
	 2722 1192 3172 1192 3172 1507 2722 1507 2722 1192
4 1 7 50 -1 0 16 0.0000 4 180 270 2902 1462 40\001
-6
6 3172 1170 3622 1530
2 2 0 1 0 5 50 -1 20 0.000 0 0 -1 0 0 5
	 3172 1192 3622 1192 3622 1507 3172 1507 3172 1192
4 1 7 50 -1 0 16 0.0000 4 180 270 3352 1462 41\001
-6
6 3622 1170 4072 1530
2 2 0 1 0 5 50 -1 20 0.000 0 0 -1 0 0 5
	 3622 1192 4072 1192 4072 1507 3622 1507 3622 1192
4 1 7 50 -1 0 16 0.0000 4 180 270 3802 1462 42\001
-6
6 4072 1170 4522 1530
2 2 0 1 0 5 50 -1 20 0.000 0 0 -1 0 0 5
	 4072 1192 4522 1192 4522 1507 4072 1507 4072 1192
4 1 7 50 -1 0 16 0.0000 4 180 270 4252 1462 43\001
-6
6 4522 1170 4972 1530
2 2 0 1 0 5 50 -1 20 0.000 0 0 -1 0 0 5
	 4522 1192 4972 1192 4972 1507 4522 1507 4522 1192
4 1 7 50 -1 0 16 0.0000 4 180 270 4702 1462 45\001
-6
6 4972 1170 5422 1530
2 2 0 1 0 5 50 -1 20 0.000 0 0 -1 0 0 5
	 4972 1192 5422 1192 5422 1507 4972 1507 4972 1192
4 1 7 50 -1 0 16 0.0000 4 195 270 5152 1462 46\001
-6
6 5422 1170 5872 1530
2 2 0 1 0 5 50 -1 20 0.000 0 0 -1 0 0 5
	 5422 1192 5872 1192 5872 1507 5422 1507 5422 1192
4 1 7 50 -1 0 16 0.0000 4 180 270 5602 1462 47\001
-6
6 5872 1170 6322 1530
2 2 0 1 0 5 50 -1 20 0.000 0 0 -1 0 0 5
	 5872 1192 6322 1192 6322 1507 5872 1507 5872 1192
4 1 7 50 -1 0 16 0.0000 4 180 270 6052 1462 48\001
-6
-6
6 472 1530 6322 1890
6 472 1530 922 1890
2 2 0 1 0 5 50 -1 20 0.000 0 0 -1 0 0 5
	 472 1552 922 1552 922 1867 472 1867 472 1552
4 1 7 50 -1 0 16 0.0000 4 195 270 652 1822 49\001
-6
6 922 1530 1372 1890
2 2 0 1 0 5 50 -1 20 0.000 0 0 -1 0 0 5
	 922 1552 1372 1552 1372 1867 922 1867 922 1552
4 1 7 50 -1 0 16 0.0000 4 180 270 1102 1822 50\001
-6
6 1372 1530 1822 1890
2 2 0 1 0 5 50 -1 20 0.000 0 0 -1 0 0 5
	 1372 1552 1822 1552 1822 1867 1372 1867 1372 1552
4 1 7 50 -1 0 16 0.0000 4 180 270 1552 1822 51\001
-6
6 1822 1530 2272 1890
2 2 0 1 0 5 50 -1 20 0.000 0 0 -1 0 0 5
	 1822 1552 2272 1552 2272 1867 1822 1867 1822 1552
4 1 7 50 -1 0 16 0.0000 4 180 270 2002 1822 52\001
-6
6 2272 1530 2722 1890
2 2 0 1 0 5 50 -1 20 0.000 0 0 -1 0 0 5
	 2272 1552 2722 1552 2722 1867 2272 1867 2272 1552
4 1 7 50 -1 0 16 0.0000 4 180 270 2452 1822 53\001
-6
6 2722 1530 3172 1890
2 2 0 1 0 5 50 -1 20 0.000 0 0 -1 0 0 5
	 2722 1552 3172 1552 3172 1867 2722 1867 2722 1552
4 1 7 50 -1 0 16 0.0000 4 180 270 2902 1822 54\001
-6
6 3172 1530 3622 1890
2 2 0 1 0 5 50 -1 20 0.000 0 0 -1 0 0 5
	 3172 1552 3622 1552 3622 1867 3172 1867 3172 1552
4 1 7 50 -1 0 16 0.0000 4 180 270 3352 1822 55\001
-6
6 3622 1530 4072 1890
2 2 0 1 0 5 50 -1 20 0.000 0 0 -1 0 0 5
	 3622 1552 4072 1552 4072 1867 3622 1867 3622 1552
4 1 7 50 -1 0 16 0.0000 4 195 270 3802 1822 56\001
-6
6 4072 1530 4522 1890
2 2 0 1 0 5 50 -1 20 0.000 0 0 -1 0 0 5
	 4072 1552 4522 1552 4522 1867 4072 1867 4072 1552
4 1 7 50 -1 0 16 0.0000 4 180 270 4252 1822 57\001
-6
6 4522 1530 4972 1890
2 2 0 1 0 5 50 -1 20 0.000 0 0 -1 0 0 5
	 4522 1552 4972 1552 4972 1867 4522 1867 4522 1552
4 1 7 50 -1 0 16 0.0000 4 180 270 4702 1822 58\001
-6
6 4972 1530 5422 1890
2 2 0 1 0 5 50 -1 20 0.000 0 0 -1 0 0 5
	 4972 1552 5422 1552 5422 1867 4972 1867 4972 1552
4 1 7 50 -1 0 16 0.0000 4 195 270 5152 1822 59\001
-6
6 5422 1530 5872 1890
2 2 0 1 0 5 50 -1 20 0.000 0 0 -1 0 0 5
	 5422 1552 5872 1552 5872 1867 5422 1867 5422 1552
4 1 7 50 -1 0 16 0.0000 4 195 270 5602 1822 60\001
-6
6 5872 1530 6322 1890
2 2 0 1 0 5 50 -1 20 0.000 0 0 -1 0 0 5
	 5872 1552 6322 1552 6322 1867 5872 1867 5872 1552
4 1 7 50 -1 0 16 0.0000 4 195 270 6052 1822 61\001
-6
-6
6 472 1890 6322 2250
6 472 1890 922 2250
2 2 0 1 0 5 50 -1 20 0.000 0 0 -1 0 0 5
	 472 1912 922 1912 922 2227 472 2227 472 1912
4 1 7 50 -1 0 16 0.0000 4 195 270 652 2182 62\001
-6
6 922 1890 1372 2250
2 2 0 1 0 5 50 -1 20 0.000 0 0 -1 0 0 5
	 922 1912 1372 1912 1372 2227 922 2227 922 1912
4 1 7 50 -1 0 16 0.0000 4 195 270 1102 2182 63\001
-6
6 1372 1890 1822 2250
2 2 0 1 0 5 50 -1 20 0.000 0 0 -1 0 0 5
	 1372 1912 1822 1912 1822 2227 1372 2227 1372 1912
4 1 7 50 -1 0 16 0.0000 4 195 270 1552 2182 64\001
-6
6 1822 1890 2272 2250
2 2 0 1 0 5 50 -1 20 0.000 0 0 -1 0 0 5
	 1822 1912 2272 1912 2272 2227 1822 2227 1822 1912
4 1 7 50 -1 0 16 0.0000 4 195 270 2002 2182 65\001
-6
6 2272 1890 2722 2250
2 2 0 1 0 5 50 -1 20 0.000 0 0 -1 0 0 5
	 2272 1912 2722 1912 2722 2227 2272 2227 2272 1912
4 1 7 50 -1 0 16 0.0000 4 195 270 2452 2182 66\001
-6
6 2722 1890 3172 2250
2 2 0 1 0 5 50 -1 20 0.000 0 0 -1 0 0 5
	 2722 1912 3172 1912 3172 2227 2722 2227 2722 1912
4 1 7 50 -1 0 16 0.0000 4 195 270 2902 2182 67\001
-6
6 3172 1890 3622 2250
2 2 0 1 0 5 50 -1 20 0.000 0 0 -1 0 0 5
	 3172 1912 3622 1912 3622 2227 3172 2227 3172 1912
4 1 7 50 -1 0 16 0.0000 4 195 270 3352 2182 68\001
-6
6 3622 1890 4072 2250
2 2 0 1 0 5 50 -1 20 0.000 0 0 -1 0 0 5
	 3622 1912 4072 1912 4072 2227 3622 2227 3622 1912
4 1 7 50 -1 0 16 0.0000 4 210 270 3802 2182 69\001
-6
6 4072 1890 4522 2250
2 2 0 1 0 5 50 -1 20 0.000 0 0 -1 0 0 5
	 4072 1912 4522 1912 4522 2227 4072 2227 4072 1912
4 1 7 50 -1 0 16 0.0000 4 180 270 4252 2182 70\001
-6
6 4522 1890 4972 2250
2 2 0 1 0 5 50 -1 20 0.000 0 0 -1 0 0 5
	 4522 1912 4972 1912 4972 2227 4522 2227 4522 1912
4 1 7 50 -1 0 16 0.0000 4 180 270 4702 2182 71\001
-6
6 4972 1890 5422 2250
2 2 0 1 0 5 50 -1 20 0.000 0 0 -1 0 0 5
	 4972 1912 5422 1912 5422 2227 4972 2227 4972 1912
4 1 7 50 -1 0 16 0.0000 4 180 270 5152 2182 72\001
-6
6 5422 1890 5872 2250
2 2 0 1 0 5 50 -1 20 0.000 0 0 -1 0 0 5
	 5422 1912 5872 1912 5872 2227 5422 2227 5422 1912
4 1 7 50 -1 0 16 0.0000 4 180 270 5602 2182 73\001
-6
6 5872 1890 6322 2250
2 2 0 1 0 5 50 -1 20 0.000 0 0 -1 0 0 5
	 5872 1912 6322 1912 6322 2227 5872 2227 5872 1912
4 1 7 50 -1 0 16 0.0000 4 180 270 6052 2182 74\001
-6
-6
6 3150 2610 3645 2970
2 2 0 1 0 5 50 -1 20 0.000 0 0 -1 0 0 5
	 3195 2632 3645 2632 3645 2947 3195 2947 3195 2632
4 1 7 50 -1 0 16 0.0000 4 195 405 3375 2902 109\001
-6
6 472 2250 6322 2610
6 472 2250 922 2610
2 2 0 1 0 5 50 -1 20 0.000 0 0 -1 0 0 5
	 472 2272 922 2272 922 2587 472 2587 472 2272
4 1 7 50 -1 0 16 0.0000 4 180 270 652 2542 75\001
-6
6 922 2250 1372 2610
2 2 0 1 0 5 50 -1 20 0.000 0 0 -1 0 0 5
	 922 2272 1372 2272 1372 2587 922 2587 922 2272
4 1 7 50 -1 0 16 0.0000 4 195 270 1102 2542 76\001
-6
6 1372 2250 1822 2610
2 2 0 1 0 5 50 -1 20 0.000 0 0 -1 0 0 5
	 1372 2272 1822 2272 1822 2587 1372 2587 1372 2272
4 1 7 50 -1 0 16 0.0000 4 180 270 1552 2542 77\001
-6
6 1822 2250 2272 2610
2 2 0 1 0 5 50 -1 20 0.000 0 0 -1 0 0 5
	 1822 2272 2272 2272 2272 2587 1822 2587 1822 2272
4 1 7 50 -1 0 16 0.0000 4 180 270 2002 2542 78\001
-6
6 2272 2250 2722 2610
2 2 0 1 0 5 50 -1 20 0.000 0 0 -1 0 0 5
	 2272 2272 2722 2272 2722 2587 2272 2587 2272 2272
4 1 7 50 -1 0 16 0.0000 4 195 270 2452 2542 89\001
-6
6 2722 2250 3172 2610
2 2 0 1 0 5 50 -1 20 0.000 0 0 -1 0 0 5
	 2722 2272 3172 2272 3172 2587 2722 2587 2722 2272
4 1 7 50 -1 0 16 0.0000 4 210 270 2902 2542 96\001
-6
6 3127 2250 3622 2610
2 2 0 1 0 5 50 -1 20 0.000 0 0 -1 0 0 5
	 3172 2272 3622 2272 3622 2587 3172 2587 3172 2272
4 1 7 50 -1 0 16 0.0000 4 180 405 3352 2542 101\001
-6
6 3577 2250 4072 2610
2 2 0 1 0 5 50 -1 20 0.000 0 0 -1 0 0 5
	 3622 2272 4072 2272 4072 2587 3622 2587 3622 2272
4 1 7 50 -1 0 16 0.0000 4 180 405 3802 2542 102\001
-6
6 4027 2250 4522 2610
2 2 0 1 0 5 50 -1 20 0.000 0 0 -1 0 0 5
	 4072 2272 4522 2272 4522 2587 4072 2587 4072 2272
4 1 7 50 -1 0 16 0.0000 4 180 405 4252 2542 103\001
-6
6 4477 2250 4972 2610
2 2 0 1 0 5 50 -1 20 0.000 0 0 -1 0 0 5
	 4522 2272 4972 2272 4972 2587 4522 2587 4522 2272
4 1 7 50 -1 0 16 0.0000 4 180 405 4702 2542 104\001
-6
6 4927 2250 5422 2610
2 2 0 1 0 5 50 -1 20 0.000 0 0 -1 0 0 5
	 4972 2272 5422 2272 5422 2587 4972 2587 4972 2272
4 1 7 50 -1 0 16 0.0000 4 180 405 5152 2542 105\001
-6
6 5377 2250 5872 2610
2 2 0 1 0 5 50 -1 20 0.000 0 0 -1 0 0 5
	 5422 2272 5872 2272 5872 2587 5422 2587 5422 2272
4 1 7 50 -1 0 16 0.0000 4 180 405 5602 2542 107\001
-6
6 5827 2250 6322 2610
2 2 0 1 0 5 50 -1 20 0.000 0 0 -1 0 0 5
	 5872 2272 6322 2272 6322 2587 5872 2587 5872 2272
4 1 7 50 -1 0 16 0.0000 4 180 405 6052 2542 108\001
-6
-6
-6
6 3015 3690 3780 4500
1 3 0 1 0 1 55 -1 20 0.000 1 0.0000 3417 4095 363 363 3417 4095 3780 4095
4 0 7 50 -1 0 16 0.0000 4 180 135 3375 4185 1\001
-6
2 1 0 3 0 7 50 -1 -1 0.000 0 0 -1 1 0 2
	1 1 3.00 180.00 360.00
	 3420 3735 3420 2970
2 1 0 3 0 7 50 -1 -1 0.000 0 0 -1 1 0 2
	1 1 3.00 180.00 360.00
	 3420 3735 4950 2655
2 1 0 3 0 7 50 -1 -1 0.000 0 0 -1 1 0 2
	1 1 3.00 180.00 360.00
	 3420 3735 1710 2745
