#FIG 3.2  Produced by xfig version 3.2.5-alpha5
Landscape
Center
Metric
A4      
100.00
Single
-2
1200 2
6 450 450 1215 1260
1 3 0 1 0 1 55 -1 20 0.000 1 0.0000 852 855 363 363 852 855 1215 855
4 0 7 50 -1 0 16 0.0000 4 180 135 810 945 1\001
-6
6 450 3240 1215 4050
1 3 0 1 0 2 55 -1 20 0.000 1 0.0000 852 3645 363 363 852 3645 1215 3645
4 0 7 50 -1 0 16 0.0000 4 180 135 810 3735 1\001
-6
6 2700 3240 3465 4050
1 3 0 1 0 1 55 -1 20 0.000 1 0.0000 3102 3645 363 363 3102 3645 3465 3645
4 0 7 50 -1 0 16 0.0000 4 180 135 3060 3735 1\001
-6
6 2700 450 3465 1260
1 3 0 1 0 2 55 -1 20 0.000 1 0.0000 3102 855 363 363 3102 855 3465 855
4 0 7 50 -1 0 16 0.0000 4 180 135 3060 945 0\001
-6
6 990 2025 1440 2340
2 4 0 1 0 1 50 -1 20 0.000 0 0 7 0 0 5
	 1440 2340 990 2340 990 2025 1440 2025 1440 2340
4 0 7 50 -1 0 16 0.0000 4 180 135 1125 2295 1\001
-6
6 3195 1980 3645 2295
2 4 0 1 0 1 50 -1 20 0.000 0 0 7 0 0 5
	 3645 2295 3195 2295 3195 1980 3645 1980 3645 2295
4 0 7 50 -1 0 16 0.0000 4 180 135 3330 2250 1\001
-6
2 1 0 1 0 7 50 -1 -1 0.000 0 0 -1 1 0 2
	1 1 1.00 60.00 120.00
	 855 1215 855 3285
2 1 0 1 0 7 50 -1 -1 0.000 0 0 -1 1 0 2
	1 1 1.00 60.00 120.00
	 3105 1215 3105 3285
2 2 1 1 0 7 50 -1 -1 4.000 0 0 -1 0 0 5
	 2250 0 4050 0 4050 4680 2250 4680 2250 0
2 2 1 1 0 7 50 -1 -1 4.000 0 0 -1 0 0 5
	 0 0 1800 0 1800 4680 0 4680 0 0
4 0 0 50 -1 0 16 0.0000 4 180 1035 2610 4500 Process 1\001
4 0 0 50 -1 0 16 0.0000 4 180 1035 315 4500 Process 0\001
