#FIG 3.2  Produced by xfig version 3.2.5-alpha5
Landscape
Center
Metric
A4      
100.00
Single
-2
1200 2
6 90 225 10710 2745
6 1035 1980 9945 2745
6 1035 1980 1800 2745
1 3 0 1 0 1 55 -1 20 0.000 1 0.0000 1437 2362 363 363 1437 2362 1800 2362
4 0 7 50 -1 0 16 0.0000 4 195 135 1395 2452 0\001
-6
6 3735 1980 4500 2745
1 3 0 1 0 1 55 -1 20 0.000 1 0.0000 4127 2362 363 363 4127 2362 4490 2362
4 0 7 50 -1 0 16 0.0000 4 195 135 4085 2452 1\001
-6
6 6480 1980 7245 2745
1 3 0 1 0 1 55 -1 20 0.000 1 0.0000 6862 2362 363 363 6862 2362 7225 2362
4 0 7 50 -1 0 16 0.0000 4 195 135 6820 2452 2\001
-6
6 9180 1980 9945 2745
1 3 0 1 0 1 55 -1 20 0.000 1 0.0000 9552 2362 363 363 9552 2362 9915 2362
4 0 7 50 -1 0 16 0.0000 4 195 135 9510 2452 4\001
-6
-6
6 90 225 10710 1080
6 90 270 2655 1080
6 90 270 855 1080
1 3 0 1 0 1 55 -1 20 0.000 1 0.0000 477 674 363 363 477 674 840 674
4 1 7 50 -1 0 16 0.0000 4 195 270 435 764 10\001
-6
6 990 270 1755 1080
1 3 0 1 0 1 55 -1 20 0.000 1 0.0000 1382 674 363 363 1382 674 1745 674
4 0 7 50 -1 0 16 0.0000 4 195 135 1340 764 8\001
-6
6 1890 270 2655 1080
1 3 0 1 0 1 55 -1 20 0.000 1 0.0000 2257 674 363 363 2257 674 2620 674
4 0 7 50 -1 0 16 0.0000 4 195 135 2215 764 9\001
-6
-6
6 2925 270 5310 1080
6 4545 270 5310 1080
1 3 0 1 0 1 55 -1 20 0.000 1 0.0000 4942 675 363 363 4942 675 5305 675
4 0 7 50 -1 0 16 0.0000 4 195 135 4900 765 8\001
-6
6 3735 270 4500 1080
1 3 0 1 0 1 55 -1 20 0.000 1 0.0000 4137 675 363 363 4137 675 4500 675
4 0 7 50 -1 0 16 0.0000 4 195 135 4095 765 9\001
-6
6 2925 270 3735 1080
1 3 0 1 0 1 55 -1 20 0.000 1 0.0000 3332 675 363 363 3332 675 3695 675
4 1 7 50 -1 0 16 0.0000 4 195 270 3290 765 11\001
-6
-6
6 5625 225 8010 1080
6 5625 270 6390 1080
1 3 0 1 0 1 55 -1 20 0.000 1 0.0000 5992 674 363 363 5992 674 6355 674
4 0 7 50 -1 0 16 0.0000 4 195 135 5950 764 8\001
-6
6 7229 269 7994 1079
1 3 0 1 0 1 55 -1 20 0.000 1 0.0000 7621 674 363 363 7621 674 7984 674
4 1 7 50 -1 0 16 0.0000 4 195 270 7579 764 11\001
-6
6 6435 270 7200 1080
1 3 0 1 0 1 55 -1 20 0.000 1 0.0000 6804 674 363 363 6804 674 7167 674
4 1 7 50 -1 0 16 0.0000 4 195 270 6762 764 12\001
-6
-6
6 8280 270 10710 1080
6 8280 270 9045 1080
1 3 0 1 0 1 55 -1 20 0.000 1 0.0000 8682 674 363 363 8682 674 9045 674
4 0 7 50 -1 0 16 0.0000 4 195 135 8640 764 9\001
-6
6 9090 270 9900 1080
1 3 0 1 0 1 55 -1 20 0.000 1 0.0000 9494 674 363 363 9494 674 9857 674
4 1 7 50 -1 0 16 0.0000 4 195 270 9452 764 11\001
-6
6 9945 270 10710 1080
1 3 0 1 0 1 55 -1 20 0.000 1 0.0000 10331 674 363 363 10331 674 10694 674
4 1 7 50 -1 0 16 0.0000 4 195 270 10289 764 14\001
-6
-6
-6
2 1 0 1 0 7 50 -1 -1 0.000 0 0 -1 1 0 2
	1 1 1.00 60.00 120.00
	 495 1035 1170 2115
2 1 0 1 0 7 50 -1 -1 0.000 0 0 -1 1 0 2
	1 1 1.00 60.00 120.00
	 1350 1080 1395 1980
2 1 0 1 0 7 50 -1 -1 0.000 0 0 -1 1 0 2
	1 1 1.00 60.00 120.00
	 2070 990 1620 2025
2 1 0 1 0 7 50 -1 -1 0.000 0 0 -1 1 0 2
	1 1 1.00 60.00 120.00
	 3420 1035 3870 2070
2 1 0 1 0 7 50 -1 -1 0.000 0 0 -1 1 0 2
	1 1 1.00 60.00 120.00
	 4140 1035 4140 1980
2 1 0 1 0 7 50 -1 -1 0.000 0 0 -1 1 0 2
	1 1 1.00 60.00 120.00
	 4770 1035 4320 1980
2 1 0 1 0 7 50 -1 -1 0.000 0 0 -1 1 0 2
	1 1 1.00 60.00 120.00
	 6075 1035 6615 2070
2 1 0 1 0 7 50 -1 -1 0.000 0 0 -1 1 0 2
	1 1 1.00 60.00 120.00
	 6795 1035 6840 1980
2 1 0 1 0 7 50 -1 -1 0.000 0 0 -1 1 0 2
	1 1 1.00 60.00 120.00
	 7470 990 7020 2025
2 1 0 1 0 7 50 -1 -1 0.000 0 0 -1 1 0 2
	1 1 1.00 60.00 120.00
	 8775 1035 9315 2070
2 1 0 1 0 7 50 -1 -1 0.000 0 0 -1 1 0 2
	1 1 1.00 60.00 120.00
	 9495 1035 9540 1980
2 1 0 1 0 7 50 -1 -1 0.000 0 0 -1 1 0 2
	1 1 1.00 60.00 120.00
	 10215 990 9720 1980
-6
6 90 3420 10710 5985
6 1035 5130 9945 5985
6 1035 5152 1800 5962
1 3 0 1 0 1 55 -1 20 0.000 1 0.0000 1437 5557 363 363 1437 5557 1800 5557
4 0 7 50 -1 0 16 0.0000 4 195 135 1395 5647 3\001
-6
6 3750 5152 4515 5962
1 3 0 1 0 1 55 -1 20 0.000 1 0.0000 4127 5557 363 363 4127 5557 4490 5557
4 0 7 50 -1 0 16 0.0000 4 195 135 4085 5647 5\001
-6
6 6465 5152 7230 5962
1 3 0 1 0 1 55 -1 20 0.000 1 0.0000 6862 5557 363 363 6862 5557 7225 5557
4 0 7 50 -1 0 16 0.0000 4 195 135 6820 5647 6\001
-6
6 9180 5152 9945 5962
1 3 0 1 0 1 55 -1 20 0.000 1 0.0000 9552 5557 363 363 9552 5557 9915 5557
4 0 7 50 -1 0 16 0.0000 4 195 135 9510 5647 7\001
-6
-6
6 90 3420 10710 4320
6 90 3442 2655 4297
6 90 3464 855 4274
1 3 0 1 0 1 55 -1 20 0.000 1 0.0000 477 3869 363 363 477 3869 840 3869
4 1 7 50 -1 0 16 0.0000 4 195 270 435 3959 13\001
-6
6 990 3464 1755 4274
1 3 0 1 0 1 55 -1 20 0.000 1 0.0000 1382 3869 363 363 1382 3869 1745 3869
4 1 7 50 -1 0 16 0.0000 4 195 270 1340 3959 11\001
-6
6 1890 3464 2655 4274
1 3 0 1 0 1 55 -1 20 0.000 1 0.0000 2257 3869 363 363 2257 3869 2620 3869
4 1 7 50 -1 0 16 0.0000 4 195 270 2215 3959 12\001
-6
-6
6 2940 3465 5325 4275
6 4560 3465 5325 4275
1 3 0 1 0 1 55 -1 20 0.000 1 0.0000 4942 3870 363 363 4942 3870 5305 3870
4 1 7 50 -1 0 16 0.0000 4 195 270 4900 3960 15\001
-6
6 3750 3465 4515 4275
1 3 0 1 0 1 55 -1 20 0.000 1 0.0000 4137 3870 363 363 4137 3870 4500 3870
4 1 7 50 -1 0 16 0.0000 4 195 270 4095 3960 13\001
-6
6 2940 3465 3705 4275
1 3 0 1 0 1 55 -1 20 0.000 1 0.0000 3332 3870 363 363 3332 3870 3695 3870
4 1 7 50 -1 0 16 0.0000 4 195 270 3290 3960 11\001
-6
-6
6 5610 3442 7995 4297
6 5610 3464 6375 4274
1 3 0 1 0 1 55 -1 20 0.000 1 0.0000 5992 3869 363 363 5992 3869 6355 3869
4 1 7 50 -1 0 16 0.0000 4 195 270 5950 3959 15\001
-6
6 7229 3464 7994 4274
1 3 0 1 0 1 55 -1 20 0.000 1 0.0000 7621 3869 363 363 7621 3869 7984 3869
4 1 7 50 -1 0 16 0.0000 4 195 270 7579 3959 11\001
-6
6 6397 3464 7207 4274
1 3 0 1 0 1 55 -1 20 0.000 1 0.0000 6804 3869 363 363 6804 3869 7167 3869
4 1 7 50 -1 0 16 0.0000 4 195 270 6762 3959 14\001
-6
-6
6 8280 3442 10710 4297
6 8280 3464 9045 4274
1 3 0 1 0 1 55 -1 20 0.000 1 0.0000 8682 3869 363 363 8682 3869 9045 3869
4 1 7 50 -1 0 16 0.0000 4 195 270 8640 3959 16\001
-6
6 9112 3464 9877 4274
1 3 0 1 0 1 55 -1 20 0.000 1 0.0000 9494 3869 363 363 9494 3869 9857 3869
4 1 7 50 -1 0 16 0.0000 4 195 270 9452 3959 15\001
-6
6 9944 3464 10709 4274
1 3 0 1 0 1 55 -1 20 0.000 1 0.0000 10331 3869 363 363 10331 3869 10694 3869
4 1 7 50 -1 0 16 0.0000 4 195 270 10289 3959 13\001
-6
-6
-6
2 1 0 1 0 7 50 -1 -1 0.000 0 0 -1 1 0 2
	1 1 1.00 60.00 120.00
	 495 4230 1170 5310
2 1 0 1 0 7 50 -1 -1 0.000 0 0 -1 1 0 2
	1 1 1.00 60.00 120.00
	 1350 4275 1395 5175
2 1 0 1 0 7 50 -1 -1 0.000 0 0 -1 1 0 2
	1 1 1.00 60.00 120.00
	 2070 4185 1620 5220
2 1 0 1 0 7 50 -1 -1 0.000 0 0 -1 1 0 2
	1 1 1.00 60.00 120.00
	 3420 4230 3870 5265
2 1 0 1 0 7 50 -1 -1 0.000 0 0 -1 1 0 2
	1 1 1.00 60.00 120.00
	 4140 4230 4140 5175
2 1 0 1 0 7 50 -1 -1 0.000 0 0 -1 1 0 2
	1 1 1.00 60.00 120.00
	 4770 4230 4320 5175
2 1 0 1 0 7 50 -1 -1 0.000 0 0 -1 1 0 2
	1 1 1.00 60.00 120.00
	 6075 4230 6615 5265
2 1 0 1 0 7 50 -1 -1 0.000 0 0 -1 1 0 2
	1 1 1.00 60.00 120.00
	 6795 4230 6840 5175
2 1 0 1 0 7 50 -1 -1 0.000 0 0 -1 1 0 2
	1 1 1.00 60.00 120.00
	 7470 4185 7020 5220
2 1 0 1 0 7 50 -1 -1 0.000 0 0 -1 1 0 2
	1 1 1.00 60.00 120.00
	 8775 4230 9315 5265
2 1 0 1 0 7 50 -1 -1 0.000 0 0 -1 1 0 2
	1 1 1.00 60.00 120.00
	 9495 4230 9540 5175
2 1 0 1 0 7 50 -1 -1 0.000 0 0 -1 1 0 2
	1 1 1.00 60.00 120.00
	 10215 4185 9720 5175
-6
2 2 1 1 0 7 50 -1 -1 4.000 0 0 -1 0 0 5
	 0 0 11115 0 11115 3150 0 3150 0 0
2 2 1 1 0 7 50 -1 -1 4.000 0 0 -1 0 0 5
	 0 3240 11115 3240 11115 6390 0 6390 0 3240
4 0 0 50 -1 0 16 0.0000 4 195 1035 4860 3060 Process 0\001
4 0 0 50 -1 0 16 0.0000 4 195 1035 4905 6300 Process 1\001
