<?xml version="1.0" encoding="UTF-8" standalone="no"?>
<!-- Created with Inkscape (http://www.inkscape.org/) -->
<svg
   xmlns:dc="http://purl.org/dc/elements/1.1/"
   xmlns:cc="http://web.resource.org/cc/"
   xmlns:rdf="http://www.w3.org/1999/02/22-rdf-syntax-ns#"
   xmlns:svg="http://www.w3.org/2000/svg"
   xmlns="http://www.w3.org/2000/svg"
   xmlns:sodipodi="http://sodipodi.sourceforge.net/DTD/sodipodi-0.dtd"
   xmlns:inkscape="http://www.inkscape.org/namespaces/inkscape"
   width="744.09448819"
   height="1052.3622047"
   id="svg2"
   sodipodi:version="0.32"
   inkscape:version="0.45"
   sodipodi:docbase="/PETSc3/petsc/presentations/figures/multigrid"
   sodipodi:docname="MGMemoryAccess_3.svg"
   inkscape:output_extension="org.inkscape.output.svg.inkscape"
   sodipodi:modified="true">
  <sodipodi:namedview
     id="base"
     pagecolor="#ffffff"
     bordercolor="#666666"
     borderopacity="1.0"
     gridtolerance="10000"
     guidetolerance="10"
     objecttolerance="10"
     inkscape:pageopacity="0.0"
     inkscape:pageshadow="2"
     inkscape:zoom="1.4"
     inkscape:cx="364.01697"
     inkscape:cy="798.09756"
     inkscape:document-units="px"
     inkscape:current-layer="layer1"
     inkscape:window-width="1398"
     inkscape:window-height="1015"
     inkscape:window-x="0"
     inkscape:window-y="0" />
  <defs
     id="defs4">
    <marker
       inkscape:stockid="TriangleInL"
       orient="auto"
       refY="0.0"
       refX="0.0"
       id="TriangleInL"
       style="overflow:visible">
      <path
         id="path6366"
         d="M 5.77,0.0 L -2.88,5.0 L -2.88,-5.0 L 5.77,0.0 z "
         style="fill-rule:evenodd;stroke:#000000;stroke-width:1.0pt;marker-start:none"
         transform="scale(-0.8)" />
    </marker>
    <marker
       inkscape:stockid="TriangleOutL"
       orient="auto"
       refY="0.0"
       refX="0.0"
       id="TriangleOutL"
       style="overflow:visible">
      <path
         id="path6357"
         d="M 5.77,0.0 L -2.88,5.0 L -2.88,-5.0 L 5.77,0.0 z "
         style="fill-rule:evenodd;stroke:#000000;stroke-width:1.0pt;marker-start:none"
         transform="scale(0.8)" />
    </marker>
  </defs>
  <metadata
     id="metadata7">
    <rdf:RDF>
      <cc:Work
         rdf:about="">
        <dc:format>image/svg+xml</dc:format>
        <dc:type
           rdf:resource="http://purl.org/dc/dcmitype/StillImage" />
      </cc:Work>
    </rdf:RDF>
  </metadata>
  <g
     inkscape:groupmode="layer"
     id="layer1"
     inkscape:label="Layer 1">
    <text
       id="text2160"
       xml:space="preserve"
       style="font-size:12px;font-style:normal;font-weight:normal;fill:#0a0a0a;fill-opacity:1;stroke:none;stroke-width:1px;stroke-linecap:butt;stroke-linejoin:miter;stroke-opacity:1;font-family:Bitstream Vera Sans"
       x="19.142857"
       y="134.36218"><tspan
         id="tspan2162"
         sodipodi:role="line"
         style="font-size:24px"
         x="19.142857"
         y="134.36218">Processor</tspan></text>
    <text
       id="text2164"
       xml:space="preserve"
       style="font-size:12px;font-style:normal;font-weight:normal;fill:#0a0a0a;fill-opacity:1;stroke:none;stroke-width:1px;stroke-linecap:butt;stroke-linejoin:miter;stroke-opacity:1;font-family:Bitstream Vera Sans"
       x="275"
       y="32.505043"><tspan
         id="tspan2166"
         sodipodi:role="line"
         style="font-size:24px"
         x="275"
         y="32.505043">Memory</tspan></text>
    <rect
       id="rect2168"
       x="21.142857"
       y="150.36218"
       width="125"
       height="182.85715"
       ry="33.959183"
       rx="18.571428"
       style="fill:#00ff00" />
    <rect
       style="fill:#ececec;stroke:#000000;stroke-opacity:1"
       id="rect2242"
       width="98.571426"
       height="72.85714"
       x="277.14285"
       y="52.505043"
       rx="18.571428"
       ry="18.571428" />
    <rect
       style="fill:#ececec;stroke:#000000;stroke-opacity:1"
       id="rect2244"
       width="161.42857"
       height="110.71429"
       x="277.14285"
       y="136.07646"
       rx="18.571428"
       ry="18.571428" />
    <rect
       style="font-size:16px;fill:#ececec;stroke:#000000;stroke-opacity:1"
       id="rect2246"
       width="291.42856"
       height="178.57143"
       x="277.14285"
       y="254.64789"
       rx="18.571428"
       ry="18.571428" />
    <text
       xml:space="preserve"
       style="font-size:16px;font-style:normal;font-weight:normal;fill:#000000;fill-opacity:1;stroke:none;stroke-width:1px;stroke-linecap:butt;stroke-linejoin:miter;stroke-opacity:1;font-family:Bitstream Vera Sans"
       x="292.14285"
       y="69.362183"
       id="text5157"><tspan
         sodipodi:role="line"
         id="tspan5159"
         x="292.14285"
         y="69.362183">x</tspan></text>
    <text
       xml:space="preserve"
       style="font-size:16px;font-style:normal;font-weight:normal;fill:#000000;fill-opacity:1;stroke:none;stroke-width:1px;stroke-linecap:butt;stroke-linejoin:miter;stroke-opacity:1;font-family:Bitstream Vera Sans"
       x="311.42856"
       y="69.505043"
       id="text5161"><tspan
         sodipodi:role="line"
         id="tspan5163"
         x="311.42856"
         y="69.505043">b</tspan></text>
    <text
       xml:space="preserve"
       style="font-size:16px;font-style:normal;font-weight:normal;fill:#000000;fill-opacity:1;stroke:none;stroke-width:1px;stroke-linecap:butt;stroke-linejoin:miter;stroke-opacity:1;font-family:Bitstream Vera Sans"
       x="337.42856"
       y="97.790756"
       id="text5165"><tspan
         sodipodi:role="line"
         id="tspan5167"
         x="337.42856"
         y="97.790756"
         style="font-size:48px">J</tspan></text>
    <text
       xml:space="preserve"
       style="font-size:16px;font-style:normal;font-weight:normal;fill:#000000;fill-opacity:1;stroke:none;stroke-width:1px;stroke-linecap:butt;stroke-linejoin:miter;stroke-opacity:1;font-family:Bitstream Vera Sans"
       x="381.23383"
       y="208.19644"
       id="text5169"><tspan
         sodipodi:role="line"
         id="tspan5171"
         x="381.23383"
         y="208.19644"
         style="font-size:72px">J</tspan></text>
    <text
       xml:space="preserve"
       style="font-size:16px;font-style:normal;font-weight:normal;fill:#000000;fill-opacity:1;stroke:none;stroke-width:1px;stroke-linecap:butt;stroke-linejoin:miter;stroke-opacity:1;font-family:Bitstream Vera Sans"
       x="445.37671"
       y="381.91074"
       id="text5173"><tspan
         sodipodi:role="line"
         id="tspan5175"
         x="445.37671"
         y="381.91074"
         style="font-size:144px">J</tspan></text>
    <text
       xml:space="preserve"
       style="font-size:16px;font-style:normal;font-weight:normal;fill:#000000;fill-opacity:1;stroke:none;stroke-width:1px;stroke-linecap:butt;stroke-linejoin:miter;stroke-opacity:1;font-family:Bitstream Vera Sans"
       x="293.72543"
       y="164.59433"
       id="text5177"><tspan
         sodipodi:role="line"
         id="tspan5179"
         x="293.72543"
         y="164.59433"
         style="font-size:28px">x</tspan></text>
    <text
       xml:space="preserve"
       style="font-size:16px;font-style:normal;font-weight:normal;fill:#000000;fill-opacity:1;stroke:none;stroke-width:1px;stroke-linecap:butt;stroke-linejoin:miter;stroke-opacity:1;font-family:Bitstream Vera Sans"
       x="297.72543"
       y="300.59433"
       id="text5181"><tspan
         sodipodi:role="line"
         id="tspan5183"
         x="297.72543"
         y="300.59433"
         style="font-size:48px">x</tspan></text>
    <text
       xml:space="preserve"
       style="font-size:16px;font-style:normal;font-weight:normal;fill:#000000;fill-opacity:1;stroke:none;stroke-width:1px;stroke-linecap:butt;stroke-linejoin:miter;stroke-opacity:1;font-family:Bitstream Vera Sans"
       x="321.63281"
       y="164.89844"
       id="text5185"><tspan
         sodipodi:role="line"
         id="tspan5187"
         x="321.63281"
         y="164.89844"
         style="font-size:28px">b</tspan></text>
    <text
       xml:space="preserve"
       style="font-size:16px;font-style:normal;font-weight:normal;fill:#000000;fill-opacity:1;stroke:none;stroke-width:1px;stroke-linecap:butt;stroke-linejoin:miter;stroke-opacity:1;font-family:Bitstream Vera Sans"
       x="343.63281"
       y="298.89844"
       id="text5189"><tspan
         sodipodi:role="line"
         id="tspan5191"
         x="343.63281"
         y="298.89844"
         style="font-size:48px">b</tspan></text>
    <path
       style="fill:none;fill-rule:evenodd;stroke:#000000;stroke-width:1px;stroke-linecap:butt;stroke-linejoin:miter;stroke-opacity:1"
       d="M 438.57143,51.07647 L 504.28571,50.36218 L 550,93.21932 L 617.85714,93.79075 L 662.14286,134.6479 L 729.28572,135.21932"
       id="path5193"
       sodipodi:nodetypes="cccccc" />
    <g
       id="g5243"
       transform="translate(2,-108)"
       style="fill:#0000ff">
      <text
         id="text5195"
         y="173.79076"
         x="539.28571"
         style="font-size:16px;font-style:normal;font-weight:normal;fill:#0000ff;fill-opacity:1;stroke:none;stroke-width:1px;stroke-linecap:butt;stroke-linejoin:miter;stroke-opacity:1;font-family:Bitstream Vera Sans"
         xml:space="preserve"><tspan
           y="173.79076"
           x="539.28571"
           id="tspan5197"
           sodipodi:role="line">R</tspan></text>
      <text
         id="text5203"
         y="177.36218"
         x="552.14288"
         style="font-size:16px;font-style:normal;font-weight:normal;fill:#0000ff;fill-opacity:1;stroke:none;stroke-width:1px;stroke-linecap:butt;stroke-linejoin:miter;stroke-opacity:1;font-family:Bitstream Vera Sans"
         xml:space="preserve"><tspan
           style="font-size:12px;fill:#0000ff"
           y="177.36218"
           x="552.14288"
           id="tspan5205"
           sodipodi:role="line">2</tspan></text>
    </g>
    <g
       id="g5249"
       transform="translate(6,-100)"
       style="fill:#0000ff">
      <text
         id="text5199"
         y="208.07648"
         x="650"
         style="font-size:16px;font-style:normal;font-weight:normal;fill:#0000ff;fill-opacity:1;stroke:none;stroke-width:1px;stroke-linecap:butt;stroke-linejoin:miter;stroke-opacity:1;font-family:Bitstream Vera Sans"
         xml:space="preserve"><tspan
           y="208.07648"
           x="650"
           id="tspan5201"
           sodipodi:role="line">R</tspan></text>
      <text
         id="text5207"
         y="212.21931"
         x="661.57141"
         style="font-size:16px;font-style:normal;font-weight:normal;fill:#0000ff;fill-opacity:1;stroke:none;stroke-width:1px;stroke-linecap:butt;stroke-linejoin:miter;stroke-opacity:1;font-family:Bitstream Vera Sans"
         xml:space="preserve"><tspan
           style="font-size:12px;fill:#0000ff"
           y="212.21931"
           x="661.57141"
           id="tspan5209"
           sodipodi:role="line">1</tspan></text>
    </g>
    <text
       xml:space="preserve"
       style="font-size:16px;font-style:normal;font-weight:normal;fill:#ff00ff;fill-opacity:1;stroke:none;stroke-width:1px;stroke-linecap:butt;stroke-linejoin:miter;stroke-opacity:1;font-family:Bitstream Vera Sans"
       x="509.57144"
       y="36.933609"
       id="text5211"><tspan
         sodipodi:role="line"
         id="tspan5213"
         x="509.57144"
         y="36.933609">r</tspan></text>
    <text
       xml:space="preserve"
       style="font-size:16px;font-style:normal;font-weight:normal;fill:#ff00ff;fill-opacity:1;stroke:none;stroke-width:1px;stroke-linecap:butt;stroke-linejoin:miter;stroke-opacity:1;font-family:Bitstream Vera Sans"
       x="622.28571"
       y="79.505043"
       id="text5215"><tspan
         sodipodi:role="line"
         id="tspan5217"
         x="622.28571"
         y="79.505043">r</tspan></text>
    <g
       id="g5255"
       transform="translate(8,-96)"
       style="fill:#ff0000">
      <text
         id="text5219"
         y="173.79076"
         x="454.28571"
         style="font-size:16px;font-style:normal;font-weight:normal;fill:#ff0000;fill-opacity:1;stroke:none;stroke-width:1px;stroke-linecap:butt;stroke-linejoin:miter;stroke-opacity:1;font-family:Bitstream Vera Sans"
         xml:space="preserve"><tspan
           y="173.79076"
           x="454.28571"
           id="tspan5221"
           sodipodi:role="line">S</tspan></text>
      <text
         id="text5223"
         y="177.93361"
         x="466.57144"
         style="font-size:16px;font-style:normal;font-weight:normal;fill:#ff0000;fill-opacity:1;stroke:none;stroke-width:1px;stroke-linecap:butt;stroke-linejoin:miter;stroke-opacity:1;font-family:Bitstream Vera Sans"
         xml:space="preserve"><tspan
           style="font-size:12px;fill:#ff0000"
           y="177.93361"
           x="466.57144"
           id="tspan5225"
           sodipodi:role="line">2</tspan></text>
    </g>
    <g
       id="g5261"
       transform="translate(8,-98)"
       style="fill:#ff0000">
      <text
         id="text5227"
         y="219.50504"
         x="571.42859"
         style="font-size:16px;font-style:normal;font-weight:normal;fill:#ff0000;fill-opacity:1;stroke:none;stroke-width:1px;stroke-linecap:butt;stroke-linejoin:miter;stroke-opacity:1;font-family:Bitstream Vera Sans"
         xml:space="preserve"><tspan
           y="219.50504"
           x="571.42859"
           id="tspan5229"
           sodipodi:role="line">S</tspan></text>
      <text
         id="text5231"
         y="225.50504"
         x="582.28571"
         style="font-size:16px;font-style:normal;font-weight:normal;fill:#ff0000;fill-opacity:1;stroke:none;stroke-width:1px;stroke-linecap:butt;stroke-linejoin:miter;stroke-opacity:1;font-family:Bitstream Vera Sans"
         xml:space="preserve"><tspan
           style="font-size:12px;fill:#ff0000"
           y="225.50504"
           x="582.28571"
           id="tspan5233"
           sodipodi:role="line">1</tspan></text>
    </g>
    <g
       id="g5267"
       transform="translate(10,-96)"
       style="fill:#ff0000">
      <text
         id="text5235"
         y="256.64789"
         x="682.14288"
         style="font-size:16px;font-style:normal;font-weight:normal;fill:#ff0000;fill-opacity:1;stroke:none;stroke-width:1px;stroke-linecap:butt;stroke-linejoin:miter;stroke-opacity:1;font-family:Bitstream Vera Sans"
         xml:space="preserve"><tspan
           y="256.64789"
           x="682.14288"
           id="tspan5237"
           sodipodi:role="line">S</tspan></text>
      <text
         id="text5239"
         y="262.50504"
         x="693.28571"
         style="font-size:16px;font-style:normal;font-weight:normal;fill:#ff0000;fill-opacity:1;stroke:none;stroke-width:1px;stroke-linecap:butt;stroke-linejoin:miter;stroke-opacity:1;font-family:Bitstream Vera Sans"
         xml:space="preserve"><tspan
           style="font-size:12px;fill:#ff0000"
           y="262.50504"
           x="693.28571"
           id="tspan5241"
           sodipodi:role="line">0</tspan></text>
    </g>
    <path
       sodipodi:type="arc"
       style="fill:#0000ff;stroke:#000000;stroke-opacity:1"
       id="path5291"
       sodipodi:cx="470.71429"
       sodipodi:cy="49.862183"
       sodipodi:rx="7.8571429"
       sodipodi:ry="8.2142859"
       d="M 478.57144 49.862183 A 7.8571429 8.2142859 0 1 1  462.85715,49.862183 A 7.8571429 8.2142859 0 1 1  478.57144 49.862183 z"
       transform="translate(170,64)" />
    <path
       style="fill:none;fill-rule:evenodd;stroke:#000000;stroke-width:1.24674344;stroke-linecap:butt;stroke-linejoin:miter;marker-start:none;marker-end:url(#TriangleOutL);stroke-miterlimit:4;stroke-dasharray:none;stroke-opacity:1"
       d="M 128.92653,160.66326 L 283.91981,69.583544"
       id="path8405" />
    <path
       style="fill:none;fill-rule:evenodd;stroke:#000000;stroke-width:1.58399475;stroke-linecap:butt;stroke-linejoin:miter;marker-start:url(#TriangleInL);marker-end:none;stroke-miterlimit:4;stroke-dasharray:none;stroke-opacity:1"
       d="M 132.68079,171.67574 L 288.86208,157.75327"
       id="path10345" />
  </g>
</svg>
