<?xml version="1.0" encoding="UTF-8" standalone="no"?>
<!-- Created with Inkscape (http://www.inkscape.org/) -->
<svg
   xmlns:dc="http://purl.org/dc/elements/1.1/"
   xmlns:cc="http://web.resource.org/cc/"
   xmlns:rdf="http://www.w3.org/1999/02/22-rdf-syntax-ns#"
   xmlns:svg="http://www.w3.org/2000/svg"
   xmlns="http://www.w3.org/2000/svg"
   xmlns:sodipodi="http://sodipodi.sourceforge.net/DTD/sodipodi-0.dtd"
   xmlns:inkscape="http://www.inkscape.org/namespaces/inkscape"
   width="792pt"
   height="612pt"
   id="svg47045"
   sodipodi:version="0.32"
   inkscape:version="0.45.1"
   sodipodi:docbase="/dynamics/Presentations/figures/Concepts"
   sodipodi:docname="BiFibration.svg"
   inkscape:output_extension="org.inkscape.output.svg.inkscape">
  <defs
     id="defs47047" />
  <sodipodi:namedview
     inkscape:document-units="in"
     pagecolor="#ffffff"
     bordercolor="#666666"
     borderopacity="1.0"
     inkscape:pageopacity="0.0"
     inkscape:pageshadow="2"
     inkscape:zoom="1.2279853"
     inkscape:cx="490"
     inkscape:cy="505.0903"
     inkscape:current-layer="layer1"
     id="namedview47049"
     inkscape:window-width="1598"
     inkscape:window-height="1176"
     inkscape:window-x="0"
     inkscape:window-y="0" />
  <metadata
     id="metadata47051">
    <rdf:RDF>
      <cc:Work
         rdf:about="">
        <dc:format>image/svg+xml</dc:format>
        <dc:type
           rdf:resource="http://purl.org/dc/dcmitype/StillImage" />
      </cc:Work>
    </rdf:RDF>
  </metadata>
  <g
     inkscape:label="Layer 1"
     inkscape:groupmode="layer"
     id="layer1">
    <path
       sodipodi:type="arc"
       style="opacity:0.26041667;color:#000000;fill:#008000;fill-opacity:1;fill-rule:nonzero;stroke:#0000c7;stroke-width:0;stroke-linecap:butt;stroke-linejoin:round;marker:none;marker-start:none;marker-mid:none;marker-end:none;stroke-miterlimit:4;stroke-dasharray:none;stroke-dashoffset:0;stroke-opacity:1;visibility:visible;display:inline;overflow:visible;enable-background:accumulate"
       id="path47072"
       sodipodi:cx="249.18866"
       sodipodi:cy="167.27296"
       sodipodi:rx="17.101183"
       sodipodi:ry="35.831047"
       d="M 266.28984 167.27296 A 17.101183 35.831047 0 1 1  232.08748,167.27296 A 17.101183 35.831047 0 1 1  266.28984 167.27296 z"
       transform="matrix(0.9695895,1.3816584e-2,-1.3968568e-2,0.9590399,-177.87943,91.39431)" />
    <path
       sodipodi:type="arc"
       style="opacity:0.26041667;color:#000000;fill:#008000;fill-opacity:1;fill-rule:nonzero;stroke:#0000c7;stroke-width:0;stroke-linecap:butt;stroke-linejoin:round;marker:none;marker-start:none;marker-mid:none;marker-end:none;stroke-miterlimit:4;stroke-dasharray:none;stroke-dashoffset:0;stroke-opacity:1;visibility:visible;display:inline;overflow:visible;enable-background:accumulate"
       id="path47074"
       sodipodi:cx="249.18866"
       sodipodi:cy="167.27296"
       sodipodi:rx="17.101183"
       sodipodi:ry="35.831047"
       d="M 266.28984 167.27296 A 17.101183 35.831047 0 1 1  232.08748,167.27296 A 17.101183 35.831047 0 1 1  266.28984 167.27296 z"
       transform="matrix(0.9695895,1.3816584e-2,-1.3968568e-2,0.9590399,-133.65851,42.187053)" />
    <path
       sodipodi:type="arc"
       style="opacity:0.26041667;color:#000000;fill:#008000;fill-opacity:1;fill-rule:nonzero;stroke:#0000c7;stroke-width:0;stroke-linecap:butt;stroke-linejoin:round;marker:none;marker-start:none;marker-mid:none;marker-end:none;stroke-miterlimit:4;stroke-dasharray:none;stroke-dashoffset:0;stroke-opacity:1;visibility:visible;display:inline;overflow:visible;enable-background:accumulate"
       id="path47076"
       sodipodi:cx="249.18866"
       sodipodi:cy="167.27296"
       sodipodi:rx="17.101183"
       sodipodi:ry="35.831047"
       d="M 266.28984 167.27296 A 17.101183 35.831047 0 1 1  232.08748,167.27296 A 17.101183 35.831047 0 1 1  266.28984 167.27296 z"
       transform="matrix(0.9695895,1.3816584e-2,-1.3968568e-2,0.9590399,-85.489281,56.246269)" />
    <path
       sodipodi:type="arc"
       style="opacity:0.26041667;color:#000000;fill:#008000;fill-opacity:1;fill-rule:nonzero;stroke:#0000c7;stroke-width:0;stroke-linecap:butt;stroke-linejoin:round;marker:none;marker-start:none;marker-mid:none;marker-end:none;stroke-miterlimit:4;stroke-dasharray:none;stroke-dashoffset:0;stroke-opacity:1;visibility:visible;display:inline;overflow:visible;enable-background:accumulate"
       id="path47078"
       sodipodi:cx="249.18866"
       sodipodi:cy="167.27296"
       sodipodi:rx="17.101183"
       sodipodi:ry="35.831047"
       d="M 266.28984 167.27296 A 17.101183 35.831047 0 1 1  232.08748,167.27296 A 17.101183 35.831047 0 1 1  266.28984 167.27296 z"
       transform="matrix(0.9695895,1.3816584e-2,-1.3968568e-2,0.9590399,-203.14853,161.69039)" />
    <path
       sodipodi:type="arc"
       style="opacity:0.26041667;color:#000000;fill:#008000;fill-opacity:1;fill-rule:nonzero;stroke:#0000c7;stroke-width:0;stroke-linecap:butt;stroke-linejoin:round;marker:none;marker-start:none;marker-mid:none;marker-end:none;stroke-miterlimit:4;stroke-dasharray:none;stroke-dashoffset:0;stroke-opacity:1;visibility:visible;display:inline;overflow:visible;enable-background:accumulate"
       id="path47080"
       sodipodi:cx="249.18866"
       sodipodi:cy="167.27296"
       sodipodi:rx="17.101183"
       sodipodi:ry="35.831047"
       d="M 266.28984 167.27296 A 17.101183 35.831047 0 1 1  232.08748,167.27296 A 17.101183 35.831047 0 1 1  266.28984 167.27296 z"
       transform="matrix(0.9695895,1.3816584e-2,-1.3968568e-2,0.9590399,-130.49987,142.16371)" />
    <path
       sodipodi:type="arc"
       style="opacity:0.26041667;color:#000000;fill:#008000;fill-opacity:1;fill-rule:nonzero;stroke:#0000c7;stroke-width:0;stroke-linecap:butt;stroke-linejoin:round;marker:none;marker-start:none;marker-mid:none;marker-end:none;stroke-miterlimit:4;stroke-dasharray:none;stroke-dashoffset:0;stroke-opacity:1;visibility:visible;display:inline;overflow:visible;enable-background:accumulate"
       id="path47082"
       sodipodi:cx="249.18866"
       sodipodi:cy="167.27296"
       sodipodi:rx="17.101183"
       sodipodi:ry="35.831047"
       d="M 266.28984 167.27296 A 17.101183 35.831047 0 1 1  232.08748,167.27296 A 17.101183 35.831047 0 1 1  266.28984 167.27296 z"
       transform="matrix(0.9695895,1.3816584e-2,-1.3968568e-2,0.9590399,-73.64439,153.87972)" />
    <path
       sodipodi:type="arc"
       style="opacity:0.26041667;color:#000000;fill:#008000;fill-opacity:1;fill-rule:nonzero;stroke:#0000c7;stroke-width:0;stroke-linecap:butt;stroke-linejoin:round;marker:none;marker-start:none;marker-mid:none;marker-end:none;stroke-miterlimit:4;stroke-dasharray:none;stroke-dashoffset:0;stroke-opacity:1;visibility:visible;display:inline;overflow:visible;enable-background:accumulate"
       id="path47084"
       sodipodi:cx="249.18866"
       sodipodi:cy="167.27296"
       sodipodi:rx="17.101183"
       sodipodi:ry="35.831047"
       d="M 266.28984 167.27296 A 17.101183 35.831047 0 1 1  232.08748,167.27296 A 17.101183 35.831047 0 1 1  266.28984 167.27296 z"
       transform="matrix(0.9695895,1.3816584e-2,-1.3968568e-2,0.9590399,-181.82772,244.48355)" />
    <path
       sodipodi:type="arc"
       style="opacity:0.26041667;color:#000000;fill:#008000;fill-opacity:1;fill-rule:nonzero;stroke:#0000c7;stroke-width:0;stroke-linecap:butt;stroke-linejoin:round;marker:none;marker-start:none;marker-mid:none;marker-end:none;stroke-miterlimit:4;stroke-dasharray:none;stroke-dashoffset:0;stroke-opacity:1;visibility:visible;display:inline;overflow:visible;enable-background:accumulate"
       id="path47086"
       sodipodi:cx="249.18866"
       sodipodi:cy="167.27296"
       sodipodi:rx="17.101183"
       sodipodi:ry="35.831047"
       d="M 266.28984 167.27296 A 17.101183 35.831047 0 1 1  232.08748,167.27296 A 17.101183 35.831047 0 1 1  266.28984 167.27296 z"
       transform="matrix(0.9695895,1.3816584e-2,-1.3968568e-2,0.9590399,-121.81361,228.8622)" />
    <path
       sodipodi:type="arc"
       style="opacity:0.26041667;color:#000000;fill:#008000;fill-opacity:1;fill-rule:nonzero;stroke:#0000c7;stroke-width:0;stroke-linecap:butt;stroke-linejoin:round;marker:none;marker-start:none;marker-mid:none;marker-end:none;stroke-miterlimit:4;stroke-dasharray:none;stroke-dashoffset:0;stroke-opacity:1;visibility:visible;display:inline;overflow:visible;enable-background:accumulate"
       id="path47088"
       sodipodi:cx="249.18866"
       sodipodi:cy="167.27296"
       sodipodi:rx="17.101183"
       sodipodi:ry="35.831047"
       d="M 266.28984 167.27296 A 17.101183 35.831047 0 1 1  232.08748,167.27296 A 17.101183 35.831047 0 1 1  266.28984 167.27296 z"
       transform="matrix(0.9695895,1.3816584e-2,-1.3968568e-2,0.9590399,-35.740739,95.299647)" />
    <path
       sodipodi:type="arc"
       style="opacity:0.26041667;color:#000000;fill:#008000;fill-opacity:1;fill-rule:nonzero;stroke:#0000c7;stroke-width:0;stroke-linecap:butt;stroke-linejoin:round;marker:none;marker-start:none;marker-mid:none;marker-end:none;stroke-miterlimit:4;stroke-dasharray:none;stroke-dashoffset:0;stroke-opacity:1;visibility:visible;display:inline;overflow:visible;enable-background:accumulate"
       id="path47090"
       sodipodi:cx="249.18866"
       sodipodi:cy="167.27296"
       sodipodi:rx="17.101183"
       sodipodi:ry="35.831047"
       d="M 266.28984 167.27296 A 17.101183 35.831047 0 1 1  232.08748,167.27296 A 17.101183 35.831047 0 1 1  266.28984 167.27296 z"
       transform="matrix(0.9695895,1.3816584e-2,-1.3968568e-2,0.9590399,-46.79597,218.70833)" />
    <path
       sodipodi:type="arc"
       style="opacity:0.26041667;color:#000000;fill:#008000;fill-opacity:1;fill-rule:nonzero;stroke:#0000c7;stroke-width:0;stroke-linecap:butt;stroke-linejoin:round;marker:none;marker-start:none;marker-mid:none;marker-end:none;stroke-miterlimit:4;stroke-dasharray:none;stroke-dashoffset:0;stroke-opacity:1;visibility:visible;display:inline;overflow:visible;enable-background:accumulate"
       id="path47092"
       sodipodi:cx="249.18866"
       sodipodi:cy="167.27296"
       sodipodi:rx="17.101183"
       sodipodi:ry="35.831047"
       d="M 266.28984 167.27296 A 17.101183 35.831047 0 1 1  232.08748,167.27296 A 17.101183 35.831047 0 1 1  266.28984 167.27296 z"
       transform="matrix(0.9695895,1.3816584e-2,-1.3968568e-2,0.9590399,-3.3647034,151.53652)" />
    <g
       id="g2276">
      <path
         inkscape:connector-type="polyline"
         id="path47098"
         d="M 665.48414,110.7612 L 396.21029,352.89214"
         style="fill:none;fill-rule:evenodd;stroke:#000000;stroke-width:0.96440035;stroke-linecap:butt;stroke-linejoin:miter;stroke-miterlimit:4;stroke-dasharray:3.85760152, 3.85760152;stroke-dashoffset:0;stroke-opacity:1" />
      <path
         sodipodi:nodetypes="cc"
         inkscape:connector-type="polyline"
         id="path49042"
         d="M 715.62752,157.62525 L 393.44649,452.86881"
         style="fill:none;fill-rule:evenodd;stroke:#000000;stroke-width:0.96440035;stroke-linecap:butt;stroke-linejoin:miter;stroke-miterlimit:4;stroke-dasharray:none;stroke-dashoffset:0;stroke-opacity:1" />
      <path
         inkscape:connector-type="polyline"
         id="path49044"
         d="M 763.79675,208.39464 L 494.5229,450.52559"
         style="fill:none;fill-rule:evenodd;stroke:#000000;stroke-width:0.96440035;stroke-linecap:butt;stroke-linejoin:miter;stroke-miterlimit:4;stroke-dasharray:3.85760152, 3.85760152;stroke-dashoffset:0;stroke-opacity:1" />
      <path
         sodipodi:nodetypes="cc"
         inkscape:connector-type="polyline"
         id="path49046"
         d="M 821.44188,254.47763 L 496.89187,546.59691"
         style="fill:none;fill-rule:evenodd;stroke:#000000;stroke-width:0.96440035;stroke-linecap:butt;stroke-linejoin:miter;stroke-miterlimit:4;stroke-dasharray:none;stroke-dashoffset:0;stroke-opacity:1" />
      <path
         transform="matrix(0.6862788,0.6776157,-0.6850696,0.6788118,423.49492,-46.669009)"
         d="M 266.28984 167.27296 A 17.101183 35.831047 0 1 1  232.08748,167.27296 A 17.101183 35.831047 0 1 1  266.28984 167.27296 z"
         sodipodi:ry="35.831047"
         sodipodi:rx="17.101183"
         sodipodi:cy="167.27296"
         sodipodi:cx="249.18866"
         id="path47066"
         style="opacity:0.26041667;color:#000000;fill:#008000;fill-opacity:1;fill-rule:nonzero;stroke:#0000c7;stroke-width:0;stroke-linecap:butt;stroke-linejoin:round;marker:none;marker-start:none;marker-mid:none;marker-end:none;stroke-miterlimit:4;stroke-dasharray:none;stroke-dashoffset:0;stroke-opacity:1;visibility:visible;display:inline;overflow:visible;enable-background:accumulate"
         sodipodi:type="arc" />
      <text
         transform="matrix(0.8200046,-0.5755559,0.5818871,0.8110826,0,0)"
         sodipodi:linespacing="125%"
         id="text49048"
         y="479.11319"
         x="224.42104"
         style="font-size:46.2912178px;font-style:normal;font-variant:normal;font-weight:bold;font-stretch:normal;text-align:start;line-height:125%;writing-mode:lr-tb;text-anchor:start;fill:#000000;fill-opacity:1;stroke:none;stroke-width:1px;stroke-linecap:butt;stroke-linejoin:miter;stroke-opacity:1;font-family:Bitstream Vera Sans"
         xml:space="preserve"><tspan
           style="font-size:15.43040562px;fill:#ff0000"
           y="479.11319"
           x="224.42104"
           id="tspan49050"
           sodipodi:role="line">x,0</tspan></text>
      <path
         sodipodi:nodetypes="cc"
         inkscape:connector-type="polyline"
         id="path50994"
         d="M 880.66633,313.83877 L 556.11633,605.95805"
         style="fill:none;fill-rule:evenodd;stroke:#000000;stroke-width:0.96440035;stroke-linecap:butt;stroke-linejoin:miter;stroke-miterlimit:4;stroke-dasharray:none;stroke-dashoffset:0;stroke-opacity:1" />
      <text
         transform="matrix(0.7286242,0.6853584,-0.6928974,0.7206965,0,0)"
         sodipodi:linespacing="125%"
         id="text52113"
         y="-167.43788"
         x="500.63763"
         style="font-size:46.2912178px;font-style:normal;font-variant:normal;font-weight:bold;font-stretch:normal;text-align:start;line-height:125%;writing-mode:lr-tb;text-anchor:start;fill:#0000ff;fill-opacity:1;stroke:none;stroke-width:1px;stroke-linecap:butt;stroke-linejoin:miter;stroke-opacity:1;font-family:Bitstream Vera Sans"
         xml:space="preserve"><tspan
           style="font-size:15.43040562px;fill:#0000ff"
           y="-167.43788"
           x="500.63763"
           id="tspan52115"
           sodipodi:role="line">I,a</tspan></text>
      <path
         sodipodi:nodetypes="cc"
         inkscape:connector-type="polyline"
         id="path50996"
         d="M 615.73561,57.648598 L 293.55458,352.89216"
         style="fill:none;fill-rule:evenodd;stroke:#000000;stroke-width:0.96440035;stroke-linecap:butt;stroke-linejoin:miter;stroke-miterlimit:4;stroke-dasharray:none;stroke-dashoffset:0;stroke-opacity:1" />
      <text
         transform="scale(1.005485,0.9945449)"
         sodipodi:linespacing="125%"
         id="text50998"
         y="408.23169"
         x="332.00613"
         style="font-size:46.2912178px;font-style:normal;font-variant:normal;font-weight:bold;font-stretch:normal;text-align:start;line-height:125%;writing-mode:lr-tb;text-anchor:start;fill:#000000;fill-opacity:1;stroke:none;stroke-width:1px;stroke-linecap:butt;stroke-linejoin:miter;stroke-opacity:1;font-family:Bitstream Vera Sans"
         xml:space="preserve"><tspan
           style="fill:#ff0000"
           y="408.23169"
           x="332.00613"
           id="tspan51000"
           sodipodi:role="line">x</tspan></text>
      <text
         transform="scale(1.005485,0.9945449)"
         sodipodi:linespacing="125%"
         id="text51002"
         y="511.20486"
         x="423.09924"
         style="font-size:46.2912178px;font-style:normal;font-variant:normal;font-weight:bold;font-stretch:normal;text-align:start;line-height:125%;writing-mode:lr-tb;text-anchor:start;fill:#000000;fill-opacity:1;stroke:none;stroke-width:1px;stroke-linecap:butt;stroke-linejoin:miter;stroke-opacity:1;font-family:Bitstream Vera Sans"
         xml:space="preserve"><tspan
           style="fill:#ff0000"
           y="511.20486"
           x="423.09924"
           id="tspan51004"
           sodipodi:role="line">y</tspan></text>
      <text
         transform="scale(1.005485,0.9945449)"
         sodipodi:linespacing="125%"
         id="text51006"
         y="599.94965"
         x="501.63443"
         style="font-size:46.2912178px;font-style:normal;font-variant:normal;font-weight:bold;font-stretch:normal;text-align:start;line-height:125%;writing-mode:lr-tb;text-anchor:start;fill:#000000;fill-opacity:1;stroke:none;stroke-width:1px;stroke-linecap:butt;stroke-linejoin:miter;stroke-opacity:1;font-family:Bitstream Vera Sans"
         xml:space="preserve"><tspan
           style="fill:#ff0000"
           y="599.94965"
           x="501.63443"
           id="tspan51008"
           sodipodi:role="line">z</tspan></text>
      <g
         transform="matrix(0.9696901,0,0,0.9591395,22.701394,68.264295)"
         id="g51081">
        <path
           sodipodi:type="arc"
           style="opacity:0.26041667;color:#000000;fill:#008000;fill-opacity:1;fill-rule:nonzero;stroke:#0000c7;stroke-width:0;stroke-linecap:butt;stroke-linejoin:round;marker:none;marker-start:none;marker-mid:none;marker-end:none;stroke-miterlimit:4;stroke-dasharray:none;stroke-dashoffset:0;stroke-opacity:1;visibility:visible;display:inline;overflow:visible;enable-background:accumulate"
           id="path47060"
           sodipodi:cx="249.18866"
           sodipodi:cy="167.27296"
           sodipodi:rx="17.101183"
           sodipodi:ry="35.831047"
           d="M 266.28984 167.27296 A 17.101183 35.831047 0 1 1  232.08748,167.27296 A 17.101183 35.831047 0 1 1  266.28984 167.27296 z"
           transform="matrix(0.70773,0.706483,-0.706483,0.70773,489.86939,-191.4917)" />
        <text
           xml:space="preserve"
           style="font-size:48px;font-style:normal;font-variant:normal;font-weight:bold;font-stretch:normal;text-align:start;line-height:125%;writing-mode:lr-tb;text-anchor:start;fill:#000000;fill-opacity:1;stroke:none;stroke-width:1px;stroke-linecap:butt;stroke-linejoin:miter;stroke-opacity:1;font-family:Bitstream Vera Sans"
           x="358.33792"
           y="408.9989"
           id="text51016"
           sodipodi:linespacing="125%"
           transform="matrix(0.8155314,-0.5787128,0.5787128,0.8155314,0,0)"><tspan
             sodipodi:role="line"
             id="tspan51018"
             x="358.33792"
             y="408.9989"
             style="font-size:16px;fill:#ff0000">x,0</tspan></text>
      </g>
      <g
         transform="matrix(0.9696901,0,0,0.9591395,30.597988,69.82643)"
         id="g51086">
        <path
           sodipodi:type="arc"
           style="opacity:0.26041667;color:#000000;fill:#008000;fill-opacity:1;fill-rule:nonzero;stroke:#0000c7;stroke-width:0;stroke-linecap:butt;stroke-linejoin:round;marker:none;marker-start:none;marker-mid:none;marker-end:none;stroke-miterlimit:4;stroke-dasharray:none;stroke-dashoffset:0;stroke-opacity:1;visibility:visible;display:inline;overflow:visible;enable-background:accumulate"
           id="path47054"
           sodipodi:cx="249.18866"
           sodipodi:cy="167.27296"
           sodipodi:rx="17.101183"
           sodipodi:ry="35.831047"
           d="M 266.28984 167.27296 A 17.101183 35.831047 0 1 1  232.08748,167.27296 A 17.101183 35.831047 0 1 1  266.28984 167.27296 z"
           transform="matrix(0.70773,0.706483,-0.706483,0.70773,558.27411,-255.01038)" />
        <text
           xml:space="preserve"
           style="font-size:48px;font-style:normal;font-variant:normal;font-weight:bold;font-stretch:normal;text-align:start;line-height:125%;writing-mode:lr-tb;text-anchor:start;fill:#000000;fill-opacity:1;stroke:none;stroke-width:1px;stroke-linecap:butt;stroke-linejoin:miter;stroke-opacity:1;font-family:Bitstream Vera Sans"
           x="451.54733"
           y="397.2554"
           id="text51020"
           sodipodi:linespacing="125%"
           transform="matrix(0.8155314,-0.5787128,0.5787128,0.8155314,0,0)"><tspan
             sodipodi:role="line"
             id="tspan51022"
             x="451.54733"
             y="397.2554"
             style="font-size:16px;fill:#ff0000">x,0</tspan></text>
      </g>
      <g
         transform="matrix(0.9696901,0,0,0.9591395,19.542757,77.637106)"
         id="g51091">
        <path
           sodipodi:type="arc"
           style="opacity:0.26041667;color:#000000;fill:#008000;fill-opacity:1;fill-rule:nonzero;stroke:#0000c7;stroke-width:0;stroke-linecap:butt;stroke-linejoin:round;marker:none;marker-start:none;marker-mid:none;marker-end:none;stroke-miterlimit:4;stroke-dasharray:none;stroke-dashoffset:0;stroke-opacity:1;visibility:visible;display:inline;overflow:visible;enable-background:accumulate"
           id="path47068"
           sodipodi:cx="249.18866"
           sodipodi:cy="167.27296"
           sodipodi:rx="17.101183"
           sodipodi:ry="35.831047"
           d="M 266.28984 167.27296 A 17.101183 35.831047 0 1 1  232.08748,167.27296 A 17.101183 35.831047 0 1 1  266.28984 167.27296 z"
           transform="matrix(0.70773,0.706483,-0.706483,0.70773,463.81044,-73.412109)" />
        <text
           xml:space="preserve"
           style="font-size:48px;font-style:normal;font-variant:normal;font-weight:bold;font-stretch:normal;text-align:start;line-height:125%;writing-mode:lr-tb;text-anchor:start;fill:#000000;fill-opacity:1;stroke:none;stroke-width:1px;stroke-linecap:butt;stroke-linejoin:miter;stroke-opacity:1;font-family:Bitstream Vera Sans"
           x="267.61646"
           y="490.40872"
           id="text51024"
           sodipodi:linespacing="125%"
           transform="matrix(0.8155314,-0.5787128,0.5787128,0.8155314,0,0)"><tspan
             sodipodi:role="line"
             id="tspan51026"
             x="267.61646"
             y="490.40872"
             style="font-size:16px;fill:#ff0000">x,1</tspan></text>
      </g>
      <g
         transform="matrix(0.9696901,0,0,0.9591395,86.663806,18.27597)"
         id="g51096">
        <path
           sodipodi:type="arc"
           style="opacity:0.26041667;color:#000000;fill:#008000;fill-opacity:1;fill-rule:nonzero;stroke:#0000c7;stroke-width:0;stroke-linecap:butt;stroke-linejoin:round;marker:none;marker-start:none;marker-mid:none;marker-end:none;stroke-miterlimit:4;stroke-dasharray:none;stroke-dashoffset:0;stroke-opacity:1;visibility:visible;display:inline;overflow:visible;enable-background:accumulate"
           id="path47062"
           sodipodi:cx="249.18866"
           sodipodi:cy="167.27296"
           sodipodi:rx="17.101183"
           sodipodi:ry="35.831047"
           d="M 266.28984 167.27296 A 17.101183 35.831047 0 1 1  232.08748,167.27296 A 17.101183 35.831047 0 1 1  266.28984 167.27296 z"
           transform="matrix(0.70773,0.706483,-0.706483,0.70773,550.1307,-153.21763)" />
        <text
           xml:space="preserve"
           style="font-size:48px;font-style:normal;font-variant:normal;font-weight:bold;font-stretch:normal;text-align:start;line-height:125%;writing-mode:lr-tb;text-anchor:start;fill:#000000;fill-opacity:1;stroke:none;stroke-width:1px;stroke-linecap:butt;stroke-linejoin:miter;stroke-opacity:1;font-family:Bitstream Vera Sans"
           x="383.53369"
           y="474.80817"
           id="text51028"
           sodipodi:linespacing="125%"
           transform="matrix(0.8155314,-0.5787128,0.5787128,0.8155314,0,0)"><tspan
             sodipodi:role="line"
             id="tspan51030"
             x="383.53369"
             y="474.80817"
             style="font-size:16px;fill:#ff0000">x,1</tspan></text>
      </g>
      <g
         transform="matrix(0.9696901,0,0,0.9591395,82.715509,25.305577)"
         id="g51126">
        <path
           sodipodi:type="arc"
           style="opacity:0.26041667;color:#000000;fill:#008000;fill-opacity:1;fill-rule:nonzero;stroke:#0000c7;stroke-width:0;stroke-linecap:butt;stroke-linejoin:round;marker:none;marker-start:none;marker-mid:none;marker-end:none;stroke-miterlimit:4;stroke-dasharray:none;stroke-dashoffset:0;stroke-opacity:1;visibility:visible;display:inline;overflow:visible;enable-background:accumulate"
           id="path47096"
           sodipodi:cx="249.18866"
           sodipodi:cy="167.27296"
           sodipodi:rx="17.101183"
           sodipodi:ry="35.831047"
           d="M 266.28984 167.27296 A 17.101183 35.831047 0 1 1  232.08748,167.27296 A 17.101183 35.831047 0 1 1  266.28984 167.27296 z"
           transform="matrix(0.70773,0.706483,-0.706483,0.70773,627.49319,75.612483)" />
        <text
           xml:space="preserve"
           style="font-size:48px;font-style:normal;font-variant:normal;font-weight:bold;font-stretch:normal;text-align:start;line-height:125%;writing-mode:lr-tb;text-anchor:start;fill:#000000;fill-opacity:1;stroke:none;stroke-width:1px;stroke-linecap:butt;stroke-linejoin:miter;stroke-opacity:1;font-family:Bitstream Vera Sans"
           x="316.26901"
           y="706.44312"
           id="text51032"
           sodipodi:linespacing="125%"
           transform="matrix(0.8155314,-0.5787128,0.5787128,0.8155314,0,0)"><tspan
             sodipodi:role="line"
             id="tspan51034"
             x="316.26901"
             y="706.44312"
             style="font-size:16px;fill:#ff0000">z,1</tspan></text>
      </g>
      <g
         transform="matrix(0.9696901,0,0,0.9591395,-24.678169,112.78515)"
         id="g51101">
        <path
           sodipodi:type="arc"
           style="opacity:0.26041667;color:#000000;fill:#008000;fill-opacity:1;fill-rule:nonzero;stroke:#0000c7;stroke-width:0;stroke-linecap:butt;stroke-linejoin:round;marker:none;marker-start:none;marker-mid:none;marker-end:none;stroke-miterlimit:4;stroke-dasharray:none;stroke-dashoffset:0;stroke-opacity:1;visibility:visible;display:inline;overflow:visible;enable-background:accumulate"
           id="path47070"
           sodipodi:cx="249.18866"
           sodipodi:cy="167.27296"
           sodipodi:rx="17.101183"
           sodipodi:ry="35.831047"
           d="M 266.28984 167.27296 A 17.101183 35.831047 0 1 1  232.08748,167.27296 A 17.101183 35.831047 0 1 1  266.28984 167.27296 z"
           transform="matrix(0.70773,0.706483,-0.706483,0.70773,497.19847,-2.5643535)" />
        <text
           xml:space="preserve"
           style="font-size:48px;font-style:normal;font-variant:normal;font-weight:bold;font-stretch:normal;text-align:start;line-height:125%;writing-mode:lr-tb;text-anchor:start;fill:#000000;fill-opacity:1;stroke:none;stroke-width:1px;stroke-linecap:butt;stroke-linejoin:miter;stroke-opacity:1;font-family:Bitstream Vera Sans"
           x="255.44438"
           y="568.41968"
           id="text51036"
           sodipodi:linespacing="125%"
           transform="matrix(0.8155314,-0.5787128,0.5787128,0.8155314,0,0)"><tspan
             sodipodi:role="line"
             id="tspan51038"
             x="255.44438"
             y="568.41968"
             style="font-size:16px;fill:#ff0000">y,2</tspan></text>
      </g>
      <g
         transform="matrix(0.9696901,0,0,0.9591395,44.022198,52.642943)"
         id="g51106">
        <path
           sodipodi:type="arc"
           style="opacity:0.26041667;color:#000000;fill:#008000;fill-opacity:1;fill-rule:nonzero;stroke:#0000c7;stroke-width:0;stroke-linecap:butt;stroke-linejoin:round;marker:none;marker-start:none;marker-mid:none;marker-end:none;stroke-miterlimit:4;stroke-dasharray:none;stroke-dashoffset:0;stroke-opacity:1;visibility:visible;display:inline;overflow:visible;enable-background:accumulate"
           id="path47064"
           sodipodi:cx="249.18866"
           sodipodi:cy="167.27296"
           sodipodi:rx="17.101183"
           sodipodi:ry="35.831047"
           d="M 266.28984 167.27296 A 17.101183 35.831047 0 1 1  232.08748,167.27296 A 17.101183 35.831047 0 1 1  266.28984 167.27296 z"
           transform="matrix(0.70773,0.706483,-0.706483,0.70773,559.9028,-63.640004)" />
        <text
           xml:space="preserve"
           style="font-size:48px;font-style:normal;font-variant:normal;font-weight:bold;font-stretch:normal;text-align:start;line-height:125%;writing-mode:lr-tb;text-anchor:start;fill:#000000;fill-opacity:1;stroke:none;stroke-width:1px;stroke-linecap:butt;stroke-linejoin:miter;stroke-opacity:1;font-family:Bitstream Vera Sans"
           x="343.42258"
           y="553.82019"
           id="text51040"
           sodipodi:linespacing="125%"
           transform="matrix(0.8155314,-0.5787128,0.5787128,0.8155314,0,0)"><tspan
             sodipodi:role="line"
             id="tspan51042"
             x="343.42258"
             y="553.82019"
             style="font-size:16px;fill:#ff0000">y,2</tspan></text>
      </g>
      <g
         transform="matrix(0.9696901,0,0,0.9591395,42.442879,58.110416)"
         id="g51111">
        <path
           sodipodi:type="arc"
           style="opacity:0.26041667;color:#000000;fill:#008000;fill-opacity:1;fill-rule:nonzero;stroke:#0000c7;stroke-width:0;stroke-linecap:butt;stroke-linejoin:round;marker:none;marker-start:none;marker-mid:none;marker-end:none;stroke-miterlimit:4;stroke-dasharray:none;stroke-dashoffset:0;stroke-opacity:1;visibility:visible;display:inline;overflow:visible;enable-background:accumulate"
           id="path47058"
           sodipodi:cx="249.18866"
           sodipodi:cy="167.27296"
           sodipodi:rx="17.101183"
           sodipodi:ry="35.831047"
           d="M 266.28984 167.27296 A 17.101183 35.831047 0 1 1  232.08748,167.27296 A 17.101183 35.831047 0 1 1  266.28984 167.27296 z"
           transform="matrix(0.70773,0.706483,-0.706483,0.70773,642.15134,-141.81684)" />
        <text
           xml:space="preserve"
           style="font-size:48px;font-style:normal;font-variant:normal;font-weight:bold;font-stretch:normal;text-align:start;line-height:125%;writing-mode:lr-tb;text-anchor:start;fill:#000000;fill-opacity:1;stroke:none;stroke-width:1px;stroke-linecap:butt;stroke-linejoin:miter;stroke-opacity:1;font-family:Bitstream Vera Sans"
           x="453.94125"
           y="537.3844"
           id="text51044"
           sodipodi:linespacing="125%"
           transform="matrix(0.8155314,-0.5787128,0.5787128,0.8155314,0,0)"><tspan
             sodipodi:role="line"
             id="tspan51046"
             x="453.94125"
             y="537.3844"
             style="font-size:16px;fill:#ff0000">y,2</tspan></text>
      </g>
      <g
         transform="matrix(0.9696901,0,0,0.9591395,-6.5160034,103.41234)"
         id="g51116">
        <path
           sodipodi:type="arc"
           style="opacity:0.26041667;color:#000000;fill:#008000;fill-opacity:1;fill-rule:nonzero;stroke:#0000c7;stroke-width:0;stroke-linecap:butt;stroke-linejoin:round;marker:none;marker-start:none;marker-mid:none;marker-end:none;stroke-miterlimit:4;stroke-dasharray:none;stroke-dashoffset:0;stroke-opacity:1;visibility:visible;display:inline;overflow:visible;enable-background:accumulate"
           id="path47094"
           sodipodi:cx="249.18866"
           sodipodi:cy="167.27296"
           sodipodi:rx="17.101183"
           sodipodi:ry="35.831047"
           d="M 266.28984 167.27296 A 17.101183 35.831047 0 1 1  232.08748,167.27296 A 17.101183 35.831047 0 1 1  266.28984 167.27296 z"
           transform="matrix(0.70773,0.706483,-0.706483,0.70773,583.51872,2.3217015)" />
        <text
           xml:space="preserve"
           style="font-size:48px;font-style:normal;font-variant:normal;font-weight:bold;font-stretch:normal;text-align:start;line-height:125%;writing-mode:lr-tb;text-anchor:start;fill:#000000;fill-opacity:1;stroke:none;stroke-width:1px;stroke-linecap:butt;stroke-linejoin:miter;stroke-opacity:1;font-family:Bitstream Vera Sans"
           x="322.43127"
           y="622.802"
           id="text51048"
           sodipodi:linespacing="125%"
           transform="matrix(0.8155314,-0.5787128,0.5787128,0.8155314,0,0)"><tspan
             sodipodi:role="line"
             id="tspan51050"
             x="322.43127"
             y="622.802"
             style="font-size:16px;fill:#ff0000">y,3</tspan></text>
      </g>
      <g
         transform="matrix(0.9696901,0,0,0.9591395,86.663805,21.400239)"
         id="g51121">
        <path
           sodipodi:type="arc"
           style="opacity:0.26041667;color:#000000;fill:#008000;fill-opacity:1;fill-rule:nonzero;stroke:#0000c7;stroke-width:0;stroke-linecap:butt;stroke-linejoin:round;marker:none;marker-start:none;marker-mid:none;marker-end:none;stroke-miterlimit:4;stroke-dasharray:none;stroke-dashoffset:0;stroke-opacity:1;visibility:visible;display:inline;overflow:visible;enable-background:accumulate"
           id="path47056"
           sodipodi:cx="249.18866"
           sodipodi:cy="167.27296"
           sodipodi:rx="17.101183"
           sodipodi:ry="35.831047"
           d="M 266.28984 167.27296 A 17.101183 35.831047 0 1 1  232.08748,167.27296 A 17.101183 35.831047 0 1 1  266.28984 167.27296 z"
           transform="matrix(0.70773,0.706483,-0.706483,0.70773,645.4087,-51.424869)" />
        <text
           xml:space="preserve"
           style="font-size:48px;font-style:normal;font-variant:normal;font-weight:bold;font-stretch:normal;text-align:start;line-height:125%;writing-mode:lr-tb;text-anchor:start;fill:#000000;fill-opacity:1;stroke:none;stroke-width:1px;stroke-linecap:butt;stroke-linejoin:miter;stroke-opacity:1;font-family:Bitstream Vera Sans"
           x="404.17468"
           y="612.94897"
           id="text51052"
           sodipodi:linespacing="125%"
           transform="matrix(0.8155314,-0.5787128,0.5787128,0.8155314,0,0)"><tspan
             sodipodi:role="line"
             id="tspan51054"
             x="404.17468"
             y="612.94897"
             style="font-size:16px;fill:#ff0000">y,3</tspan></text>
      </g>
      <text
         transform="scale(1.005485,0.9945449)"
         sodipodi:linespacing="125%"
         id="text51056"
         y="336.76468"
         x="361.06415"
         style="font-size:46.2912178px;font-style:normal;font-variant:normal;font-weight:bold;font-stretch:normal;text-align:start;line-height:125%;writing-mode:lr-tb;text-anchor:start;fill:#000000;fill-opacity:1;stroke:none;stroke-width:1px;stroke-linecap:butt;stroke-linejoin:miter;stroke-opacity:1;font-family:Bitstream Vera Sans"
         xml:space="preserve"><tspan
           style="font-size:23.1456089px;fill:#ff0000"
           y="336.76468"
           x="361.06415"
           id="tspan51058"
           sodipodi:role="line">0</tspan></text>
      <text
         transform="scale(1.005485,0.9945449)"
         sodipodi:linespacing="125%"
         id="text51060"
         y="386.81363"
         x="407.98639"
         style="font-size:46.2912178px;font-style:normal;font-variant:normal;font-weight:bold;font-stretch:normal;text-align:start;line-height:125%;writing-mode:lr-tb;text-anchor:start;fill:#000000;fill-opacity:1;stroke:none;stroke-width:1px;stroke-linecap:butt;stroke-linejoin:miter;stroke-opacity:1;font-family:Bitstream Vera Sans"
         xml:space="preserve"><tspan
           style="font-size:23.1456089px;fill:#ff0000"
           y="386.81363"
           x="407.98639"
           id="tspan51062"
           sodipodi:role="line">1</tspan></text>
      <text
         transform="scale(1.005485,0.9945449)"
         sodipodi:linespacing="125%"
         id="text51064"
         y="435.50543"
         x="457.46356"
         style="font-size:46.2912178px;font-style:normal;font-variant:normal;font-weight:bold;font-stretch:normal;text-align:start;line-height:125%;writing-mode:lr-tb;text-anchor:start;fill:#000000;fill-opacity:1;stroke:none;stroke-width:1px;stroke-linecap:butt;stroke-linejoin:miter;stroke-opacity:1;font-family:Bitstream Vera Sans"
         xml:space="preserve"><tspan
           style="font-size:23.1456089px;fill:#ff0000"
           y="435.50543"
           x="457.46356"
           id="tspan51066"
           sodipodi:role="line">2</tspan></text>
      <text
         transform="scale(1.005485,0.9945449)"
         sodipodi:linespacing="125%"
         id="text51068"
         y="484.19724"
         x="510.08209"
         style="font-size:46.2912178px;font-style:normal;font-variant:normal;font-weight:bold;font-stretch:normal;text-align:start;line-height:125%;writing-mode:lr-tb;text-anchor:start;fill:#000000;fill-opacity:1;stroke:none;stroke-width:1px;stroke-linecap:butt;stroke-linejoin:miter;stroke-opacity:1;font-family:Bitstream Vera Sans"
         xml:space="preserve"><tspan
           style="font-size:23.1456089px;fill:#ff0000"
           y="484.19724"
           x="510.08209"
           id="tspan51070"
           sodipodi:role="line">3</tspan></text>
      <text
         transform="scale(1.005485,0.9945449)"
         sodipodi:linespacing="125%"
         id="text51072"
         y="547.02539"
         x="563.48608"
         style="font-size:46.2912178px;font-style:normal;font-variant:normal;font-weight:bold;font-stretch:normal;text-align:start;line-height:125%;writing-mode:lr-tb;text-anchor:start;fill:#000000;fill-opacity:1;stroke:none;stroke-width:1px;stroke-linecap:butt;stroke-linejoin:miter;stroke-opacity:1;font-family:Bitstream Vera Sans"
         xml:space="preserve"><tspan
           style="font-size:23.1456089px;fill:#ff0000"
           y="547.02539"
           x="563.48608"
           id="tspan51074"
           sodipodi:role="line">1</tspan></text>
      <path
         sodipodi:nodetypes="cc"
         inkscape:connector-type="polyline"
         id="path51131"
         d="M 394.63097,206.83251 L 751.55702,605.17698"
         style="fill:none;fill-rule:evenodd;stroke:#000000;stroke-width:0.96440035px;stroke-linecap:butt;stroke-linejoin:miter;stroke-opacity:1" />
      <path
         sodipodi:nodetypes="cc"
         inkscape:connector-type="polyline"
         id="path51133"
         d="M 543.08694,86.548101 L 915.80618,496.60859"
         style="fill:none;fill-rule:evenodd;stroke:#000000;stroke-width:0.96440035px;stroke-linecap:butt;stroke-linejoin:miter;stroke-opacity:1" />
      <path
         inkscape:connector-type="polyline"
         id="path51135"
         d="M 463.33134,131.85002 L 774.45714,477.0819"
         style="fill:none;fill-rule:evenodd;stroke:#000000;stroke-width:0.96440035;stroke-linecap:butt;stroke-linejoin:miter;stroke-miterlimit:4;stroke-dasharray:3.85760152, 3.85760152;stroke-dashoffset:0;stroke-opacity:1" />
      <path
         sodipodi:nodetypes="cc"
         inkscape:connector-type="polyline"
         id="path52106"
         d="M 325.14095,239.63734 L 682.067,637.98182"
         style="fill:none;fill-rule:evenodd;stroke:#000000;stroke-width:0.96440035px;stroke-linecap:butt;stroke-linejoin:miter;stroke-opacity:1" />
      <path
         sodipodi:nodetypes="cc"
         inkscape:connector-type="polyline"
         id="path52108"
         d="M 626.00118,27.186964 L 982.92723,425.53143"
         style="fill:none;fill-rule:evenodd;stroke:#000000;stroke-width:0.96440035px;stroke-linecap:butt;stroke-linejoin:miter;stroke-opacity:1" />
      <text
         transform="matrix(0.7286242,0.6853584,-0.6928974,0.7206965,0,0)"
         sodipodi:linespacing="125%"
         id="text52117"
         y="-163.22957"
         x="568.42749"
         style="font-size:46.2912178px;font-style:normal;font-variant:normal;font-weight:bold;font-stretch:normal;text-align:start;line-height:125%;writing-mode:lr-tb;text-anchor:start;fill:#0000ff;fill-opacity:1;stroke:none;stroke-width:1px;stroke-linecap:butt;stroke-linejoin:miter;stroke-opacity:1;font-family:Bitstream Vera Sans"
         xml:space="preserve"><tspan
           style="font-size:15.43040562px;fill:#0000ff"
           y="-163.22957"
           x="568.42749"
           id="tspan52119"
           sodipodi:role="line">I,a</tspan></text>
      <text
         transform="matrix(0.7286242,0.6853584,-0.6928974,0.7206965,0,0)"
         sodipodi:linespacing="125%"
         id="text52121"
         y="-153.73241"
         x="703.1759"
         style="font-size:46.2912178px;font-style:normal;font-variant:normal;font-weight:bold;font-stretch:normal;text-align:start;line-height:125%;writing-mode:lr-tb;text-anchor:start;fill:#0000ff;fill-opacity:1;stroke:none;stroke-width:1px;stroke-linecap:butt;stroke-linejoin:miter;stroke-opacity:1;font-family:Bitstream Vera Sans"
         xml:space="preserve"><tspan
           style="font-size:15.43040562px;fill:#0000ff"
           y="-153.73241"
           x="703.1759"
           id="tspan52123"
           sodipodi:role="line">I,a</tspan></text>
      <text
         transform="matrix(0.7286242,0.6853584,-0.6928974,0.7206965,0,0)"
         sodipodi:linespacing="125%"
         id="text52125"
         y="-76.117592"
         x="630.67645"
         style="font-size:46.2912178px;font-style:normal;font-variant:normal;font-weight:bold;font-stretch:normal;text-align:start;line-height:125%;writing-mode:lr-tb;text-anchor:start;fill:#0000ff;fill-opacity:1;stroke:none;stroke-width:1px;stroke-linecap:butt;stroke-linejoin:miter;stroke-opacity:1;font-family:Bitstream Vera Sans"
         xml:space="preserve"><tspan
           style="font-size:15.43040562px;fill:#0000ff"
           y="-76.117592"
           x="630.67645"
           id="tspan52127"
           sodipodi:role="line">V,b</tspan></text>
      <text
         transform="matrix(0.7286242,0.6853584,-0.6928974,0.7206965,0,0)"
         sodipodi:linespacing="125%"
         id="text52129"
         y="-268.70337"
         x="504.97348"
         style="font-size:46.2912178px;font-style:normal;font-variant:normal;font-weight:bold;font-stretch:normal;text-align:start;line-height:125%;writing-mode:lr-tb;text-anchor:start;fill:#0000ff;fill-opacity:1;stroke:none;stroke-width:1px;stroke-linecap:butt;stroke-linejoin:miter;stroke-opacity:1;font-family:Bitstream Vera Sans"
         xml:space="preserve"><tspan
           style="font-size:15.43040562px;fill:#0000ff"
           y="-268.70337"
           x="504.97348"
           id="tspan52131"
           sodipodi:role="line">I,b</tspan></text>
      <text
         transform="matrix(0.7286242,0.6853584,-0.6928974,0.7206965,0,0)"
         sodipodi:linespacing="125%"
         id="text52133"
         y="-256.84607"
         x="645.21765"
         style="font-size:46.2912178px;font-style:normal;font-variant:normal;font-weight:bold;font-stretch:normal;text-align:start;line-height:125%;writing-mode:lr-tb;text-anchor:start;fill:#0000ff;fill-opacity:1;stroke:none;stroke-width:1px;stroke-linecap:butt;stroke-linejoin:miter;stroke-opacity:1;font-family:Bitstream Vera Sans"
         xml:space="preserve"><tspan
           style="font-size:15.43040562px;fill:#0000ff"
           y="-256.84607"
           x="645.21765"
           id="tspan52135"
           sodipodi:role="line">I,b</tspan></text>
      <text
         transform="matrix(0.7286242,0.6853584,-0.6928974,0.7206965,0,0)"
         sodipodi:linespacing="125%"
         id="text52137"
         y="-248.7493"
         x="790.55591"
         style="font-size:46.2912178px;font-style:normal;font-variant:normal;font-weight:bold;font-stretch:normal;text-align:start;line-height:125%;writing-mode:lr-tb;text-anchor:start;fill:#0000ff;fill-opacity:1;stroke:none;stroke-width:1px;stroke-linecap:butt;stroke-linejoin:miter;stroke-opacity:1;font-family:Bitstream Vera Sans"
         xml:space="preserve"><tspan
           style="font-size:15.43040562px;fill:#0000ff"
           y="-248.7493"
           x="790.55591"
           id="tspan52139"
           sodipodi:role="line">I,b</tspan></text>
      <text
         transform="matrix(0.7286242,0.6853584,-0.6928974,0.7206965,0,0)"
         sodipodi:linespacing="125%"
         id="text52141"
         y="-363.99417"
         x="515.14545"
         style="font-size:46.2912178px;font-style:normal;font-variant:normal;font-weight:bold;font-stretch:normal;text-align:start;line-height:125%;writing-mode:lr-tb;text-anchor:start;fill:#0000ff;fill-opacity:1;stroke:none;stroke-width:1px;stroke-linecap:butt;stroke-linejoin:miter;stroke-opacity:1;font-family:Bitstream Vera Sans"
         xml:space="preserve"><tspan
           style="font-size:15.43040562px;fill:#0000ff"
           y="-363.99417"
           x="515.14545"
           id="tspan52143"
           sodipodi:role="line">II,c</tspan></text>
      <text
         transform="matrix(0.7286242,0.6853584,-0.6928974,0.7206965,0,0)"
         sodipodi:linespacing="125%"
         id="text52157"
         y="-363.91559"
         x="582.26068"
         style="font-size:46.2912178px;font-style:normal;font-variant:normal;font-weight:bold;font-stretch:normal;text-align:start;line-height:125%;writing-mode:lr-tb;text-anchor:start;fill:#0000ff;fill-opacity:1;stroke:none;stroke-width:1px;stroke-linecap:butt;stroke-linejoin:miter;stroke-opacity:1;font-family:Bitstream Vera Sans"
         xml:space="preserve"><tspan
           style="font-size:15.43040562px;fill:#0000ff"
           y="-363.91559"
           x="582.26068"
           id="tspan52159"
           sodipodi:role="line">II,c</tspan></text>
      <text
         transform="matrix(0.7286242,0.6853584,-0.6928974,0.7206965,0,0)"
         sodipodi:linespacing="125%"
         id="text52161"
         y="-358.91034"
         x="648.79523"
         style="font-size:46.2912178px;font-style:normal;font-variant:normal;font-weight:bold;font-stretch:normal;text-align:start;line-height:125%;writing-mode:lr-tb;text-anchor:start;fill:#0000ff;fill-opacity:1;stroke:none;stroke-width:1px;stroke-linecap:butt;stroke-linejoin:miter;stroke-opacity:1;font-family:Bitstream Vera Sans"
         xml:space="preserve"><tspan
           style="font-size:15.43040562px;fill:#0000ff"
           y="-358.91034"
           x="648.79523"
           id="tspan52163"
           sodipodi:role="line">II,c</tspan></text>
      <text
         transform="matrix(0.7286242,0.6853584,-0.6928974,0.7206965,0,0)"
         sodipodi:linespacing="125%"
         id="text52165"
         y="-355.50085"
         x="718.14746"
         style="font-size:46.2912178px;font-style:normal;font-variant:normal;font-weight:bold;font-stretch:normal;text-align:start;line-height:125%;writing-mode:lr-tb;text-anchor:start;fill:#0000ff;fill-opacity:1;stroke:none;stroke-width:1px;stroke-linecap:butt;stroke-linejoin:miter;stroke-opacity:1;font-family:Bitstream Vera Sans"
         xml:space="preserve"><tspan
           style="font-size:15.43040562px;fill:#0000ff"
           y="-355.50085"
           x="718.14746"
           id="tspan52167"
           sodipodi:role="line">II,c</tspan></text>
      <text
         transform="scale(1.005485,0.9945449)"
         sodipodi:linespacing="125%"
         id="text52175"
         y="615.37347"
         x="674.38922"
         style="font-size:46.2912178px;font-style:normal;font-variant:normal;font-weight:bold;font-stretch:normal;text-align:start;line-height:125%;writing-mode:lr-tb;text-anchor:start;fill:#0000ff;fill-opacity:1;stroke:none;stroke-width:1px;stroke-linecap:butt;stroke-linejoin:miter;stroke-opacity:1;font-family:Bitstream Vera Sans"
         xml:space="preserve"><tspan
           style="fill:#0000ff"
           y="615.37347"
           x="674.38922"
           id="tspan52177"
           sodipodi:role="line">V</tspan></text>
      <text
         transform="scale(1.005485,0.9945449)"
         sodipodi:linespacing="125%"
         id="text52181"
         y="555.47333"
         x="752.3194"
         style="font-size:46.2912178px;font-style:normal;font-variant:normal;font-weight:bold;font-stretch:normal;text-align:start;line-height:125%;writing-mode:lr-tb;text-anchor:start;fill:#0000ff;fill-opacity:1;stroke:none;stroke-width:1px;stroke-linecap:butt;stroke-linejoin:miter;stroke-opacity:1;font-family:Bitstream Vera Sans"
         xml:space="preserve"><tspan
           style="fill:#0000ff"
           y="555.47333"
           x="752.3194"
           id="tspan52183"
           sodipodi:role="line">I</tspan></text>
      <text
         transform="scale(1.005485,0.9945449)"
         sodipodi:linespacing="125%"
         id="text52185"
         y="488.71841"
         x="809.65009"
         style="font-size:46.2912178px;font-style:normal;font-variant:normal;font-weight:bold;font-stretch:normal;text-align:start;line-height:125%;writing-mode:lr-tb;text-anchor:start;fill:#0000ff;fill-opacity:1;stroke:none;stroke-width:1px;stroke-linecap:butt;stroke-linejoin:miter;stroke-opacity:1;font-family:Bitstream Vera Sans"
         xml:space="preserve"><tspan
           style="fill:#0000ff"
           y="488.71841"
           x="809.65009"
           id="tspan52187"
           sodipodi:role="line">I</tspan></text>
      <text
         transform="scale(1.005485,0.9945449)"
         sodipodi:linespacing="125%"
         id="text52189"
         y="430.60239"
         x="875.50787"
         style="font-size:46.2912178px;font-style:normal;font-variant:normal;font-weight:bold;font-stretch:normal;text-align:start;line-height:125%;writing-mode:lr-tb;text-anchor:start;fill:#0000ff;fill-opacity:1;stroke:none;stroke-width:1px;stroke-linecap:butt;stroke-linejoin:miter;stroke-opacity:1;font-family:Bitstream Vera Sans"
         xml:space="preserve"><tspan
           style="fill:#0000ff"
           y="430.60239"
           x="875.50787"
           id="tspan52191"
           sodipodi:role="line">II</tspan></text>
      <text
         transform="scale(1.005485,0.9945449)"
         sodipodi:linespacing="125%"
         id="text52193"
         y="558.96954"
         x="642.89691"
         style="font-size:46.2912178px;font-style:normal;font-variant:normal;font-weight:bold;font-stretch:normal;text-align:start;line-height:125%;writing-mode:lr-tb;text-anchor:start;fill:#0000ff;fill-opacity:1;stroke:none;stroke-width:1px;stroke-linecap:butt;stroke-linejoin:miter;stroke-opacity:1;font-family:Bitstream Vera Sans"
         xml:space="preserve"><tspan
           style="font-size:23.1456089px;fill:#0000ff"
           y="558.96954"
           x="642.89691"
           id="tspan52195"
           sodipodi:role="line">b</tspan></text>
      <text
         transform="scale(1.005485,0.9945449)"
         sodipodi:linespacing="125%"
         id="text52197"
         y="435.70886"
         x="778.77399"
         style="font-size:46.2912178px;font-style:normal;font-variant:normal;font-weight:bold;font-stretch:normal;text-align:start;line-height:125%;writing-mode:lr-tb;text-anchor:start;fill:#0000ff;fill-opacity:1;stroke:none;stroke-width:1px;stroke-linecap:butt;stroke-linejoin:miter;stroke-opacity:1;font-family:Bitstream Vera Sans"
         xml:space="preserve"><tspan
           style="font-size:23.1456089px;fill:#0000ff"
           y="435.70886"
           x="778.77399"
           id="tspan52199"
           sodipodi:role="line">b</tspan></text>
      <text
         transform="scale(1.005485,0.9945449)"
         sodipodi:linespacing="125%"
         id="text52201"
         y="369.73932"
         x="847.09961"
         style="font-size:46.2912178px;font-style:normal;font-variant:normal;font-weight:bold;font-stretch:normal;text-align:start;line-height:125%;writing-mode:lr-tb;text-anchor:start;fill:#0000ff;fill-opacity:1;stroke:none;stroke-width:1px;stroke-linecap:butt;stroke-linejoin:miter;stroke-opacity:1;font-family:Bitstream Vera Sans"
         xml:space="preserve"><tspan
           style="font-size:23.1456089px;fill:#0000ff"
           y="369.73932"
           x="847.09961"
           id="tspan52203"
           sodipodi:role="line">c</tspan></text>
      <text
         transform="scale(1.005485,0.9945449)"
         sodipodi:linespacing="125%"
         id="text52205"
         y="500.89307"
         x="707.30701"
         style="font-size:46.2912178px;font-style:normal;font-variant:normal;font-weight:bold;font-stretch:normal;text-align:start;line-height:125%;writing-mode:lr-tb;text-anchor:start;fill:#0000ff;fill-opacity:1;stroke:none;stroke-width:1px;stroke-linecap:butt;stroke-linejoin:miter;stroke-opacity:1;font-family:Bitstream Vera Sans"
         xml:space="preserve"><tspan
           style="font-size:23.1456089px;fill:#0000ff"
           y="500.89307"
           x="707.30701"
           id="tspan52207"
           sodipodi:role="line">a</tspan></text>
    </g>
  </g>
</svg>
