#FIG 3.2
Landscape
Center
Metric
A4      
100.00
Single
-2
1200 2
6 5895 0 11430 2295
2 2 1 1 0 7 50 -1 -1 4.000 0 0 -1 0 0 5
	 5895 0 11430 0 11430 2295 5895 2295 5895 0
4 0 0 50 -1 24 12 0.0000 4 180 780 10350 2152 process 1\001
-6
6 0 0 5445 2295
2 2 1 1 0 7 50 -1 -1 4.000 0 0 -1 0 0 5
	 0 0 5445 0 5445 2295 0 2295 0 0
4 0 0 50 -1 24 12 0.0000 4 180 780 89 2187 process 0\001
-6
6 0 2610 5490 5040
2 2 1 1 0 7 50 -1 -1 4.000 0 0 -1 0 0 5
	 0 2610 5490 2610 5490 5040 0 5040 0 2610
4 0 0 50 -1 24 12 0.0000 4 180 780 90 4926 process 0\001
-6
6 5940 2610 11475 5040
2 2 1 1 0 7 50 -1 -1 4.000 0 0 -1 0 0 5
	 5940 2610 11475 2610 11475 5040 5940 5040 5940 2610
4 0 0 50 -1 24 12 0.0000 4 180 780 10395 4888 process 1\001
-6
6 8055 4230 8460 4590
1 3 0 1 0 24 50 -1 20 0.000 1 0.0000 8257 4410 160 160 8257 4410 8417 4410
4 0 0 50 -1 24 11 0.0000 4 150 195 8129 4447 1,2\001
-6
6 7560 4230 7965 4590
1 3 0 1 0 24 50 -1 20 0.000 1 0.0000 7762 4410 160 160 7762 4410 7922 4410
4 0 0 50 -1 24 11 0.0000 4 150 195 7634 4447 1,1\001
-6
6 7065 4230 7470 4590
1 3 0 1 0 24 50 -1 20 0.000 1 0.0000 7267 4410 160 160 7267 4410 7427 4410
4 0 0 50 -1 24 11 0.0000 4 150 195 7139 4447 0,2\001
-6
6 9450 4230 9855 4590
1 3 0 1 0 17 50 -1 20 0.000 1 0.0000 9652 4410 160 160 9652 4410 9812 4410
4 0 0 50 -1 24 11 0.0000 4 150 195 9524 4447 0,5\001
-6
6 9945 4230 10305 4590
1 3 0 1 0 1 50 -1 20 0.000 1 0.0000 10125 4410 160 160 10125 4410 10285 4410
4 0 0 50 -1 24 10 0.0000 4 135 195 9974 4447 1,5\001
-6
6 2970 4230 3375 4590
1 3 0 1 0 17 50 -1 20 0.000 1 0.0000 3172 4410 160 160 3172 4410 3332 4410
4 0 0 50 -1 24 11 0.0000 4 150 195 3044 4447 1,3\001
-6
6 3465 4230 3870 4590
1 3 0 1 0 17 50 -1 20 0.000 1 0.0000 3667 4410 160 160 3667 4410 3827 4410
4 0 0 50 -1 24 11 0.0000 4 150 195 3539 4447 1,4\001
-6
6 1485 4230 1890 4590
1 3 0 1 0 17 50 -1 20 0.000 1 0.0000 1687 4410 160 160 1687 4410 1847 4410
4 0 0 50 -1 24 11 0.0000 4 150 195 1559 4447 0,3\001
-6
6 1980 4230 2385 4590
1 3 0 1 0 17 50 -1 20 0.000 1 0.0000 2182 4410 160 160 2182 4410 2342 4410
4 0 0 50 -1 24 11 0.0000 4 150 195 2054 4447 0,4\001
-6
6 2475 4230 2880 4590
1 3 0 1 0 17 50 -1 20 0.000 1 0.0000 2677 4410 160 160 2677 4410 2837 4410
4 0 0 50 -1 24 11 0.0000 4 150 195 2549 4447 0,5\001
-6
6 3960 4230 4320 4590
1 3 0 1 0 1 50 -1 20 0.000 1 0.0000 4140 4410 160 160 4140 4410 4300 4410
4 0 0 50 -1 24 10 0.0000 4 135 195 3989 4447 0,6\001
-6
6 4410 4230 4770 4590
1 3 0 1 0 1 50 -1 20 0.000 1 0.0000 4590 4410 160 160 4590 4410 4750 4410
4 0 0 50 -1 24 10 0.0000 4 135 195 4439 4447 1,5\001
-6
6 2565 2925 2970 3285
1 3 0 1 0 17 50 -1 20 0.000 1 0.0000 2767 3105 160 160 2767 3105 2927 3105
4 0 0 50 -1 24 11 0.0000 4 150 195 2639 3142 0,3\001
-6
6 585 2925 990 3285
1 3 0 1 0 24 50 -1 20 0.000 1 0.0000 787 3105 160 160 787 3105 947 3105
4 0 0 50 -1 24 11 0.0000 4 150 195 659 3142 0,1\001
-6
6 1080 2925 1485 3285
1 3 0 1 0 24 50 -1 20 0.000 1 0.0000 1282 3105 160 160 1282 3105 1442 3105
4 0 0 50 -1 24 11 0.0000 4 150 195 1154 3142 0,2\001
-6
6 4455 2925 4860 3285
1 3 0 1 0 17 50 -1 20 0.000 1 0.0000 4657 3105 160 160 4657 3105 4817 3105
4 0 0 50 -1 24 11 0.0000 4 150 195 4529 3142 1,4\001
-6
6 4005 2925 4410 3285
1 3 0 1 0 17 50 -1 20 0.000 1 0.0000 4207 3105 160 160 4207 3105 4367 3105
4 0 0 50 -1 24 11 0.0000 4 150 195 4079 3142 1,3\001
-6
6 3555 2925 3960 3285
1 3 0 1 0 17 50 -1 20 0.000 1 0.0000 3757 3105 160 160 3757 3105 3917 3105
4 0 0 50 -1 24 11 0.0000 4 150 195 3629 3142 0,5\001
-6
6 3060 2925 3465 3285
1 3 0 1 0 17 50 -1 20 0.000 1 0.0000 3262 3105 160 160 3262 3105 3422 3105
4 0 0 50 -1 24 11 0.0000 4 150 195 3134 3142 0,4\001
-6
6 1575 2925 1980 3285
1 3 0 1 0 24 50 -1 20 0.000 1 0.0000 1777 3105 160 160 1777 3105 1937 3105
4 0 0 50 -1 24 11 0.0000 4 150 195 1649 3142 1,1\001
-6
6 2070 2925 2475 3285
1 3 0 1 0 24 50 -1 20 0.000 1 0.0000 2272 3105 160 160 2272 3105 2432 3105
4 0 0 50 -1 24 11 0.0000 4 150 195 2144 3142 1,2\001
-6
6 3375 1485 3780 1845
1 3 0 1 0 0 50 -1 -1 0.000 1 0.0000 3577 1665 160 160 3577 1665 3737 1665
4 0 0 50 -1 24 11 0.0000 4 150 195 3449 1702 2,1\001
-6
6 1575 1485 1980 1845
1 3 0 1 0 0 50 -1 -1 0.000 1 0.0000 1777 1665 160 160 1777 1665 1937 1665
4 0 0 50 -1 24 11 0.0000 4 150 195 1649 1702 2,0\001
-6
6 135 360 540 720
1 3 0 1 0 24 50 -1 20 0.000 1 0.0000 337 540 160 160 337 540 497 540
4 0 0 50 -1 24 11 0.0000 4 150 195 209 577 0,1\001
-6
6 630 360 1035 720
1 3 0 1 0 24 50 -1 20 0.000 1 0.0000 832 540 160 160 832 540 992 540
4 0 0 50 -1 24 11 0.0000 4 150 195 704 577 0,2\001
-6
6 1125 360 1530 720
1 3 0 1 0 24 50 -1 20 0.000 1 0.0000 1327 540 160 160 1327 540 1487 540
4 0 0 50 -1 24 11 0.0000 4 150 195 1199 577 1,1\001
-6
6 1620 360 2025 720
1 3 0 1 0 24 50 -1 20 0.000 1 0.0000 1822 540 160 160 1822 540 1982 540
4 0 0 50 -1 24 11 0.0000 4 150 195 1694 577 1,2\001
-6
6 4005 360 4410 720
1 3 0 1 0 17 50 -1 20 0.000 1 0.0000 4207 540 160 160 4207 540 4367 540
4 0 0 50 -1 24 11 0.0000 4 150 195 4079 577 1,4\001
-6
6 3555 360 3960 720
1 3 0 1 0 17 50 -1 20 0.000 1 0.0000 3757 540 160 160 3757 540 3917 540
4 0 0 50 -1 24 11 0.0000 4 150 195 3629 577 1,3\001
-6
6 3105 360 3510 720
1 3 0 1 0 17 50 -1 20 0.000 1 0.0000 3307 540 160 160 3307 540 3467 540
4 0 0 50 -1 24 11 0.0000 4 150 195 3179 577 0,5\001
-6
6 2115 360 2520 720
1 3 0 1 0 17 50 -1 20 0.000 1 0.0000 2317 540 160 160 2317 540 2477 540
4 0 0 50 -1 24 11 0.0000 4 150 195 2189 577 0,3\001
-6
6 2610 360 3015 720
1 3 0 1 0 17 50 -1 20 0.000 1 0.0000 2812 540 160 160 2812 540 2972 540
4 0 0 50 -1 24 11 0.0000 4 150 195 2684 577 0,4\001
-6
6 4500 360 4860 720
1 3 0 1 0 1 50 -1 20 0.000 1 0.0000 4680 540 160 160 4680 540 4840 540
4 0 0 50 -1 24 10 0.0000 4 135 195 4529 577 0,6\001
-6
6 4950 360 5310 720
1 3 0 1 0 1 50 -1 20 0.000 1 0.0000 5130 540 160 160 5130 540 5290 540
4 0 0 50 -1 24 10 0.0000 4 135 195 4979 577 1,5\001
-6
6 8370 1440 8775 1800
1 3 0 1 0 0 50 -1 -1 0.000 1 0.0000 8572 1620 160 160 8572 1620 8732 1620
4 0 0 50 -1 24 11 0.0000 4 150 195 8444 1657 2,1\001
-6
6 7335 360 7740 720
1 3 1 1 0 24 50 -1 41 4.000 1 0.0000 7537 540 160 160 7537 540 7697 540
4 0 0 50 -1 24 11 0.0000 4 150 195 7409 577 1,1\001
-6
6 9765 360 10125 720
1 3 1 1 0 1 50 -1 41 4.000 1 0.0000 9945 540 160 160 9945 540 10105 540
4 0 0 50 -1 24 10 0.0000 4 135 195 9794 577 1,5\001
-6
1 3 0 1 0 17 50 -1 20 0.000 1 0.0000 8707 4410 160 160 8707 4410 8867 4410
1 3 0 1 0 17 50 -1 20 0.000 1 0.0000 9202 4410 160 160 9202 4410 9362 4410
1 3 1 1 0 24 50 -1 41 4.000 1 0.0000 8032 540 160 160 8032 540 8192 540
1 3 1 1 0 17 50 -1 41 4.000 1 0.0000 8527 540 160 160 8527 540 8687 540
1 3 1 1 0 17 50 -1 41 4.000 1 0.0000 9022 540 160 160 9022 540 9182 540
1 3 1 1 0 24 50 -1 41 4.000 1 0.0000 7042 540 160 160 7042 540 7202 540
1 3 1 1 0 17 50 -1 41 4.000 1 0.0000 9472 540 160 160 9472 540 9632 540
2 1 0 1 0 7 50 -1 -1 0.000 0 0 -1 1 0 2
	1 1 2.00 85.73 142.87
	 810 3330 1530 4230
2 1 0 1 0 7 50 -1 -1 0.000 0 0 -1 1 0 2
	1 1 2.00 85.73 142.87
	 1260 3285 1620 4230
2 1 0 1 0 7 50 -1 -1 0.000 0 0 -1 1 0 2
	1 1 2.00 85.73 142.87
	 1350 3285 2520 4230
2 1 0 1 0 7 50 -1 -1 0.000 0 0 -1 1 0 2
	1 1 2.00 85.73 142.87
	 1845 3285 2610 4230
2 1 0 1 0 7 50 -1 -1 0.000 0 0 -1 1 0 2
	1 1 2.00 85.73 142.87
	 900 3285 2070 4230
2 1 0 1 0 7 50 -1 -1 0.000 0 0 -1 1 0 2
	1 1 2.00 85.73 142.87
	 2790 3285 3960 4275
2 1 0 1 0 7 50 -1 -1 0.000 0 0 -1 1 0 2
	1 1 2.00 85.73 142.87
	 3805 3281 4140 4185
2 1 0 1 0 7 50 -1 -1 0.000 0 0 -1 1 0 2
	1 1 2.00 85.73 142.87
	 1440 3240 3015 4230
2 1 0 1 0 7 50 -1 -1 0.000 0 0 -1 1 0 2
	1 1 2.00 85.73 142.87
	 1890 3240 3510 4230
2 1 0 1 0 7 50 -1 -1 0.000 0 0 -1 1 0 2
	1 1 2.00 85.73 142.87
	 2295 3285 3105 4230
2 1 0 1 0 7 50 -1 -1 0.000 0 0 -1 1 0 2
	1 1 2.00 85.73 142.87
	 2340 3285 3600 4230
2 1 0 1 0 7 50 -1 -1 0.000 0 0 -1 1 0 2
	1 1 2.00 85.73 142.87
	 3285 3285 4050 4230
2 1 0 1 0 7 50 -1 -1 0.000 0 0 -1 1 0 2
	1 1 2.00 85.73 142.87
	 3825 3285 4410 4185
2 1 0 1 0 7 50 -1 -1 0.000 0 0 -1 1 0 2
	1 1 2.00 85.73 142.87
	 4230 3285 4545 4185
2 1 0 1 0 7 50 -1 -1 0.000 0 0 -1 1 0 2
	1 1 2.00 85.73 142.87
	 4680 3330 4635 4185
2 1 0 1 0 7 50 -1 -1 0.000 0 0 -1 1 0 2
	1 1 2.00 85.73 142.87
	 1363 715 1755 1485
2 1 0 1 0 7 50 -1 -1 0.000 0 0 -1 1 0 2
	1 1 2.00 85.73 142.87
	 855 765 1620 1440
2 1 0 1 0 7 50 -1 -1 0.000 0 0 -1 1 0 2
	1 1 2.00 85.73 142.87
	 2700 720 1890 1440
2 1 0 1 0 7 50 -1 -1 0.000 0 0 -1 1 0 2
	1 1 2.00 85.73 142.87
	 3735 720 3600 1440
2 1 0 1 0 7 50 -1 -1 0.000 0 0 -1 1 0 2
	1 1 2.00 85.73 142.87
	 4140 720 3690 1440
2 1 0 1 0 7 50 -1 -1 0.000 0 0 -1 1 0 2
	1 1 2.00 85.73 142.87
	 5040 720 3735 1530
2 1 0 1 0 7 50 -1 -1 0.000 0 0 -1 1 0 2
	1 1 2.00 85.73 142.87
	 360 765 1575 1530
2 1 0 1 0 7 50 -1 -1 0.000 0 0 -1 1 0 2
	1 1 2.00 85.73 142.87
	 3150 675 1980 1530
2 1 0 1 0 7 50 -1 -1 0.000 0 0 -1 1 0 2
	1 1 2.00 85.73 142.87
	 1894 753 3510 1440
2 1 0 1 0 7 50 -1 -1 0.000 0 0 -1 1 0 2
	1 1 2.00 85.73 142.87
	 1440 720 3420 1530
2 1 0 1 0 7 50 -1 -1 0.000 0 0 -1 1 0 2
	1 1 2.00 85.73 142.87
	 4590 720 1980 1620
2 1 0 1 0 7 50 -1 -1 0.000 0 0 -1 1 0 2
	1 1 2.00 85.73 142.87
	 2235 674 1800 1440
2 1 0 1 0 7 50 -1 -1 0.000 0 0 -1 1 0 2
	1 1 2.00 85.73 142.87
	 994 671 3375 1665
2 1 0 1 0 7 50 -1 -1 0.000 0 0 -1 1 0 2
	1 1 2.00 85.73 142.87
	 3281 728 3555 1440
2 1 1 1 0 7 50 -1 -1 4.000 0 0 -1 1 0 2
	1 1 2.00 85.50 142.50
	 8010 765 8460 1440
2 1 1 1 0 7 50 -1 -1 4.000 0 0 -1 1 0 2
	1 1 2.00 85.50 142.50
	 8910 720 8595 1440
2 1 1 1 0 7 50 -1 -1 4.000 0 0 -1 1 0 2
	1 1 2.00 85.50 142.50
	 7560 810 8370 1485
2 1 1 1 0 7 50 -1 -1 4.000 0 0 -1 1 0 2
	1 1 2.00 85.50 142.50
	 8547 782 8550 1395
2 1 1 1 0 7 50 -1 -1 4.000 0 0 -1 1 0 2
	1 1 2.00 85.50 142.50
	 9360 720 8730 1440
2 1 1 1 0 7 50 -1 -1 4.000 0 0 -1 1 0 2
	1 1 2.00 85.50 142.50
	 7132 738 8325 1575
2 1 1 1 0 7 50 -1 -1 4.000 0 0 -1 1 0 2
	1 1 2.00 85.50 142.50
	 9813 678 8820 1530
2 4 0 1 0 7 50 -1 -1 4.000 0 0 7 0 0 5
	 9315 2070 9315 1215 3060 1215 3060 2070 9315 2070
2 4 0 1 0 7 50 -1 -1 4.000 0 0 7 0 0 5
	 10575 4860 10575 3915 1125 3915 1125 4860 10575 4860
4 0 0 50 -1 24 12 0.0000 4 135 120 5625 1350 P\001
4 0 0 50 -1 24 12 0.0000 4 135 120 5625 3735 T\001
4 0 0 50 -1 24 11 0.0000 4 150 195 8579 4447 1,3\001
4 0 0 50 -1 24 11 0.0000 4 150 195 9074 4447 1,4\001
4 0 0 50 -1 24 11 0.0000 4 150 195 7904 577 1,2\001
4 0 0 50 -1 24 11 0.0000 4 150 195 8399 577 1,3\001
4 0 0 50 -1 24 11 0.0000 4 150 195 8894 577 1,4\001
4 0 0 50 -1 24 11 0.0000 4 150 195 6914 577 0,2\001
4 0 0 50 -1 24 11 0.0000 4 150 195 9344 577 0,5\001
