#FIG 3.2  Produced by xfig version 3.2.5-alpha5
Landscape
Center
Metric
A4      
100.00
Single
-2
1200 2
6 1485 2970 1845 3330
1 3 0 1 0 1 50 -1 20 0.000 1 0.0000 1665 3150 160 160 1665 3150 1825 3150
4 0 0 50 -1 24 10 0.0000 4 150 195 1514 3187 0,6\001
-6
6 1350 1845 1755 2205
1 3 0 1 0 17 50 -1 20 0.000 1 0.0000 1552 2025 160 160 1552 2025 1712 2025
4 0 0 50 -1 24 11 0.0000 4 150 240 1424 2062 0,4\001
-6
6 2565 1845 2970 2205
1 3 0 1 0 17 50 -1 20 0.000 1 0.0000 2767 2025 160 160 2767 2025 2927 2025
4 0 0 50 -1 24 11 0.0000 4 150 240 2639 2062 0,5\001
-6
6 180 1845 585 2205
1 3 0 1 0 17 50 -1 20 0.000 1 0.0000 382 2025 160 160 382 2025 542 2025
4 0 0 50 -1 24 11 0.0000 4 150 240 254 2062 0,3\001
-6
6 630 945 1035 1305
1 3 0 1 0 24 50 -1 20 0.000 1 0.0000 832 1125 160 160 832 1125 992 1125
4 0 0 50 -1 24 11 0.0000 4 150 240 704 1162 0,1\001
-6
6 1980 945 2385 1305
1 3 0 1 0 24 50 -1 20 0.000 1 0.0000 2182 1125 160 160 2182 1125 2342 1125
4 0 0 50 -1 24 11 0.0000 4 150 240 2054 1162 0,2\001
-6
6 3105 945 3510 1305
1 3 0 1 0 24 50 -1 20 0.000 1 0.0000 3307 1125 160 160 3307 1125 3467 1125
4 0 0 50 -1 24 11 0.0000 4 150 240 3179 1162 1,1\001
-6
6 6570 2970 6930 3330
1 3 0 1 0 1 50 -1 20 0.000 1 0.0000 6750 3150 160 160 6750 3150 6910 3150
4 0 0 50 -1 24 10 0.0000 4 150 195 6599 3187 1,5\001
-6
6 6615 1845 7020 2205
1 3 0 1 0 17 50 -1 20 0.000 1 0.0000 6817 2025 160 160 6817 2025 6977 2025
4 0 0 50 -1 24 11 0.0000 4 150 240 6689 2062 1,3\001
-6
6 7830 1800 8235 2160
1 3 0 1 0 17 50 -1 20 0.000 1 0.0000 8032 1980 160 160 8032 1980 8192 1980
4 0 0 50 -1 24 11 0.0000 4 150 240 7904 2017 1,4\001
-6
6 7290 990 7695 1350
1 3 0 1 0 24 50 -1 20 0.000 1 0.0000 7492 1170 160 160 7492 1170 7652 1170
4 0 0 50 -1 24 11 0.0000 4 150 240 7364 1207 1,2\001
-6
6 5445 1845 5850 2205
1 3 0 1 0 17 50 -1 20 0.000 1 0.0000 5647 2025 160 160 5647 2025 5807 2025
4 0 0 50 -1 24 11 0.0000 4 150 240 5519 2062 0,5\001
-6
6 6075 945 6480 1305
1 3 0 1 0 24 50 -1 20 0.000 1 0.0000 6277 1125 160 160 6277 1125 6437 1125
4 0 0 50 -1 24 11 0.0000 4 150 240 6149 1162 1,1\001
-6
6 4860 945 5265 1305
1 3 0 1 0 24 50 -1 20 0.000 1 0.0000 5062 1125 160 160 5062 1125 5222 1125
4 0 0 50 -1 24 11 0.0000 4 150 240 4934 1162 0,2\001
-6
1 3 1 1 0 1 50 -1 41 4.000 1 0.0000 3825 3150 160 160 3825 3150 3985 3150
1 3 1 1 0 17 50 -1 41 4.000 1 0.0000 3847 2025 160 160 3847 2025 4007 2025
1 3 1 1 0 1 50 -1 41 4.000 1 0.0000 4545 3150 160 160 4545 3150 4705 3150
1 3 1 1 0 17 50 -1 41 4.000 1 0.0000 4522 2025 160 160 4522 2025 4682 2025
1 3 2 1 0 -1 50 -1 -1 4.000 1 0.0000 5625 3555 160 160 5625 3555 5785 3555
1 3 2 1 0 -1 50 -1 -1 4.000 1 0.0000 2734 3555 160 160 2734 3555 2894 3555
2 1 0 1 0 7 50 -1 -1 0.000 0 0 -1 1 0 2
	1 1 2.00 85.73 142.87
	 1035 1305 1530 1845
2 1 0 1 0 7 50 -1 -1 0.000 0 0 -1 1 0 2
	1 1 2.00 85.73 142.87
	 765 1350 450 1845
2 1 0 1 0 7 50 -1 -1 0.000 0 0 -1 1 0 2
	1 1 2.00 85.73 142.87
	 2070 1305 585 1890
2 1 0 1 0 7 50 -1 -1 0.000 0 0 -1 1 0 2
	1 1 2.00 85.73 142.87
	 2250 1350 2745 1845
2 1 0 1 0 7 50 -1 -1 0.000 0 0 -1 1 0 2
	1 1 2.00 85.73 142.87
	 3240 1350 2880 1890
2 1 0 1 0 7 50 -1 -1 0.000 0 0 -1 1 0 2
	1 1 2.00 85.73 142.87
	 488 2225 1485 3015
2 1 0 1 0 7 50 -1 -1 0.000 0 0 -1 1 0 2
	1 1 2.00 85.73 142.87
	 1572 2237 1620 2970
2 1 0 1 0 7 50 -1 -1 0.000 0 0 -1 1 0 2
	1 1 2.00 85.73 142.87
	 2678 2171 1845 2970
2 1 1 1 0 7 50 -1 -1 4.000 0 0 -1 1 0 2
	1 1 2.00 85.50 142.50
	 2879 2187 3705 2957
2 1 1 1 0 7 50 -1 -1 4.000 0 0 -1 1 0 2
	1 1 2.00 85.50 142.50
	 2346 1248 3600 1890
2 2 1 1 0 7 50 -1 -1 4.000 0 0 -1 0 0 5
	 180 135 4095 135 4095 3915 180 3915 180 135
2 1 0 1 0 7 50 -1 -1 0.000 0 0 -1 1 0 2
	1 1 2.00 85.73 142.87
	 7380 1350 6975 1890
2 1 0 1 0 7 50 -1 -1 0.000 0 0 -1 1 0 2
	1 1 2.00 85.73 142.87
	 5220 1260 6615 1935
2 1 0 1 0 7 50 -1 -1 0.000 0 0 -1 1 0 2
	1 1 2.00 85.73 142.87
	 5789 2200 6615 2970
2 1 0 1 0 7 50 -1 -1 0.000 0 0 -1 1 0 2
	1 1 2.00 85.73 142.87
	 6840 2250 6750 2970
2 1 0 1 0 7 50 -1 -1 0.000 0 0 -1 1 0 2
	1 1 2.00 85.73 142.87
	 5130 1350 5625 1845
2 1 0 1 0 7 50 -1 -1 0.000 0 0 -1 1 0 2
	1 1 2.00 85.73 142.87
	 6210 1350 5760 1890
2 1 0 1 0 7 50 -1 -1 0.000 0 0 -1 1 0 2
	1 1 2.00 85.73 142.87
	 6480 1305 7875 1890
2 1 0 1 0 7 50 -1 -1 0.000 0 0 -1 1 0 2
	1 1 2.00 85.73 142.87
	 7560 1350 7875 1845
2 1 0 1 0 7 50 -1 -1 0.000 0 0 -1 1 0 2
	1 1 2.00 85.73 142.87
	 7878 2170 6937 2977
2 1 1 1 0 7 50 -1 -1 4.000 0 0 -1 1 0 2
	1 1 2.00 85.50 142.50
	 5510 2168 4677 2967
2 1 1 1 0 7 50 -1 -1 4.000 0 0 -1 1 0 2
	1 1 2.00 85.50 142.50
	 4934 1282 4529 1822
2 2 1 1 0 7 50 -1 -1 4.000 0 0 -1 0 0 5
	 4275 135 8235 135 8235 3915 4275 3915 4275 135
2 1 2 1 0 7 50 -1 -1 3.000 0 0 -1 1 0 2
	1 1 2.00 85.50 142.50
	 3705 2207 2880 3330
2 1 2 1 0 7 50 -1 -1 3.000 0 0 -1 1 0 2
	1 1 2.00 85.50 142.50
	 3642 3274 2970 3375
2 1 2 1 0 7 50 -1 -1 3.000 0 0 -1 1 0 2
	1 1 2.00 85.50 142.50
	 4678 2177 5490 3375
2 1 2 1 0 7 50 -1 -1 3.000 0 0 -1 1 0 2
	1 1 2.00 85.50 142.50
	 4725 3285 5400 3465
4 0 0 50 -1 0 12 0.0000 4 195 825 405 3780 process 0\001
4 0 0 50 -1 24 10 0.0000 4 150 195 3674 3187 1,5\001
4 0 0 50 -1 24 11 0.0000 4 150 240 3719 2062 1,3\001
4 0 0 50 -1 0 12 0.0000 4 195 825 7245 3735 process 1\001
4 0 0 50 -1 24 10 0.0000 4 150 195 4394 3187 0,6\001
4 0 0 50 -1 24 11 0.0000 4 150 240 4394 2062 0,3\001
4 0 0 50 -1 24 10 0.0000 4 150 195 2639 3592 0,1\001
4 0 0 50 -1 24 10 0.0000 4 150 195 5519 3592 1,0\001
